version 1
nodes
0 "ValveBiped.Bip01_Pelvis" -1
1 "bip_pelvis" 0
2 "mvm" 1
3 "prp_pouch" 1
4 "ValveBiped.Bip01_Spine" 0
5 "bip_spine_0" 4
6 "ValveBiped.Bip01_Spine1" 4
7 "bip_spine_1" 6
8 "ValveBiped.Bip01_Spine2" 6
9 "bip_spine_2" 8
10 "medal_bone" 9
11 "prp_bullets" 9
12 "prp_gunPack" 9
13 "ValveBiped.Bip01_Spine4" 8
14 "bip_spine_3" 13
15 "ValveBiped.Bip01_Neck1" 13
16 "bip_neck" 15
17 "ValveBiped.Bip01_Head1" 15
18 "bip_head" 17
19 "prp_hat" 18
20 "ValveBiped.forward" 17
21 "ValveBiped.Bip01_R_Clavicle" 13
22 "bip_collar_R" 21
23 "ValveBiped.Bip01_R_UpperArm" 21
24 "bip_upperArm_R" 23
25 "ValveBiped.Bip01_R_Forearm" 23
26 "bip_lowerArm_R" 25
27 "ValveBiped.Bip01_R_Hand" 25
28 "bip_hand_R" 27
29 "ValveBiped.Anim_Attachment_RH" 27
30 "ValveBiped.Bip01_R_Finger4" 27
31 "bip_pinky_0_R" 30
32 "ValveBiped.Bip01_R_Finger41" 30
33 "bip_pinky_1_R" 32
34 "ValveBiped.Bip01_R_Finger42" 32
35 "bip_pinky_2_R" 34
36 "ValveBiped.Bip01_R_Finger3" 27
37 "bip_ring_0_R" 36
38 "ValveBiped.Bip01_R_Finger31" 36
39 "bip_ring_1_R" 38
40 "ValveBiped.Bip01_R_Finger32" 38
41 "bip_ring_2_R" 40
42 "ValveBiped.Bip01_R_Finger2" 27
43 "bip_middle_0_R" 42
44 "ValveBiped.Bip01_R_Finger21" 42
45 "bip_middle_1_R" 44
46 "ValveBiped.Bip01_R_Finger22" 44
47 "bip_middle_2_R" 46
48 "ValveBiped.Bip01_R_Finger1" 27
49 "bip_index_0_R" 48
50 "ValveBiped.Bip01_R_Finger11" 48
51 "bip_index_1_R" 50
52 "ValveBiped.Bip01_R_Finger12" 50
53 "bip_index_2_R" 52
54 "ValveBiped.Bip01_R_Finger0" 27
55 "bip_thumb_0_R" 54
56 "ValveBiped.Bip01_R_Finger01" 54
57 "bip_thumb_1_R" 56
58 "ValveBiped.Bip01_R_Finger02" 56
59 "bip_thumb_2_R" 58
60 "ValveBiped.Bip01_R_Ulna" 25
61 "ValveBiped.Bip01_L_Clavicle" 13
62 "bip_collar_L" 61
63 "ValveBiped.Bip01_L_UpperArm" 61
64 "bip_upperArm_L" 63
65 "ValveBiped.Bip01_L_Forearm" 63
66 "bip_lowerArm_L" 65
67 "ValveBiped.Bip01_L_Hand" 65
68 "bip_hand_L" 67
69 "ValveBiped.Anim_Attachment_LH" 67
70 "ValveBiped.Bip01_L_Finger4" 67
71 "bip_pinky_0_L" 70
72 "ValveBiped.Bip01_L_Finger41" 70
73 "bip_pinky_1_L" 72
74 "ValveBiped.Bip01_L_Finger42" 72
75 "bip_pinky_2_L" 74
76 "ValveBiped.Bip01_L_Finger3" 67
77 "bip_ring_0_L" 76
78 "ValveBiped.Bip01_L_Finger31" 76
79 "bip_ring_1_L" 78
80 "ValveBiped.Bip01_L_Finger32" 78
81 "bip_ring_2_L" 80
82 "ValveBiped.Bip01_L_Finger2" 67
83 "bip_middle_0_L" 82
84 "ValveBiped.Bip01_L_Finger21" 82
85 "bip_middle_1_L" 84
86 "ValveBiped.Bip01_L_Finger22" 84
87 "bip_middle_2_L" 86
88 "ValveBiped.Bip01_L_Finger1" 67
89 "bip_index_0_L" 88
90 "ValveBiped.Bip01_L_Finger11" 88
91 "bip_index_1_L" 90
92 "ValveBiped.Bip01_L_Finger12" 90
93 "bip_index_2_L" 92
94 "ValveBiped.Bip01_L_Finger0" 67
95 "bip_thumb_0_L" 94
96 "ValveBiped.Bip01_L_Finger01" 94
97 "bip_thumb_1_L" 96
98 "ValveBiped.Bip01_L_Finger02" 96
99 "bip_thumb_2_L" 98
100 "ValveBiped.Bip01_L_Ulna" 65
101 "ValveBiped.Bip01_R_Thigh" 0
102 "bip_hip_R" 101
103 "ValveBiped.Bip01_R_Calf" 101
104 "bip_knee_R" 103
105 "ValveBiped.Bip01_R_Foot" 103
106 "bip_foot_R" 105
107 "ValveBiped.Bip01_R_Toe0" 105
108 "bip_toe_R" 107
109 "ValveBiped.Bip01_L_Thigh" 0
110 "bip_hip_L" 109
111 "ValveBiped.Bip01_L_Calf" 109
112 "bip_knee_L" 111
113 "ValveBiped.Bip01_L_Foot" 111
114 "bip_foot_L" 113
115 "ValveBiped.Bip01_L_Toe0" 113
116 "bip_toe_L" 115
end
skeleton
time 0
0  0.000000 -0.512871 47.645508  1.570796 -0.000000 0.000001
1  -0.000000 -0.000000 0.000000  2.952958 -0.000001 -0.000000
2  5.069111 -2.624933 6.004779  -0.295523 -0.687744 -2.881838
3  -8.968058 3.945755 0.170637  -2.952957 0.000000 -0.000000
4  0.000001 5.625587 -1.073926  1.570795 0.086285 1.570790
5  -0.000020 -0.000001 0.000000  1.405445 -1.570790 0.029109
6  5.338981 -0.734287 -0.000033  -0.000000 0.000003 -0.029232
7  -0.000026 -0.000005 0.000001  1.467654 -1.570794 0.134546
8  6.197233 0.232967 -0.000018  -0.000000 -0.000050 0.100317
9  -0.000024 -0.000010 0.000004  1.527405 -1.570744 -0.000449
10  4.893226 -2.987594 -5.936023  2.831496 -0.281479 0.020968
11  -6.094389 0.629222 -6.463363  -3.102991 0.053976 0.007424
12  -2.437787 -4.354281 5.724749  -3.082573 0.000000 0.000000
13  5.795674 -0.254126 -0.000302  0.000010 0.000056 0.194102
14  -0.000023 -0.000011 0.000003  1.540203 -1.570801 0.022124
15  2.815588 -0.025126 0.000013  3.141588 -0.000022 0.373000
16  -0.000036 0.000002 -0.000003  -1.770405 1.570778 0.167691
17  2.588243 0.997257 0.000047  -0.000005 0.000013 0.302774
18  -0.000029 0.000007 -0.000002  -1.607786 1.570765 0.085229
19  0.000000 -7.732315 0.000062  3.014554 -0.000000 0.000000
20  2.000030 -2.999974 0.000012  -1.570801 -0.000005 -1.326442
21  -0.231675 0.701461 -3.712231  1.567149 2.023842 -0.181992
22  0.000014 -0.000038 0.000018  0.109278 0.028471 -1.461859
23  5.530741 0.587502 0.609967  1.701584 -0.061239 -0.687054
24  0.000040 0.000021 0.000019  -0.109896 0.000003 0.000012
25  12.121779 -0.000082 -0.000007  0.000485 -0.042542 -0.396091
26  0.000024 0.000050 0.000033  -0.101845 0.000001 0.000010
27  14.193334 0.000191 0.000012  -1.563675 0.106378 0.130268
28  0.000014 -0.000033 0.000061  -0.127550 -0.108088 -1.663971
29  2.676090 -1.712456 -0.000020  -1.570795 -0.000002 -1.571306
30  4.860795 -0.397879 2.631060  0.474852 -0.175882 -0.572518
31  0.000060 0.000002 0.000065  -0.000039 1.156651 -1.570805
32  2.339708 -0.000000 -0.000009  0.125591 -0.205820 -0.494880
33  0.000072 0.000037 0.000048  0.000035 1.083205 -1.570809
34  1.654018 -0.000023 -0.000008  0.000002 -0.006132 -0.244304
35  0.000059 0.000052 0.000048  0.276207 1.084658 -1.337756
36  5.501597 -0.777868 1.235735  0.143642 -0.039906 -0.501039
37  0.000041 -0.000024 0.000070  -0.000177 1.508736 -1.570983
38  2.377290 -0.000037 -0.000010  0.082207 -0.035213 -0.602955
39  0.000049 0.000009 0.000066  0.000084 1.437467 -1.570699
40  2.165994 0.000013 0.000010  0.000007 -0.009668 -0.430787
41  0.000040 0.000010 0.000064  0.367947 1.441217 -1.207432
42  5.706192 -0.410606 -0.536832  -0.109537 -0.057635 -0.491110
43  0.000037 -0.000030 0.000062  0.000127 1.728228 -1.570679
44  2.810349 0.000001 -0.000024  0.029657 0.084475 -0.562392
45  0.000044 -0.000003 0.000068  -0.000165 1.674169 -1.570940
46  2.500297 0.000023 0.000024  0.000002 -0.004471 -0.216345
47  0.000042 -0.000000 0.000068  0.421245 1.675235 -1.312794
48  5.104475 -0.475352 -2.188297  -0.370385 0.009661 -0.463709
49  0.000029 -0.000056 0.000048  -0.000067 1.766634 -1.570864
50  2.789337 -0.000001 0.000011  -0.059555 0.126099 -0.693176
51  0.000058 -0.000031 0.000055  -0.000051 1.780609 -1.570842
52  1.804713 0.000003 0.000024  0.000002 -0.004224 -0.244302
53  0.000055 -0.000009 0.000058  0.206039 1.781668 -1.307390
54  2.138507 -2.330492 -2.310875  1.806633 0.309889 -0.484212
55  0.000003 0.000071 0.000010  -0.000057 -1.884196 -1.570764
56  2.049997 -0.000014 0.000006  0.176716 0.033868 0.104840
57  0.000015 0.000072 -0.000002  0.000021 -2.059121 -1.570841
58  1.291436 -0.000006 0.000000  -0.000004 -0.009622 0.362882
59  0.000037 0.000064 0.000002  -0.056740 -2.062604 -1.950526
60  5.740854 0.000078 -0.000008  0.000070 -0.000001 0.000013
61  -0.231711 0.701455 3.712229  -1.577180 -2.025534 -0.171576
62  0.000022 -0.000053 -0.000013  0.104664 0.028282 1.681276
63  5.532468 0.597170 -0.584314  -1.702114 0.058112 -0.685169
64  0.000079 0.000011 -0.000028  -3.027747 0.000165 0.000047
65  12.121794 0.000144 0.000010  -0.001257 0.044065 -0.395887
66  0.000084 0.000032 -0.000060  -3.035347 0.000009 -0.000010
67  14.193267 -0.000214 0.000018  1.573450 -0.106750 0.134890
68  0.000087 -0.000107 -0.000013  -0.140737 -0.102646 1.478417
69  2.676063 -1.712496 0.000022  1.570791 -0.000003 1.570685
70  4.893176 -0.418016 -2.567129  -0.471314 0.161754 -0.572853
71  0.000130 -0.000049 -0.000020  -0.000007 1.158890 1.570775
72  2.339795 -0.000033 0.000009  -0.122728 0.204770 -0.495384
73  0.000128 0.000010 0.000006  0.000002 1.088105 1.570790
74  1.654035 0.000010 0.000005  -0.000005 0.004978 -0.244267
75  0.000129 0.000030 0.000002  0.278461 1.089290 1.805819
76  5.516237 -0.789097 -1.161393  -0.147067 0.025702 -0.501624
77  0.000124 -0.000063 -0.000022  -0.000015 1.505071 1.570770
78  2.377272 0.000003 -0.000018  -0.089521 0.037309 -0.602825
79  0.000151 0.000018 -0.000013  0.000063 1.427154 1.570848
80  2.165982 -0.000007 0.000004  -0.000001 0.007348 -0.430836
81  0.000143 0.000073 -0.000013  0.388318 1.430060 1.954450
82  5.698842 -0.410214 0.611136  0.119918 0.043439 -0.491692
83  0.000126 -0.000064 -0.000004  0.000072 1.738543 1.570858
84  2.810280 -0.000026 0.000013  -0.030864 -0.089944 -0.561622
85  0.000150 0.000008 -0.000016  0.000019 1.681714 1.570815
86  2.500320 0.000016 -0.000012  -0.000004 0.003078 -0.216394
87  0.000146 0.000032 -0.000010  0.406281 1.682421 1.813937
88  5.076318 -0.463732 2.255315  0.374356 -0.023843 -0.464278
89  0.000128 -0.000073 0.000008  0.000003 1.770901 1.570785
90  2.789352 -0.000025 0.000005  0.069006 -0.128809 -0.692752
91  0.000149 0.000012 -0.000010  0.000054 1.793357 1.570836
92  1.804708 -0.000004 0.000003  -0.000005 0.002591 -0.244333
93  0.000145 0.000036 -0.000003  0.197948 1.793989 1.826266
94  2.107929 -2.316362 2.352869  -1.564317 -0.324094 -0.484813
95  0.000111 0.000047 -0.000067  -0.000090 -1.641877 1.570887
96  2.049996 0.000013 -0.000007  -0.118196 -0.007803 0.109875
97  0.000110 0.000046 -0.000060  -0.000006 -1.759645 1.570803
98  1.291398 -0.000008 -0.000000  0.000006 0.011267 0.362860
99  0.000129 0.000007 -0.000062  -0.020908 -1.763924 1.154034
100  5.740848 -0.000034 0.000014  0.000690 -0.000000 -0.000004
101  -5.201799 -5.114499 0.766600  -1.572814 0.024408 -1.662473
102  0.000012 0.000002 -0.000001  1.825260 -0.000003 0.000011
103  18.600538 0.000143 0.000000  0.005149 -0.048280 0.186836
104  0.000000 0.000011 -0.000012  0.244796 0.000006 -0.000010
105  18.446123 0.000229 -0.000002  0.002976 -0.019335 -1.264115
106  -0.000022 -0.000000 -0.000017  -0.797886 -1.282426 -0.630530
107  8.232257 1.357829 -1.734993  -0.060728 -0.009534 -0.555543
108  -0.000018 -0.000018 -0.000028  -1.254788 -1.262680 -0.264496
109  5.201797 -5.114518 0.766608  -1.568807 0.024411 -1.479118
110  0.000009 -0.000001 -0.000000  1.316360 0.000002 -0.000003
111  18.600548 0.000043 -0.000002  -0.004981 0.048272 0.186853
112  0.000014 -0.000007 -0.000005  1.325869 0.000012 -0.000007
113  18.446091 -0.000114 -0.000000  0.004052 0.018879 -1.264268
114  0.000012 0.000006 -0.000014  -0.777411 -1.278463 2.491585
115  8.232627 1.371201 1.722655  -0.000111 -0.003642 -0.555360
116  -0.000002 0.000017 -0.000022  1.709612 -1.859491 -0.095450
end
triangles
sniper_red
0  3.837554 7.925294 81.998878  -0.303055 0.171147 0.937479  0.241385 0.334840 1 19 1.000000
0  3.957063 4.330816 82.755554  -0.399071 0.088788 0.912611  0.249508 0.283432 1 19 1.000000
0  4.352407 7.713589 82.332069  -0.487399 0.164323 0.857578  0.247006 0.332437 1 19 1.000000
sniper_red
0  -0.024883 -3.821138 81.684120  -0.149955 -0.612761 0.775911  0.220930 0.157107 1 19 1.000000
0  0.051110 -5.627948 81.276459  -0.202331 -0.324595 0.923959  0.221959 0.129884 1 19 1.000000
0  2.923474 -4.649104 82.073730  -0.110460 -0.222823 0.968581  0.244549 0.148803 1 19 1.000000
sniper_red
0  -0.024883 -3.821138 81.684120  -0.149955 -0.612761 0.775911  0.220930 0.157107 1 19 1.000000
0  2.923474 -4.649104 82.073730  -0.110460 -0.222823 0.968581  0.244549 0.148803 1 19 1.000000
0  2.031439 -2.684192 82.247978  0.228494 -0.473975 0.850375  0.236745 0.177062 1 19 1.000000
sniper_red
0  2.031439 -2.684192 82.247978  0.228494 -0.473975 0.850375  0.236745 0.177062 1 19 1.000000
0  2.923474 -4.649104 82.073730  -0.110460 -0.222823 0.968581  0.244549 0.148803 1 19 1.000000
0  3.866682 -2.807441 82.493240  -0.775759 -0.149688 0.613018  0.253102 0.178905 1 19 1.000000
sniper_red
0  2.031439 -2.684192 82.247978  0.228494 -0.473975 0.850375  0.236745 0.177062 1 19 1.000000
0  3.866682 -2.807441 82.493240  -0.775759 -0.149688 0.613018  0.253102 0.178905 1 19 1.000000
0  3.925835 -1.097805 82.640358  -0.348796 -0.027769 0.936787  0.252883 0.204071 1 19 1.000000
sniper_red
0  2.031439 -2.684192 82.247978  0.228494 -0.473975 0.850375  0.236745 0.177062 1 19 1.000000
0  3.925835 -1.097805 82.640358  -0.348796 -0.027769 0.936787  0.252883 0.204071 1 19 1.000000
0  3.266533 -0.270538 82.282990  0.377022 -0.201713 0.903973  0.244182 0.214015 1 19 1.000000
sniper_red
0  3.501634 3.254645 82.474365  0.346616 0.230853 0.909156  0.243633 0.266510 1 19 1.000000
0  3.266533 -0.270538 82.282990  0.377022 -0.201713 0.903973  0.244182 0.214015 1 19 1.000000
0  3.925835 -1.097805 82.640358  -0.348796 -0.027769 0.936787  0.252883 0.204071 1 19 1.000000
sniper_red
0  3.501634 3.254645 82.474365  0.346616 0.230853 0.909156  0.243633 0.266510 1 19 1.000000
0  3.925835 -1.097805 82.640358  -0.348796 -0.027769 0.936787  0.252883 0.204071 1 19 1.000000
0  3.957063 4.330816 82.755554  -0.399071 0.088788 0.912611  0.249508 0.283432 1 19 1.000000
sniper_red
0  1.777041 5.605225 82.161880  0.128397 0.596828 0.792029  0.228160 0.298704 1 19 1.000000
0  3.501634 3.254645 82.474365  0.346616 0.230853 0.909156  0.243633 0.266510 1 19 1.000000
0  3.957063 4.330816 82.755554  -0.399071 0.088788 0.912611  0.249508 0.283432 1 19 1.000000
sniper_red
0  1.777041 5.605225 82.161880  0.128397 0.596828 0.792029  0.228160 0.298704 1 19 1.000000
0  3.957063 4.330816 82.755554  -0.399071 0.088788 0.912611  0.249508 0.283432 1 19 1.000000
0  3.837554 7.925294 81.998878  -0.303055 0.171147 0.937479  0.241385 0.334840 1 19 1.000000
sniper_red
0  1.777041 5.605225 82.161880  0.128397 0.596828 0.792029  0.228160 0.298704 1 19 1.000000
0  3.837554 7.925294 81.998878  -0.303055 0.171147 0.937479  0.241385 0.334840 1 19 1.000000
0  0.056715 8.398651 81.100266  -0.214255 0.217134 0.952338  0.210624 0.336139 1 19 1.000000
sniper_red
0  1.777041 5.605225 82.161880  0.128397 0.596828 0.792029  0.228160 0.298704 1 19 1.000000
0  0.056715 8.398651 81.100266  -0.214255 0.217134 0.952338  0.210624 0.336139 1 19 1.000000
0  -0.015764 5.910914 81.623680  -0.220292 0.693539 0.685911  0.213249 0.300324 1 19 1.000000
sniper_red
0  0.056715 8.398651 81.100266  -0.214255 0.217134 0.952338  0.210624 0.336139 1 19 1.000000
0  -1.676917 5.190808 81.395462  -0.538625 0.585502 0.605863  0.199275 0.293402 1 19 1.000000
0  -0.015764 5.910914 81.623680  -0.220292 0.693539 0.685911  0.213249 0.300324 1 19 1.000000
sniper_red
0  0.056715 8.398651 81.100266  -0.214255 0.217134 0.952338  0.210624 0.336139 1 19 1.000000
0  -3.497786 7.261126 80.548737  -0.303053 0.171146 0.937480  0.183627 0.314560 1 19 1.000000
0  -1.676917 5.190808 81.395462  -0.538625 0.585502 0.605863  0.199275 0.293402 1 19 1.000000
sniper_red
0  -3.497786 7.261126 80.548737  -0.303053 0.171146 0.937480  0.183627 0.314560 1 19 1.000000
0  -3.534266 3.254645 80.936653  -0.809738 0.227810 0.540765  0.187392 0.256187 1 19 1.000000
0  -1.676917 5.190808 81.395462  -0.538625 0.585502 0.605863  0.199275 0.293402 1 19 1.000000
sniper_red
0  -3.497786 7.261126 80.548737  -0.303053 0.171146 0.937480  0.183627 0.314560 1 19 1.000000
0  -5.869062 3.813558 79.625214  -0.426770 0.040225 0.903465  0.166421 0.259617 1 19 1.000000
0  -3.534266 3.254645 80.936653  -0.809738 0.227810 0.540765  0.187392 0.256187 1 19 1.000000
sniper_red
0  -6.185529 -0.521840 79.592094  -0.416848 -0.011178 0.908907  0.167365 0.195373 1 19 1.000000
0  -3.534266 3.254645 80.936653  -0.809738 0.227810 0.540765  0.187392 0.256187 1 19 1.000000
0  -5.869062 3.813558 79.625214  -0.426770 0.040225 0.903465  0.166421 0.259617 1 19 1.000000
sniper_red
0  -6.185529 -0.521840 79.592094  -0.416848 -0.011178 0.908907  0.167365 0.195373 1 19 1.000000
0  -3.240762 -0.270538 80.860802  -0.838170 -0.158743 0.521797  0.192167 0.204467 1 19 1.000000
0  -3.534266 3.254645 80.936653  -0.809738 0.227810 0.540765  0.187392 0.256187 1 19 1.000000
sniper_red
0  -5.303627 -3.327609 79.971725  -0.794947 -0.409105 0.447988  0.177044 0.155671 1 19 1.000000
0  -3.240762 -0.270538 80.860802  -0.838170 -0.158743 0.521797  0.192167 0.204467 1 19 1.000000
0  -6.185529 -0.521840 79.592094  -0.416848 -0.011178 0.908907  0.167365 0.195373 1 19 1.000000
sniper_red
0  -5.303627 -3.327609 79.971725  -0.794947 -0.409105 0.447988  0.177044 0.155671 1 19 1.000000
0  -2.094126 -2.800691 81.354050  -0.595154 -0.459202 0.659488  0.203877 0.169307 1 19 1.000000
0  -3.240762 -0.270538 80.860802  -0.838170 -0.158743 0.521797  0.192167 0.204467 1 19 1.000000
sniper_red
0  -5.303627 -3.327609 79.971725  -0.794947 -0.409105 0.447988  0.177044 0.155671 1 19 1.000000
0  -3.074048 -4.711679 80.845589  -0.359262 -0.254978 0.897729  0.196851 0.139224 1 19 1.000000
0  -2.094126 -2.800691 81.354050  -0.595154 -0.459202 0.659488  0.203877 0.169307 1 19 1.000000
sniper_red
0  -3.074048 -4.711679 80.845589  -0.359262 -0.254978 0.897729  0.196851 0.139224 1 19 1.000000
0  -0.024883 -3.821138 81.684120  -0.149955 -0.612761 0.775911  0.220930 0.157107 1 19 1.000000
0  -2.094126 -2.800691 81.354050  -0.595154 -0.459202 0.659488  0.203877 0.169307 1 19 1.000000
sniper_red
0  -3.074048 -4.711679 80.845589  -0.359262 -0.254978 0.897729  0.196851 0.139224 1 19 1.000000
0  0.051110 -5.627948 81.276459  -0.202331 -0.324595 0.923959  0.221959 0.129884 1 19 1.000000
0  -0.024883 -3.821138 81.684120  -0.149955 -0.612761 0.775911  0.220930 0.157107 1 19 1.000000
sniper_red
0  -3.371815 -5.559809 80.233383  -0.607368 -0.657549 0.445795  0.193856 0.125359 1 19 1.000000
0  0.051110 -5.627948 81.276459  -0.202331 -0.324595 0.923959  0.221959 0.129884 1 19 1.000000
0  -3.074048 -4.711679 80.845589  -0.359262 -0.254978 0.897729  0.196851 0.139224 1 19 1.000000
sniper_red
0  -3.371815 -5.559809 80.233383  -0.607368 -0.657549 0.445795  0.193856 0.125359 1 19 1.000000
0  -0.286628 -7.646448 80.251091  -0.310807 -0.774277 0.551266  0.218614 0.098033 1 19 1.000000
0  0.051110 -5.627948 81.276459  -0.202331 -0.324595 0.923959  0.221959 0.129884 1 19 1.000000
sniper_red
0  0.764107 -7.658439 80.478386  0.029812 -0.772494 0.634322  0.227017 0.099394 1 19 1.000000
0  0.051110 -5.627948 81.276459  -0.202331 -0.324595 0.923959  0.221959 0.129884 1 19 1.000000
0  -0.286628 -7.646448 80.251091  -0.310807 -0.774277 0.551266  0.218614 0.098033 1 19 1.000000
sniper_red
0  3.364048 -5.859453 81.703941  0.087406 -0.569872 0.817072  0.247928 0.130827 1 19 1.000000
0  0.051110 -5.627948 81.276459  -0.202331 -0.324595 0.923959  0.221959 0.129884 1 19 1.000000
0  0.764107 -7.658439 80.478386  0.029812 -0.772494 0.634322  0.227017 0.099394 1 19 1.000000
sniper_red
0  3.364048 -5.859453 81.703941  0.087406 -0.569872 0.817072  0.247928 0.130827 1 19 1.000000
0  2.923474 -4.649104 82.073730  -0.110460 -0.222823 0.968581  0.244549 0.148803 1 19 1.000000
0  0.051110 -5.627948 81.276459  -0.202331 -0.324595 0.923959  0.221959 0.129884 1 19 1.000000
sniper_red
0  3.364048 -5.859453 81.703941  0.087406 -0.569872 0.817072  0.247928 0.130827 1 19 1.000000
0  3.866682 -2.807441 82.493240  -0.775759 -0.149688 0.613018  0.253102 0.178905 1 19 1.000000
0  2.923474 -4.649104 82.073730  -0.110460 -0.222823 0.968581  0.244549 0.148803 1 19 1.000000
sniper_red
0  3.866682 -2.807441 82.493240  -0.775759 -0.149688 0.613018  0.253102 0.178905 1 19 1.000000
0  3.364048 -5.859453 81.703941  0.087406 -0.569872 0.817072  0.247928 0.130827 1 19 1.000000
0  3.954613 -5.050223 82.212837  -0.828299 -0.101363 0.551041  0.253355 0.145847 1 19 1.000000
sniper_red
0  3.954613 -5.050223 82.212837  -0.828299 -0.101363 0.551041  0.253355 0.145847 1 19 1.000000
0  4.042035 -3.198708 83.295471  -0.985698 -0.120136 -0.118178  0.260408 0.175158 1 19 1.000000
0  3.866682 -2.807441 82.493240  -0.775759 -0.149688 0.613018  0.253102 0.178905 1 19 1.000000
sniper_red
0  3.866682 -2.807441 82.493240  -0.775759 -0.149688 0.613018  0.253102 0.178905 1 19 1.000000
0  4.042035 -3.198708 83.295471  -0.985698 -0.120136 -0.118178  0.260408 0.175158 1 19 1.000000
0  3.686297 -1.474559 83.598892  -0.924294 -0.067902 -0.375593  0.262831 0.200446 1 19 1.000000
sniper_red
0  3.686297 -1.474559 83.598892  -0.924294 -0.067902 -0.375593  0.262831 0.200446 1 19 1.000000
0  4.042035 -3.198708 83.295471  -0.985698 -0.120136 -0.118178  0.260408 0.175158 1 19 1.000000
0  2.888958 -1.311842 84.597610  -0.766888 -0.027191 -0.641205  0.272164 0.203883 1 19 1.000000
sniper_red
0  3.596598 -0.269374 83.798233  -0.873959 0.014661 -0.485779  0.263971 0.218074 1 19 1.000000
0  3.686297 -1.474559 83.598892  -0.924294 -0.067902 -0.375593  0.262831 0.200446 1 19 1.000000
0  2.888958 -1.311842 84.597610  -0.766888 -0.027191 -0.641205  0.272164 0.203883 1 19 1.000000
sniper_red
0  3.596598 -0.269374 83.798233  -0.873959 0.014661 -0.485779  0.263971 0.218074 1 19 1.000000
0  2.888958 -1.311842 84.597610  -0.766888 -0.027191 -0.641205  0.272164 0.203883 1 19 1.000000
0  2.325253 0.495984 85.129349  -0.743070 0.018673 -0.668954  0.276774 0.230635 1 19 1.000000
sniper_red
0  3.452635 3.579863 84.071198  -0.882050 0.076954 -0.464830  0.264618 0.274015 1 19 1.000000
0  3.596598 -0.269374 83.798233  -0.873959 0.014661 -0.485779  0.263971 0.218074 1 19 1.000000
0  2.325253 0.495984 85.129349  -0.743070 0.018673 -0.668954  0.276774 0.230635 1 19 1.000000
sniper_red
0  3.452635 3.579863 84.071198  -0.882050 0.076954 -0.464830  0.264618 0.274015 1 19 1.000000
0  2.325253 0.495984 85.129349  -0.743070 0.018673 -0.668954  0.276774 0.230635 1 19 1.000000
0  2.056498 3.255714 85.686050  -0.763189 0.089333 -0.639971  0.280280 0.271105 1 19 1.000000
sniper_red
0  -3.074048 -4.711679 80.845589  -0.359262 -0.254978 0.897729  0.196851 0.139224 1 19 1.000000
0  -5.303627 -3.327609 79.971725  -0.794947 -0.409105 0.447988  0.177044 0.155671 1 19 1.000000
0  -3.371815 -5.559809 80.233383  -0.607368 -0.657549 0.445795  0.193856 0.125359 1 19 1.000000
sniper_red
0  3.957063 4.330816 82.755554  -0.961307 0.061105 -0.268618  0.249508 0.283432 1 19 1.000000
0  3.596598 -0.269374 83.798233  -0.873959 0.014661 -0.485779  0.263971 0.218074 1 19 1.000000
0  3.452635 3.579863 84.071198  -0.882050 0.076954 -0.464830  0.264618 0.274015 1 19 1.000000
sniper_red
0  3.957063 4.330816 82.755554  -0.961307 0.061105 -0.268618  0.249508 0.283432 1 19 1.000000
0  3.925835 -1.097805 82.640358  -0.960555 0.009853 -0.277915  0.252883 0.204071 1 19 1.000000
0  3.596598 -0.269374 83.798233  -0.873959 0.014661 -0.485779  0.263971 0.218074 1 19 1.000000
sniper_red
0  3.925835 -1.097805 82.640358  -0.960555 0.009853 -0.277915  0.252883 0.204071 1 19 1.000000
0  3.686297 -1.474559 83.598892  -0.924294 -0.067902 -0.375593  0.262831 0.200446 1 19 1.000000
0  3.596598 -0.269374 83.798233  -0.873959 0.014661 -0.485779  0.263971 0.218074 1 19 1.000000
sniper_red
0  3.925835 -1.097805 82.640358  -0.960555 0.009853 -0.277915  0.252883 0.204071 1 19 1.000000
0  3.866682 -2.807441 82.493240  -0.775759 -0.149688 0.613018  0.253102 0.178905 1 19 1.000000
0  3.686297 -1.474559 83.598892  -0.924294 -0.067902 -0.375593  0.262831 0.200446 1 19 1.000000
sniper_red
0  3.452635 3.579863 84.071198  -0.882050 0.076954 -0.464830  0.264618 0.274015 1 19 1.000000
0  2.056498 3.255714 85.686050  -0.763189 0.089333 -0.639971  0.280280 0.271105 1 19 1.000000
0  2.532584 4.875437 85.568748  -0.785182 0.139744 -0.603292  0.277343 0.294310 1 19 1.000000
sniper_red
0  3.452635 3.579863 84.071198  -0.882050 0.076954 -0.464830  0.264618 0.274015 1 19 1.000000
0  2.532584 4.875437 85.568748  -0.785182 0.139744 -0.603292  0.277343 0.294310 1 19 1.000000
0  3.901551 5.966267 83.912430  -0.897977 0.132955 -0.419476  0.261126 0.308276 1 19 1.000000
sniper_red
0  3.957063 4.330816 82.755554  -0.961307 0.061105 -0.268618  0.249508 0.283432 1 19 1.000000
0  3.452635 3.579863 84.071198  -0.882050 0.076954 -0.464830  0.264618 0.274015 1 19 1.000000
0  3.901551 5.966267 83.912430  -0.897977 0.132955 -0.419476  0.261126 0.308276 1 19 1.000000
sniper_red
0  3.957063 4.330816 82.755554  -0.961307 0.061105 -0.268618  0.249508 0.283432 1 19 1.000000
0  3.901551 5.966267 83.912430  -0.897977 0.132955 -0.419476  0.261126 0.308276 1 19 1.000000
0  4.352407 7.713589 82.332069  -0.968969 0.119983 -0.216110  0.247006 0.332437 1 19 1.000000
sniper_red
0  0.065597 5.844806 81.251411  0.199971 -0.323079 -0.925003  0.304050 0.295807 1 19 1.000000
0  -1.524824 4.609433 81.829353  0.436050 -0.594477 -0.675617  0.296823 0.302168 1 19 1.000000
0  -1.742999 5.753388 80.944405  0.366870 -0.324442 -0.871862  0.295188 0.295032 1 19 1.000000
sniper_red
0  0.065597 5.844806 81.251411  0.199971 -0.323079 -0.925003  0.304050 0.295807 1 19 1.000000
0  1.296998 4.609433 82.446068  -0.117561 -0.592054 -0.797278  0.309918 0.304700 1 19 1.000000
0  -1.524824 4.609433 81.829353  0.436050 -0.594477 -0.675617  0.296823 0.302168 1 19 1.000000
sniper_red
0  -3.053282 2.780779 81.452599  0.781780 -0.149362 -0.605402  0.289609 0.319723 1 19 1.000000
0  -0.817245 2.029968 85.323204  0.212084 -0.071029 -0.974667  0.302644 0.334881 1 19 1.000000
0  -2.008680 -2.042407 81.493240  0.644250 0.354305 -0.677798  0.291959 0.360458 1 19 1.000000
sniper_red
0  -3.053282 2.780779 81.452599  0.781780 -0.149362 -0.605402  0.289609 0.319723 1 19 1.000000
0  -1.524824 4.609433 81.829353  0.436050 -0.594477 -0.675617  0.296823 0.302168 1 19 1.000000
0  -0.817245 2.029968 85.323204  0.212084 -0.071029 -0.974667  0.302644 0.334881 1 19 1.000000
sniper_red
0  -3.711544 3.274625 80.512924  0.572572 -0.085779 -0.815355  0.285719 0.315305 1 19 1.000000
0  -1.524824 4.609433 81.829353  0.436050 -0.594477 -0.675617  0.296823 0.302168 1 19 1.000000
0  -3.053282 2.780779 81.452599  0.781780 -0.149362 -0.605402  0.289609 0.319723 1 19 1.000000
sniper_red
0  -3.711544 3.274625 80.512924  0.572572 -0.085779 -0.815355  0.285719 0.315305 1 19 1.000000
0  -1.742999 5.753388 80.944405  0.366870 -0.324442 -0.871862  0.295188 0.295032 1 19 1.000000
0  -1.524824 4.609433 81.829353  0.436050 -0.594477 -0.675617  0.296823 0.302168 1 19 1.000000
sniper_red
0  -3.440474 7.220366 80.286499  0.297107 -0.130024 -0.945950  0.288397 0.283843 1 19 1.000000
0  -1.742999 5.753388 80.944405  0.366870 -0.324442 -0.871862  0.295188 0.295032 1 19 1.000000
0  -3.711544 3.274625 80.512924  0.572572 -0.085779 -0.815355  0.285719 0.315305 1 19 1.000000
sniper_red
0  0.114027 8.357892 80.838036  0.206972 -0.180442 -0.961563  0.304497 0.276785 1 19 1.000000
0  -1.742999 5.753388 80.944405  0.366870 -0.324442 -0.871862  0.295188 0.295032 1 19 1.000000
0  -3.440474 7.220366 80.286499  0.297107 -0.130024 -0.945950  0.288397 0.283843 1 19 1.000000
sniper_red
0  0.114027 8.357892 80.838036  0.206972 -0.180442 -0.961563  0.304497 0.276785 1 19 1.000000
0  0.065597 5.844806 81.251411  0.199971 -0.323079 -0.925003  0.304050 0.295807 1 19 1.000000
0  -1.742999 5.753388 80.944405  0.366870 -0.324442 -0.871862  0.295188 0.295032 1 19 1.000000
sniper_red
0  1.870603 5.753350 81.733788  0.067943 -0.327735 -0.942323  0.312642 0.298281 1 19 1.000000
0  0.065597 5.844806 81.251411  0.199971 -0.323079 -0.925003  0.304050 0.295807 1 19 1.000000
0  0.114027 8.357892 80.838036  0.206972 -0.180442 -0.961563  0.304497 0.276785 1 19 1.000000
sniper_red
0  0.065597 5.844806 81.251411  0.199971 -0.323079 -0.925003  0.304050 0.295807 1 19 1.000000
0  1.870603 5.753350 81.733788  0.067943 -0.327735 -0.942323  0.312642 0.298281 1 19 1.000000
0  1.296998 4.609433 82.446068  -0.117561 -0.592054 -0.797278  0.309918 0.304700 1 19 1.000000
sniper_red
0  3.793133 3.274625 82.153091  -0.020578 -0.093098 -0.995444  0.320717 0.320746 1 19 1.000000
0  1.296998 4.609433 82.446068  -0.117561 -0.592054 -0.797278  0.309918 0.304700 1 19 1.000000
0  1.870603 5.753350 81.733788  0.067943 -0.327735 -0.942323  0.312642 0.298281 1 19 1.000000
sniper_red
0  3.793133 3.274625 82.153091  -0.020578 -0.093098 -0.995444  0.320717 0.320746 1 19 1.000000
0  2.807051 2.780779 82.733391  -0.462696 -0.148104 -0.874058  0.316395 0.323192 1 19 1.000000
0  1.296998 4.609433 82.446068  -0.117561 -0.592054 -0.797278  0.309918 0.304700 1 19 1.000000
sniper_red
0  3.598896 -0.336648 81.965576  0.108989 0.055831 -0.992474  0.318077 0.350091 1 19 1.000000
0  2.807051 2.780779 82.733391  -0.462696 -0.148104 -0.874058  0.316395 0.323192 1 19 1.000000
0  3.793133 3.274625 82.153091  -0.020578 -0.093098 -0.995444  0.320717 0.320746 1 19 1.000000
sniper_red
0  3.793133 3.274625 82.153091  -0.020578 -0.093098 -0.995444  0.320717 0.320746 1 19 1.000000
0  4.094202 -0.924277 82.268227  0.544883 0.026060 -0.838107  0.319872 0.354748 1 19 1.000000
0  3.598896 -0.336648 81.965576  0.108989 0.055831 -0.992474  0.318077 0.350091 1 19 1.000000
sniper_red
0  4.026565 -2.416594 82.087173  0.359076 0.101536 -0.927769  0.318871 0.366706 1 19 1.000000
0  3.598896 -0.336648 81.965576  0.108989 0.055831 -0.992474  0.318077 0.350091 1 19 1.000000
0  4.094202 -0.924277 82.268227  0.544883 0.026060 -0.838107  0.319872 0.354748 1 19 1.000000
sniper_red
0  4.094202 -0.924277 82.268227  0.544883 0.026060 -0.838107  0.319872 0.354748 1 19 1.000000
0  4.435364 -2.226758 82.448730  0.988417 0.010149 -0.151422  0.321125 0.365270 1 19 1.000000
0  4.026565 -2.416594 82.087173  0.359076 0.101536 -0.927769  0.318871 0.366706 1 19 1.000000
sniper_red
0  4.026565 -2.416594 82.087173  0.359076 0.101536 -0.927769  0.318871 0.366706 1 19 1.000000
0  4.435364 -2.226758 82.448730  0.988417 0.010149 -0.151422  0.321125 0.365270 1 19 1.000000
0  4.200176 -5.071068 82.047615  0.910211 -0.020456 -0.413640  0.318880 0.387716 1 19 1.000000
sniper_red
0  4.200176 -5.071068 82.047615  0.910211 -0.020456 -0.413640  0.318880 0.387716 1 19 1.000000
0  4.435364 -2.226758 82.448730  0.988417 0.010149 -0.151422  0.321125 0.365270 1 19 1.000000
0  4.307195 -3.245078 83.264961  0.942525 0.035539 0.332239  0.324236 0.373813 1 19 1.000000
sniper_red
0  3.948361 -1.479336 83.575256  0.857996 0.038382 0.512221  0.326367 0.359865 1 19 1.000000
0  4.307195 -3.245078 83.264961  0.942525 0.035539 0.332239  0.324236 0.373813 1 19 1.000000
0  4.435364 -2.226758 82.448730  0.988417 0.010149 -0.151422  0.321125 0.365270 1 19 1.000000
sniper_red
0  4.026565 -2.416594 82.087173  0.359076 0.101536 -0.927769  0.318871 0.366706 1 19 1.000000
0  4.200176 -5.071068 82.047615  0.910211 -0.020456 -0.413640  0.318880 0.387716 1 19 1.000000
0  3.400554 -5.916786 81.375938  0.193141 0.227460 -0.954441  0.314527 0.394349 1 19 1.000000
sniper_red
0  -3.456788 -0.336648 80.423538  0.519916 0.051283 -0.852677  0.286780 0.344580 1 19 1.000000
0  -3.711544 3.274625 80.512924  0.572572 -0.085779 -0.815355  0.285719 0.315305 1 19 1.000000
0  -3.053282 2.780779 81.452599  0.781780 -0.149362 -0.605402  0.289609 0.319723 1 19 1.000000
sniper_red
0  -3.440474 7.220366 80.286499  0.297107 -0.130024 -0.945950  0.288397 0.283843 1 19 1.000000
0  -3.711544 3.274625 80.512924  0.572572 -0.085779 -0.815355  0.285719 0.315305 1 19 1.000000
0  -5.758676 3.916521 79.370697  0.412408 -0.035647 -0.910301  0.276782 0.309427 1 19 1.000000
sniper_red
0  -6.128217 -0.562600 79.329865  0.391214 0.007210 -0.920272  0.274896 0.345735 1 19 1.000000
0  -5.758676 3.916521 79.370697  0.412408 -0.035647 -0.910301  0.276782 0.309427 1 19 1.000000
0  -3.711544 3.274625 80.512924  0.572572 -0.085779 -0.815355  0.285719 0.315305 1 19 1.000000
sniper_red
0  -6.128217 -0.562600 79.329865  0.391214 0.007210 -0.920272  0.274896 0.345735 1 19 1.000000
0  -3.711544 3.274625 80.512924  0.572572 -0.085779 -0.815355  0.285719 0.315305 1 19 1.000000
0  -3.456788 -0.336648 80.423538  0.519916 0.051283 -0.852677  0.286780 0.344580 1 19 1.000000
sniper_red
0  -5.282609 -3.308301 79.705475  0.383246 0.127905 -0.914748  0.278394 0.367908 1 19 1.000000
0  -6.128217 -0.562600 79.329865  0.391214 0.007210 -0.920272  0.274896 0.345735 1 19 1.000000
0  -3.456788 -0.336648 80.423538  0.519916 0.051283 -0.852677  0.286780 0.344580 1 19 1.000000
sniper_red
0  -1.524824 4.609433 81.829353  0.436050 -0.594477 -0.675617  0.296823 0.302168 1 19 1.000000
0  1.296998 4.609433 82.446068  -0.117561 -0.592054 -0.797278  0.309918 0.304700 1 19 1.000000
0  -0.817245 2.029968 85.323204  0.212084 -0.071029 -0.974667  0.302644 0.334881 1 19 1.000000
sniper_red
0  1.296998 4.609433 82.446068  -0.117561 -0.592054 -0.797278  0.309918 0.304700 1 19 1.000000
0  2.807051 2.780779 82.733391  -0.462696 -0.148104 -0.874058  0.316395 0.323192 1 19 1.000000
0  -0.817245 2.029968 85.323204  0.212084 -0.071029 -0.974667  0.302644 0.334881 1 19 1.000000
sniper_red
0  1.876959 -2.042408 82.342453  -0.303893 0.352920 -0.884928  0.311693 0.363513 1 19 1.000000
0  -0.817245 2.029968 85.323204  0.212084 -0.071029 -0.974667  0.302644 0.334881 1 19 1.000000
0  2.807051 2.780779 82.733391  -0.462696 -0.148104 -0.874058  0.316395 0.323192 1 19 1.000000
sniper_red
0  3.598896 -0.336648 81.965576  0.108989 0.055831 -0.992474  0.318077 0.350091 1 19 1.000000
0  1.876959 -2.042408 82.342453  -0.303893 0.352920 -0.884928  0.311693 0.363513 1 19 1.000000
0  2.807051 2.780779 82.733391  -0.462696 -0.148104 -0.874058  0.316395 0.323192 1 19 1.000000
sniper_red
0  3.598896 -0.336648 81.965576  0.108989 0.055831 -0.992474  0.318077 0.350091 1 19 1.000000
0  2.566737 -3.247504 81.814125  -0.000450 0.205363 -0.978686  0.312781 0.373500 1 19 1.000000
0  1.876959 -2.042408 82.342453  -0.303893 0.352920 -0.884928  0.311693 0.363513 1 19 1.000000
sniper_red
0  4.026565 -2.416594 82.087173  0.359076 0.101536 -0.927769  0.318871 0.366706 1 19 1.000000
0  2.566737 -3.247504 81.814125  -0.000450 0.205363 -0.978686  0.312781 0.373500 1 19 1.000000
0  3.598896 -0.336648 81.965576  0.108989 0.055831 -0.992474  0.318077 0.350091 1 19 1.000000
sniper_red
0  4.026565 -2.416594 82.087173  0.359076 0.101536 -0.927769  0.318871 0.366706 1 19 1.000000
0  3.107173 -4.211116 81.862785  0.089633 0.183365 -0.978950  0.314389 0.380533 1 19 1.000000
0  2.566737 -3.247504 81.814125  -0.000450 0.205363 -0.978686  0.312781 0.373500 1 19 1.000000
sniper_red
0  3.400554 -5.916786 81.375938  0.193141 0.227460 -0.954441  0.314527 0.394349 1 19 1.000000
0  3.107173 -4.211116 81.862785  0.089633 0.183365 -0.978950  0.314389 0.380533 1 19 1.000000
0  4.026565 -2.416594 82.087173  0.359076 0.101536 -0.927769  0.318871 0.366706 1 19 1.000000
sniper_red
0  3.400554 -5.916786 81.375938  0.193141 0.227460 -0.954441  0.314527 0.394349 1 19 1.000000
0  0.099663 -5.460470 81.061211  0.207877 0.271485 -0.939725  0.300826 0.388413 1 19 1.000000
0  3.107173 -4.211116 81.862785  0.089633 0.183365 -0.978950  0.314389 0.380533 1 19 1.000000
sniper_red
0  3.400554 -5.916786 81.375938  0.193141 0.227460 -0.954441  0.314527 0.394349 1 19 1.000000
0  0.821419 -7.699198 80.216148  0.167456 0.375214 -0.911687  0.302449 0.407814 1 19 1.000000
0  0.099663 -5.460470 81.061211  0.207877 0.271485 -0.939725  0.300826 0.388413 1 19 1.000000
sniper_red
0  -0.229316 -7.687207 79.988853  0.234898 0.377761 -0.895611  0.297863 0.407196 1 19 1.000000
0  0.099663 -5.460470 81.061211  0.207877 0.271485 -0.939725  0.300826 0.388413 1 19 1.000000
0  0.821419 -7.699198 80.216148  0.167456 0.375214 -0.911687  0.302449 0.407814 1 19 1.000000
sniper_red
0  0.099663 -5.460470 81.061211  0.207877 0.271485 -0.939725  0.300826 0.388413 1 19 1.000000
0  -0.229316 -7.687207 79.988853  0.234898 0.377761 -0.895611  0.297863 0.407196 1 19 1.000000
0  -3.314503 -5.600567 79.971153  0.340597 0.301745 -0.890474  0.285686 0.388279 1 19 1.000000
sniper_red
0  0.099663 -5.460470 81.061211  0.207877 0.271485 -0.939725  0.300826 0.388413 1 19 1.000000
0  -3.314503 -5.600567 79.971153  0.340597 0.301745 -0.890474  0.285686 0.388279 1 19 1.000000
0  -2.920630 -4.211116 80.545387  0.320364 0.184094 -0.929234  0.288191 0.377317 1 19 1.000000
sniper_red
0  -5.282609 -3.308301 79.705475  0.383246 0.127905 -0.914748  0.278394 0.367908 1 19 1.000000
0  -2.920630 -4.211116 80.545387  0.320364 0.184094 -0.929234  0.288191 0.377317 1 19 1.000000
0  -3.314503 -5.600567 79.971153  0.340597 0.301745 -0.890474  0.285686 0.388279 1 19 1.000000
sniper_red
0  -5.282609 -3.308301 79.705475  0.383246 0.127905 -0.914748  0.278394 0.367908 1 19 1.000000
0  -2.409169 -3.247503 80.726624  0.449573 0.202383 -0.870015  0.290223 0.370382 1 19 1.000000
0  -2.920630 -4.211116 80.545387  0.320364 0.184094 -0.929234  0.288191 0.377317 1 19 1.000000
sniper_red
0  -5.282609 -3.308301 79.705475  0.383246 0.127905 -0.914748  0.278394 0.367908 1 19 1.000000
0  -3.456788 -0.336648 80.423538  0.519916 0.051283 -0.852677  0.286780 0.344580 1 19 1.000000
0  -2.409169 -3.247503 80.726624  0.449573 0.202383 -0.870015  0.290223 0.370382 1 19 1.000000
sniper_red
0  -3.456788 -0.336648 80.423538  0.519916 0.051283 -0.852677  0.286780 0.344580 1 19 1.000000
0  -2.008680 -2.042407 81.493240  0.644250 0.354305 -0.677798  0.291959 0.360458 1 19 1.000000
0  -2.409169 -3.247503 80.726624  0.449573 0.202383 -0.870015  0.290223 0.370382 1 19 1.000000
sniper_red
0  -3.456788 -0.336648 80.423538  0.519916 0.051283 -0.852677  0.286780 0.344580 1 19 1.000000
0  -3.053282 2.780779 81.452599  0.781780 -0.149362 -0.605402  0.289609 0.319723 1 19 1.000000
0  -2.008680 -2.042407 81.493240  0.644250 0.354305 -0.677798  0.291959 0.360458 1 19 1.000000
sniper_red
0  1.876959 -2.042408 82.342453  -0.303893 0.352920 -0.884928  0.311693 0.363513 1 19 1.000000
0  -0.140653 -2.786707 82.185318  0.181677 0.538661 -0.822702  0.301557 0.367094 1 19 1.000000
0  -0.817245 2.029968 85.323204  0.212084 -0.071029 -0.974667  0.302644 0.334881 1 19 1.000000
sniper_red
0  -0.140653 -2.786707 82.185318  0.181677 0.538661 -0.822702  0.301557 0.367094 1 19 1.000000
0  1.876959 -2.042408 82.342453  -0.303893 0.352920 -0.884928  0.311693 0.363513 1 19 1.000000
0  2.566737 -3.247504 81.814125  -0.000450 0.205363 -0.978686  0.312781 0.373500 1 19 1.000000
sniper_red
0  -0.140653 -2.786707 82.185318  0.181677 0.538661 -0.822702  0.301557 0.367094 1 19 1.000000
0  2.566737 -3.247504 81.814125  -0.000450 0.205363 -0.978686  0.312781 0.373500 1 19 1.000000
0  0.056478 -3.887248 81.311852  0.202533 0.327105 -0.923029  0.301282 0.376520 1 19 1.000000
sniper_red
0  0.056478 -3.887248 81.311852  0.202533 0.327105 -0.923029  0.301282 0.376520 1 19 1.000000
0  2.566737 -3.247504 81.814125  -0.000450 0.205363 -0.978686  0.312781 0.373500 1 19 1.000000
0  3.107173 -4.211116 81.862785  0.089633 0.183365 -0.978950  0.314389 0.380533 1 19 1.000000
sniper_red
0  0.056478 -3.887248 81.311852  0.202533 0.327105 -0.923029  0.301282 0.376520 1 19 1.000000
0  3.107173 -4.211116 81.862785  0.089633 0.183365 -0.978950  0.314389 0.380533 1 19 1.000000
0  0.099663 -5.460470 81.061211  0.207877 0.271485 -0.939725  0.300826 0.388413 1 19 1.000000
sniper_red
0  -2.920630 -4.211116 80.545387  0.320364 0.184094 -0.929234  0.288191 0.377317 1 19 1.000000
0  0.056478 -3.887248 81.311852  0.202533 0.327105 -0.923029  0.301282 0.376520 1 19 1.000000
0  0.099663 -5.460470 81.061211  0.207877 0.271485 -0.939725  0.300826 0.388413 1 19 1.000000
sniper_red
0  -2.920630 -4.211116 80.545387  0.320364 0.184094 -0.929234  0.288191 0.377317 1 19 1.000000
0  -2.409169 -3.247503 80.726624  0.449573 0.202383 -0.870015  0.290223 0.370382 1 19 1.000000
0  0.056478 -3.887248 81.311852  0.202533 0.327105 -0.923029  0.301282 0.376520 1 19 1.000000
sniper_red
0  -2.409169 -3.247503 80.726624  0.449573 0.202383 -0.870015  0.290223 0.370382 1 19 1.000000
0  -0.140653 -2.786707 82.185318  0.181677 0.538661 -0.822702  0.301557 0.367094 1 19 1.000000
0  0.056478 -3.887248 81.311852  0.202533 0.327105 -0.923029  0.301282 0.376520 1 19 1.000000
sniper_red
0  -2.409169 -3.247503 80.726624  0.449573 0.202383 -0.870015  0.290223 0.370382 1 19 1.000000
0  -2.008680 -2.042407 81.493240  0.644250 0.354305 -0.677798  0.291959 0.360458 1 19 1.000000
0  -0.140653 -2.786707 82.185318  0.181677 0.538661 -0.822702  0.301557 0.367094 1 19 1.000000
sniper_red
0  -2.008680 -2.042407 81.493240  0.644250 0.354305 -0.677798  0.291959 0.360458 1 19 1.000000
0  -0.817245 2.029968 85.323204  0.212084 -0.071029 -0.974667  0.302644 0.334881 1 19 1.000000
0  -0.140653 -2.786707 82.185318  0.181677 0.538661 -0.822702  0.301557 0.367094 1 19 1.000000
sniper_red
0  -0.336215 5.587109 83.114746  -0.137748 0.970165 0.199513  0.390915 0.048945 1 19 1.000000
0  1.777041 5.605225 82.161880  0.128397 0.596828 0.792029  0.378542 0.015464 1 19 1.000000
0  -0.015764 5.910914 81.623680  -0.220292 0.693539 0.685911  0.395709 0.022743 1 19 1.000000
sniper_red
0  3.501634 3.254645 82.474365  0.346616 0.230853 0.909156  0.351809 0.008953 1 19 1.000000
0  2.936412 3.233640 83.890808  0.868886 0.305937 0.389152  0.351023 0.036588 1 19 1.000000
0  2.846982 -0.006388 83.721634  0.881941 -0.262387 0.391577  0.321237 0.033547 1 19 1.000000
sniper_red
0  1.777041 5.605225 82.161880  0.128397 0.596828 0.792029  0.378542 0.015464 1 19 1.000000
0  2.936412 3.233640 83.890808  0.868886 0.305937 0.389152  0.351023 0.036588 1 19 1.000000
0  3.501634 3.254645 82.474365  0.346616 0.230853 0.909156  0.351809 0.008953 1 19 1.000000
sniper_red
0  1.777041 5.605225 82.161880  0.128397 0.596828 0.792029  0.378542 0.015464 1 19 1.000000
0  1.279783 5.244518 83.558418  0.432311 0.837317 0.334674  0.375308 0.041873 1 19 1.000000
0  2.936412 3.233640 83.890808  0.868886 0.305937 0.389152  0.351023 0.036588 1 19 1.000000
sniper_red
0  -0.336215 5.587109 83.114746  -0.137748 0.970165 0.199513  0.390915 0.048945 1 19 1.000000
0  1.279783 5.244518 83.558418  0.432311 0.837317 0.334674  0.375308 0.041873 1 19 1.000000
0  1.777041 5.605225 82.161880  0.128397 0.596828 0.792029  0.378542 0.015464 1 19 1.000000
sniper_red
0  -0.655397 5.201601 84.590454  -0.093794 0.973322 0.209398  0.385949 0.075094 1 19 1.000000
0  1.279783 5.244518 83.558418  0.432311 0.837317 0.334674  0.375308 0.041873 1 19 1.000000
0  -0.336215 5.587109 83.114746  -0.137748 0.970165 0.199513  0.390915 0.048945 1 19 1.000000
sniper_red
0  -2.158231 4.739791 84.268616  -0.550118 0.830647 0.086000  0.186759 0.067460 1 19 1.000000
0  -3.267207 3.174283 85.548935  -0.930764 0.334796 0.146935  0.206633 0.090043 1 19 1.000000
0  -2.313465 4.531624 85.758965  -0.550016 0.825148 0.128892  0.189731 0.094142 1 19 1.000000
sniper_red
0  -2.158231 4.739791 84.268616  -0.550118 0.830647 0.086000  0.186759 0.067460 1 19 1.000000
0  -3.631517 3.212636 83.995346  -0.934208 0.351791 0.059151  0.206876 0.063954 1 19 1.000000
0  -3.267207 3.174283 85.548935  -0.930764 0.334796 0.146935  0.206633 0.090043 1 19 1.000000
sniper_red
0  -3.631517 3.212636 83.995346  -0.934208 0.351791 0.059151  0.206876 0.063954 1 19 1.000000
0  -3.383653 0.521914 85.420586  -0.954718 -0.238776 0.177482  0.234471 0.086681 1 19 1.000000
0  -3.267207 3.174283 85.548935  -0.930764 0.334796 0.146935  0.206633 0.090043 1 19 1.000000
sniper_red
0  -3.631517 3.212636 83.995346  -0.934208 0.351791 0.059151  0.206876 0.063954 1 19 1.000000
0  -3.568530 0.257763 83.849846  -0.964449 -0.246957 0.094074  0.235129 0.060814 1 19 1.000000
0  -3.383653 0.521914 85.420586  -0.954718 -0.238776 0.177482  0.234471 0.086681 1 19 1.000000
sniper_red
0  -3.568530 0.257763 83.849846  -0.964449 -0.246957 0.094074  0.235129 0.060814 1 19 1.000000
0  -2.232265 -1.651441 85.447624  -0.659276 -0.724098 0.202577  0.260969 0.081224 1 19 1.000000
0  -3.383653 0.521914 85.420586  -0.954718 -0.238776 0.177482  0.234471 0.086681 1 19 1.000000
sniper_red
0  -3.568530 0.257763 83.849846  -0.964449 -0.246957 0.094074  0.235129 0.060814 1 19 1.000000
0  -2.327703 -1.962535 84.040825  -0.659273 -0.724101 0.202574  0.259976 0.057898 1 19 1.000000
0  -2.232265 -1.651441 85.447624  -0.659276 -0.724098 0.202577  0.260969 0.081224 1 19 1.000000
sniper_red
0  -2.327703 -1.962535 84.040825  -0.659273 -0.724101 0.202574  0.259976 0.057898 1 19 1.000000
0  -0.873267 -2.083077 85.583778  -0.068698 -0.939958 0.334304  0.278860 0.079203 1 19 1.000000
0  -2.232265 -1.651441 85.447624  -0.659276 -0.724098 0.202577  0.260969 0.081224 1 19 1.000000
sniper_red
0  -2.327703 -1.962535 84.040825  -0.659273 -0.724101 0.202574  0.259976 0.057898 1 19 1.000000
0  -0.556897 -2.648447 84.170654  -0.068707 -0.939977 0.334248  0.279021 0.054550 1 19 1.000000
0  -0.873267 -2.083077 85.583778  -0.068698 -0.939958 0.334304  0.278860 0.079203 1 19 1.000000
sniper_red
0  -0.873267 -2.083077 85.583778  -0.068698 -0.939958 0.334304  0.278860 0.079203 1 19 1.000000
0  -0.556897 -2.648447 84.170654  -0.068707 -0.939977 0.334248  0.279021 0.054550 1 19 1.000000
0  1.119724 -1.971283 84.796288  0.530600 -0.722712 0.442889  0.298133 0.058947 1 19 1.000000
sniper_red
0  -0.556897 -2.648447 84.170654  -0.068707 -0.939977 0.334248  0.279021 0.054550 1 19 1.000000
0  1.582823 -2.335703 83.445595  0.571585 -0.702642 0.423773  0.297325 0.032997 1 19 1.000000
0  1.119724 -1.971283 84.796288  0.530600 -0.722712 0.442889  0.298133 0.058947 1 19 1.000000
sniper_red
0  2.846982 -0.006388 83.721634  0.881941 -0.262387 0.391577  0.321237 0.033547 1 19 1.000000
0  1.119724 -1.971283 84.796288  0.530600 -0.722712 0.442889  0.298133 0.058947 1 19 1.000000
0  1.582823 -2.335703 83.445595  0.571585 -0.702642 0.423773  0.297325 0.032997 1 19 1.000000
sniper_red
0  2.846982 -0.006388 83.721634  0.881941 -0.262387 0.391577  0.321237 0.033547 1 19 1.000000
0  2.219610 0.257763 85.114861  0.841711 -0.249412 0.478871  0.322604 0.060928 1 19 1.000000
0  1.119724 -1.971283 84.796288  0.530600 -0.722712 0.442889  0.298133 0.058947 1 19 1.000000
sniper_red
0  2.936412 3.233640 83.890808  0.868886 0.305937 0.389152  0.351023 0.036588 1 19 1.000000
0  2.219610 0.257763 85.114861  0.841711 -0.249412 0.478871  0.322604 0.060928 1 19 1.000000
0  2.846982 -0.006388 83.721634  0.881941 -0.262387 0.391577  0.321237 0.033547 1 19 1.000000
sniper_red
0  2.936412 3.233640 83.890808  0.868886 0.305937 0.389152  0.351023 0.036588 1 19 1.000000
0  2.313996 3.212636 85.294754  0.824255 0.320699 0.466643  0.350874 0.063807 1 19 1.000000
0  2.219610 0.257763 85.114861  0.841711 -0.249412 0.478871  0.322604 0.060928 1 19 1.000000
sniper_red
0  1.279783 5.244518 83.558418  0.432311 0.837317 0.334674  0.375308 0.041873 1 19 1.000000
0  2.313996 3.212636 85.294754  0.824255 0.320699 0.466643  0.350874 0.063807 1 19 1.000000
0  2.936412 3.233640 83.890808  0.868886 0.305937 0.389152  0.351023 0.036588 1 19 1.000000
sniper_red
0  1.279783 5.244518 83.558418  0.432311 0.837317 0.334674  0.375308 0.041873 1 19 1.000000
0  0.810136 4.839771 84.980263  0.432317 0.837317 0.334668  0.371846 0.068548 1 19 1.000000
0  2.313996 3.212636 85.294754  0.824255 0.320699 0.466643  0.350874 0.063807 1 19 1.000000
sniper_red
0  -0.655397 5.201601 84.590454  -0.093794 0.973322 0.209398  0.385949 0.075094 1 19 1.000000
0  0.810136 4.839771 84.980263  0.432317 0.837317 0.334668  0.371846 0.068548 1 19 1.000000
0  1.279783 5.244518 83.558418  0.432311 0.837317 0.334674  0.375308 0.041873 1 19 1.000000
sniper_red
0  -0.978434 4.834062 85.979706  -0.093763 0.973332 0.209364  0.381439 0.099779 1 19 1.000000
0  0.810136 4.839771 84.980263  0.432317 0.837317 0.334668  0.371846 0.068548 1 19 1.000000
0  -0.655397 5.201601 84.590454  -0.093794 0.973322 0.209398  0.385949 0.075094 1 19 1.000000
sniper_red
0  -0.978434 4.834062 85.979706  -0.093763 0.973332 0.209364  0.381439 0.099779 1 19 1.000000
0  0.375726 4.537428 86.368965  0.425583 0.826022 0.369549  0.368109 0.094327 1 19 1.000000
0  0.810136 4.839771 84.980263  0.432317 0.837317 0.334668  0.371846 0.068548 1 19 1.000000
sniper_red
0  1.335063 3.174235 86.554016  0.794270 0.318662 0.517291  0.351156 0.089928 1 19 1.000000
0  0.810136 4.839771 84.980263  0.432317 0.837317 0.334668  0.371846 0.068548 1 19 1.000000
0  0.375726 4.537428 86.368965  0.425583 0.826022 0.369549  0.368109 0.094327 1 19 1.000000
sniper_red
0  1.335063 3.174235 86.554016  0.794270 0.318662 0.517291  0.351156 0.089928 1 19 1.000000
0  2.313996 3.212636 85.294754  0.824255 0.320699 0.466643  0.350874 0.063807 1 19 1.000000
0  0.810136 4.839771 84.980263  0.432317 0.837317 0.334668  0.371846 0.068548 1 19 1.000000
sniper_red
0  1.494148 0.521914 86.486641  0.813040 -0.236299 0.532099  0.323555 0.086847 1 19 1.000000
0  2.313996 3.212636 85.294754  0.824255 0.320699 0.466643  0.350874 0.063807 1 19 1.000000
0  1.335063 3.174235 86.554016  0.794270 0.318662 0.517291  0.351156 0.089928 1 19 1.000000
sniper_red
0  1.494148 0.521914 86.486641  0.813040 -0.236299 0.532099  0.323555 0.086847 1 19 1.000000
0  2.219610 0.257763 85.114861  0.841711 -0.249412 0.478871  0.322604 0.060928 1 19 1.000000
0  2.313996 3.212636 85.294754  0.824255 0.320699 0.466643  0.350874 0.063807 1 19 1.000000
sniper_red
0  0.407506 -1.615272 86.163361  0.530612 -0.722710 0.442878  0.297344 0.083860 1 19 1.000000
0  2.219610 0.257763 85.114861  0.841711 -0.249412 0.478871  0.322604 0.060928 1 19 1.000000
0  1.494148 0.521914 86.486641  0.813040 -0.236299 0.532099  0.323555 0.086847 1 19 1.000000
sniper_red
0  0.407506 -1.615272 86.163361  0.530612 -0.722710 0.442878  0.297344 0.083860 1 19 1.000000
0  1.119724 -1.971283 84.796288  0.530600 -0.722712 0.442889  0.298133 0.058947 1 19 1.000000
0  2.219610 0.257763 85.114861  0.841711 -0.249412 0.478871  0.322604 0.060928 1 19 1.000000
sniper_red
0  -0.873267 -2.083077 85.583778  -0.068698 -0.939958 0.334304  0.278860 0.079203 1 19 1.000000
0  1.119724 -1.971283 84.796288  0.530600 -0.722712 0.442889  0.298133 0.058947 1 19 1.000000
0  0.407506 -1.615272 86.163361  0.530612 -0.722710 0.442878  0.297344 0.083860 1 19 1.000000
sniper_red
0  -0.556897 -2.648447 84.170654  -0.068707 -0.939977 0.334248  0.279021 0.054550 1 19 1.000000
0  -0.313461 -3.121058 83.038971  -0.068712 -0.939976 0.334252  0.279175 0.032168 1 19 1.000000
0  1.582823 -2.335703 83.445595  0.571585 -0.702642 0.423773  0.297325 0.032997 1 19 1.000000
sniper_red
0  -2.261627 -2.418188 82.594887  -0.690889 -0.705383 0.158453  0.260772 0.031007 1 19 1.000000
0  -0.313461 -3.121058 83.038971  -0.068712 -0.939976 0.334252  0.279175 0.032168 1 19 1.000000
0  -0.556897 -2.648447 84.170654  -0.068707 -0.939977 0.334248  0.279021 0.054550 1 19 1.000000
sniper_red
0  -2.261627 -2.418188 82.594887  -0.690889 -0.705383 0.158453  0.260772 0.031007 1 19 1.000000
0  -0.556897 -2.648447 84.170654  -0.068707 -0.939977 0.334248  0.279021 0.054550 1 19 1.000000
0  -2.327703 -1.962535 84.040825  -0.659273 -0.724101 0.202574  0.259976 0.057898 1 19 1.000000
sniper_red
0  -2.327703 -1.962535 84.040825  -0.659273 -0.724101 0.202574  0.259976 0.057898 1 19 1.000000
0  -3.459637 -0.006387 82.343300  -0.967198 -0.252783 -0.025076  0.236532 0.033811 1 19 1.000000
0  -2.261627 -2.418188 82.594887  -0.690889 -0.705383 0.158453  0.260772 0.031007 1 19 1.000000
sniper_red
0  -2.327703 -1.962535 84.040825  -0.659273 -0.724101 0.202574  0.259976 0.057898 1 19 1.000000
0  -3.568530 0.257763 83.849846  -0.964449 -0.246957 0.094074  0.235129 0.060814 1 19 1.000000
0  -3.459637 -0.006387 82.343300  -0.967198 -0.252783 -0.025076  0.236532 0.033811 1 19 1.000000
sniper_red
0  -3.568530 0.257763 83.849846  -0.964449 -0.246957 0.094074  0.235129 0.060814 1 19 1.000000
0  -3.611488 3.233640 82.459747  -0.932600 0.358457 -0.042024  0.206756 0.036748 1 19 1.000000
0  -3.459637 -0.006387 82.343300  -0.967198 -0.252783 -0.025076  0.236532 0.033811 1 19 1.000000
sniper_red
0  -3.568530 0.257763 83.849846  -0.964449 -0.246957 0.094074  0.235129 0.060814 1 19 1.000000
0  -3.631517 3.212636 83.995346  -0.934208 0.351791 0.059151  0.206876 0.063954 1 19 1.000000
0  -3.611488 3.233640 82.459747  -0.932600 0.358457 -0.042024  0.206756 0.036748 1 19 1.000000
sniper_red
0  -3.631517 3.212636 83.995346  -0.934208 0.351791 0.059151  0.206876 0.063954 1 19 1.000000
0  -1.908420 4.911834 82.770256  -0.560530 0.826648 0.049592  0.183466 0.040597 1 19 1.000000
0  -3.611488 3.233640 82.459747  -0.932600 0.358457 -0.042024  0.206756 0.036748 1 19 1.000000
sniper_red
0  -3.631517 3.212636 83.995346  -0.934208 0.351791 0.059151  0.206876 0.063954 1 19 1.000000
0  -2.158231 4.739791 84.268616  -0.550118 0.830647 0.086000  0.186759 0.067460 1 19 1.000000
0  -1.908420 4.911834 82.770256  -0.560530 0.826648 0.049592  0.183466 0.040597 1 19 1.000000
sniper_red
0  3.501634 3.254645 82.474365  0.346616 0.230853 0.909156  0.351809 0.008953 1 19 1.000000
0  2.846982 -0.006388 83.721634  0.881941 -0.262387 0.391577  0.321237 0.033547 1 19 1.000000
0  3.266533 -0.270538 82.282990  0.377022 -0.201713 0.903973  0.319972 0.005263 1 19 1.000000
sniper_red
0  3.266533 -0.270538 82.282990  0.377022 -0.201713 0.903973  0.319972 0.005263 1 19 1.000000
0  2.846982 -0.006388 83.721634  0.881941 -0.262387 0.391577  0.321237 0.033547 1 19 1.000000
0  1.582823 -2.335703 83.445595  0.571585 -0.702642 0.423773  0.297325 0.032997 1 19 1.000000
sniper_red
0  3.266533 -0.270538 82.282990  0.377022 -0.201713 0.903973  0.319972 0.005263 1 19 1.000000
0  1.582823 -2.335703 83.445595  0.571585 -0.702642 0.423773  0.297325 0.032997 1 19 1.000000
0  2.031439 -2.684192 82.247978  0.228494 -0.473975 0.850375  0.297258 0.007352 1 19 1.000000
sniper_red
0  2.031439 -2.684192 82.247978  0.228494 -0.473975 0.850375  0.297258 0.007352 1 19 1.000000
0  1.582823 -2.335703 83.445595  0.571585 -0.702642 0.423773  0.297325 0.032997 1 19 1.000000
0  -0.313461 -3.121058 83.038971  -0.068712 -0.939976 0.334252  0.279175 0.032168 1 19 1.000000
sniper_red
0  2.031439 -2.684192 82.247978  0.228494 -0.473975 0.850375  0.297258 0.007352 1 19 1.000000
0  -0.313461 -3.121058 83.038971  -0.068712 -0.939976 0.334252  0.279175 0.032168 1 19 1.000000
0  -0.024883 -3.821138 81.684120  -0.149955 -0.612761 0.775911  0.279285 0.002167 1 19 1.000000
sniper_red
0  -0.313461 -3.121058 83.038971  -0.068712 -0.939976 0.334252  0.279175 0.032168 1 19 1.000000
0  -2.094126 -2.800691 81.354050  -0.595154 -0.459202 0.659488  0.261596 0.006147 1 19 1.000000
0  -0.024883 -3.821138 81.684120  -0.149955 -0.612761 0.775911  0.279285 0.002167 1 19 1.000000
sniper_red
0  -0.313461 -3.121058 83.038971  -0.068712 -0.939976 0.334252  0.279175 0.032168 1 19 1.000000
0  -2.261627 -2.418188 82.594887  -0.690889 -0.705383 0.158453  0.260772 0.031007 1 19 1.000000
0  -2.094126 -2.800691 81.354050  -0.595154 -0.459202 0.659488  0.261596 0.006147 1 19 1.000000
sniper_red
0  -2.261627 -2.418188 82.594887  -0.690889 -0.705383 0.158453  0.260772 0.031007 1 19 1.000000
0  -3.240762 -0.270538 80.860802  -0.838170 -0.158743 0.521797  0.237626 0.005180 1 19 1.000000
0  -2.094126 -2.800691 81.354050  -0.595154 -0.459202 0.659488  0.261596 0.006147 1 19 1.000000
sniper_red
0  -2.261627 -2.418188 82.594887  -0.690889 -0.705383 0.158453  0.260772 0.031007 1 19 1.000000
0  -3.459637 -0.006387 82.343300  -0.967198 -0.252783 -0.025076  0.236532 0.033811 1 19 1.000000
0  -3.240762 -0.270538 80.860802  -0.838170 -0.158743 0.521797  0.237626 0.005180 1 19 1.000000
sniper_red
0  -3.459637 -0.006387 82.343300  -0.967198 -0.252783 -0.025076  0.236532 0.033811 1 19 1.000000
0  -3.534266 3.254645 80.936653  -0.809738 0.227810 0.540765  0.205987 0.009104 1 19 1.000000
0  -3.240762 -0.270538 80.860802  -0.838170 -0.158743 0.521797  0.237626 0.005180 1 19 1.000000
sniper_red
0  -3.459637 -0.006387 82.343300  -0.967198 -0.252783 -0.025076  0.236532 0.033811 1 19 1.000000
0  -3.611488 3.233640 82.459747  -0.932600 0.358457 -0.042024  0.206756 0.036748 1 19 1.000000
0  -3.534266 3.254645 80.936653  -0.809738 0.227810 0.540765  0.205987 0.009104 1 19 1.000000
sniper_red
0  -3.611488 3.233640 82.459747  -0.932600 0.358457 -0.042024  0.206756 0.036748 1 19 1.000000
0  -1.676917 5.190808 81.395462  -0.538625 0.585502 0.605863  0.179399 0.015172 1 19 1.000000
0  -3.534266 3.254645 80.936653  -0.809738 0.227810 0.540765  0.205987 0.009104 1 19 1.000000
sniper_red
0  -3.611488 3.233640 82.459747  -0.932600 0.358457 -0.042024  0.206756 0.036748 1 19 1.000000
0  -1.908420 4.911834 82.770256  -0.560530 0.826648 0.049592  0.183466 0.040597 1 19 1.000000
0  -1.676917 5.190808 81.395462  -0.538625 0.585502 0.605863  0.179399 0.015172 1 19 1.000000
sniper_red
0  -1.676917 5.190808 81.395462  -0.538625 0.585502 0.605863  0.179399 0.015172 1 19 1.000000
0  -1.908420 4.911834 82.770256  -0.560530 0.826648 0.049592  0.183466 0.040597 1 19 1.000000
0  -0.336215 5.587109 83.114746  -0.137748 0.970165 0.199513  0.167502 0.048596 1 19 1.000000
sniper_red
0  -1.908420 4.911834 82.770256  -0.560530 0.826648 0.049592  0.183466 0.040597 1 19 1.000000
0  -0.655397 5.201601 84.590454  -0.093794 0.973322 0.209398  0.172297 0.074615 1 19 1.000000
0  -0.336215 5.587109 83.114746  -0.137748 0.970165 0.199513  0.167502 0.048596 1 19 1.000000
sniper_red
0  -1.908420 4.911834 82.770256  -0.560530 0.826648 0.049592  0.183466 0.040597 1 19 1.000000
0  -2.158231 4.739791 84.268616  -0.550118 0.830647 0.086000  0.186759 0.067460 1 19 1.000000
0  -0.655397 5.201601 84.590454  -0.093794 0.973322 0.209398  0.172297 0.074615 1 19 1.000000
sniper_red
0  -2.158231 4.739791 84.268616  -0.550118 0.830647 0.086000  0.186759 0.067460 1 19 1.000000
0  -0.978434 4.834062 85.979706  -0.093763 0.973332 0.209364  0.176906 0.099125 1 19 1.000000
0  -0.655397 5.201601 84.590454  -0.093794 0.973322 0.209398  0.172297 0.074615 1 19 1.000000
sniper_red
0  -2.158231 4.739791 84.268616  -0.550118 0.830647 0.086000  0.186759 0.067460 1 19 1.000000
0  -2.313465 4.531624 85.758965  -0.550016 0.825148 0.128892  0.189731 0.094142 1 19 1.000000
0  -0.978434 4.834062 85.979706  -0.093763 0.973332 0.209364  0.176906 0.099125 1 19 1.000000
sniper_red
0  -1.676917 5.190808 81.395462  -0.538625 0.585502 0.605863  0.179399 0.015172 1 19 1.000000
0  -0.336215 5.587109 83.114746  -0.137748 0.970165 0.199513  0.167502 0.048596 1 19 1.000000
0  -0.015764 5.910914 81.623680  -0.220292 0.693539 0.685911  0.162738 0.022615 1 19 1.000000
sniper_red
0  3.721381 3.630063 84.041855  0.860854 -0.059904 0.505314  0.330340 0.320082 1 19 1.000000
0  4.166711 5.919896 83.881912  0.702631 0.325441 0.632769  0.329838 0.301879 1 19 1.000000
0  2.799522 4.840118 85.585358  0.345128 0.297120 0.890284  0.338426 0.312071 1 19 1.000000
sniper_red
0  4.307195 -3.245078 83.264961  0.942525 0.035539 0.332239  0.324236 0.373813 1 19 1.000000
0  3.948361 -1.479336 83.575256  0.857996 0.038382 0.512221  0.326367 0.359865 1 19 1.000000
0  3.155896 -1.347162 84.614212  0.408061 -0.248247 0.878555  0.331900 0.359655 1 19 1.000000
sniper_red
0  3.861758 -0.315745 83.767723  0.827528 -0.018627 0.561115  0.327580 0.350826 1 19 1.000000
0  3.155896 -1.347162 84.614212  0.408061 -0.248247 0.878555  0.331900 0.359655 1 19 1.000000
0  3.948361 -1.479336 83.575256  0.857996 0.038382 0.512221  0.326367 0.359865 1 19 1.000000
sniper_red
0  3.861758 -0.315745 83.767723  0.827528 -0.018627 0.561115  0.327580 0.350826 1 19 1.000000
0  2.592191 0.460663 85.145950  0.377103 -0.152949 0.913455  0.335750 0.346208 1 19 1.000000
0  3.155896 -1.347162 84.614212  0.408061 -0.248247 0.878555  0.331900 0.359655 1 19 1.000000
sniper_red
0  3.721381 3.630063 84.041855  0.860854 -0.059904 0.505314  0.330340 0.320082 1 19 1.000000
0  2.592191 0.460663 85.145950  0.377103 -0.152949 0.913455  0.335750 0.346208 1 19 1.000000
0  3.861758 -0.315745 83.767723  0.827528 -0.018627 0.561115  0.327580 0.350826 1 19 1.000000
sniper_red
0  3.721381 3.630063 84.041855  0.860854 -0.059904 0.505314  0.330340 0.320082 1 19 1.000000
0  2.324800 3.289224 85.712509  0.394158 -0.081545 0.915418  0.339418 0.324646 1 19 1.000000
0  2.592191 0.460663 85.145950  0.377103 -0.152949 0.913455  0.335750 0.346208 1 19 1.000000
sniper_red
0  3.721381 3.630063 84.041855  0.860854 -0.059904 0.505314  0.330340 0.320082 1 19 1.000000
0  2.799522 4.840118 85.585358  0.345128 0.297120 0.890284  0.338426 0.312071 1 19 1.000000
0  2.324800 3.289224 85.712509  0.394158 -0.081545 0.915418  0.339418 0.324646 1 19 1.000000
sniper_red
0  2.532584 4.875437 85.568748  0.030618 0.479982 0.876744  0.341071 0.309659 1 19 1.000000
0  2.324800 3.289224 85.712509  0.394158 -0.081545 0.915418  0.339418 0.324646 1 19 1.000000
0  2.799522 4.840118 85.585358  0.345128 0.297120 0.890284  0.338426 0.312071 1 19 1.000000
sniper_red
0  3.901551 5.966267 83.912430  0.329207 0.672954 0.662387  0.331822 0.296719 1 19 1.000000
0  2.532584 4.875437 85.568748  0.030618 0.479982 0.876744  0.341071 0.309659 1 19 1.000000
0  2.799522 4.840118 85.585358  0.345128 0.297120 0.890284  0.338426 0.312071 1 19 1.000000
sniper_red
0  3.901551 5.966267 83.912430  0.329207 0.672954 0.662387  0.331822 0.296719 1 19 1.000000
0  2.799522 4.840118 85.585358  0.345128 0.297120 0.890284  0.338426 0.312071 1 19 1.000000
0  4.166711 5.919896 83.881912  0.702631 0.325441 0.632769  0.329838 0.301879 1 19 1.000000
sniper_red
0  4.352407 7.713589 82.332069  0.471142 0.801913 0.367369  0.325395 0.281806 1 19 1.000000
0  3.901551 5.966267 83.912430  0.329207 0.672954 0.662387  0.331822 0.296719 1 19 1.000000
0  4.166711 5.919896 83.881912  0.702631 0.325441 0.632769  0.329838 0.301879 1 19 1.000000
sniper_red
0  4.352407 7.713589 82.332069  0.471142 0.801913 0.367369  0.325395 0.281806 1 19 1.000000
0  4.166711 5.919896 83.881912  0.702631 0.325441 0.632769  0.329838 0.301879 1 19 1.000000
0  4.511962 7.668895 82.117134  0.879589 0.472474 0.055603  0.323777 0.286290 1 19 1.000000
sniper_red
0  3.837554 7.925294 81.998878  0.255536 0.964753 -0.062877  0.321111 0.278677 1 19 1.000000
0  4.352407 7.713589 82.332069  0.471142 0.801913 0.367369  0.325395 0.281806 1 19 1.000000
0  4.511962 7.668895 82.117134  0.879589 0.472474 0.055603  0.323777 0.286290 1 19 1.000000
sniper_red
0  3.837554 7.925294 81.998878  0.255536 0.964753 -0.062877  0.321111 0.278677 1 19 1.000000
0  4.511962 7.668895 82.117134  0.879589 0.472474 0.055603  0.323777 0.286290 1 19 1.000000
0  3.894866 7.884535 81.736649  0.255556 0.964746 -0.062901  0.321093 0.283737 1 19 1.000000
sniper_red
0  3.837554 7.925294 81.998878  0.255536 0.964753 -0.062877  0.321111 0.278677 1 19 1.000000
0  3.894866 7.884535 81.736649  0.255556 0.964746 -0.062901  0.321093 0.283737 1 19 1.000000
0  0.114027 8.357892 80.838036  -0.060346 0.984250 -0.166161  0.304497 0.276785 1 19 1.000000
sniper_red
0  3.837554 7.925294 81.998878  0.255536 0.964753 -0.062877  0.321111 0.278677 1 19 1.000000
0  0.114027 8.357892 80.838036  -0.060346 0.984250 -0.166161  0.304497 0.276785 1 19 1.000000
0  0.056715 8.398651 81.100266  -0.061317 0.984155 -0.166368  0.304421 0.272531 1 19 1.000000
sniper_red
0  -3.440474 7.220366 80.286499  -0.553718 0.807330 -0.203997  0.288397 0.283843 1 19 1.000000
0  0.056715 8.398651 81.100266  -0.061317 0.984155 -0.166368  0.304421 0.272531 1 19 1.000000
0  0.114027 8.357892 80.838036  -0.060346 0.984250 -0.166161  0.304497 0.276785 1 19 1.000000
sniper_red
0  -3.440474 7.220366 80.286499  -0.553718 0.807330 -0.203997  0.288397 0.283843 1 19 1.000000
0  -3.497786 7.261126 80.548737  -0.553707 0.807333 -0.204015  0.287345 0.281412 1 19 1.000000
0  0.056715 8.398651 81.100266  -0.061317 0.984155 -0.166368  0.304421 0.272531 1 19 1.000000
sniper_red
0  -5.758676 3.916521 79.370697  -0.902878 0.349006 -0.251011  0.276782 0.309427 1 19 1.000000
0  -3.497786 7.261126 80.548737  -0.553707 0.807333 -0.204015  0.287345 0.281412 1 19 1.000000
0  -3.440474 7.220366 80.286499  -0.553718 0.807330 -0.203997  0.288397 0.283843 1 19 1.000000
sniper_red
0  4.042035 -3.198708 83.295471  0.087371 -0.569881 0.817069  0.326051 0.377258 1 19 1.000000
0  3.155896 -1.347162 84.614212  0.408061 -0.248247 0.878555  0.331900 0.359655 1 19 1.000000
0  2.888958 -1.311842 84.597610  -0.086798 -0.461487 0.882891  0.334224 0.361751 1 19 1.000000
sniper_red
0  2.888958 -1.311842 84.597610  -0.086798 -0.461487 0.882891  0.334224 0.361751 1 19 1.000000
0  3.155896 -1.347162 84.614212  0.408061 -0.248247 0.878555  0.331900 0.359655 1 19 1.000000
0  2.592191 0.460663 85.145950  0.377103 -0.152949 0.913455  0.335750 0.346208 1 19 1.000000
sniper_red
0  2.888958 -1.311842 84.597610  -0.086798 -0.461487 0.882891  0.334224 0.361751 1 19 1.000000
0  2.592191 0.460663 85.145950  0.377103 -0.152949 0.913455  0.335750 0.346208 1 19 1.000000
0  2.325253 0.495984 85.129349  -0.089637 -0.256878 0.962278  0.338678 0.347427 1 19 1.000000
sniper_red
0  2.325253 0.495984 85.129349  -0.089637 -0.256878 0.962278  0.338678 0.347427 1 19 1.000000
0  2.592191 0.460663 85.145950  0.377103 -0.152949 0.913455  0.335750 0.346208 1 19 1.000000
0  2.324800 3.289224 85.712509  0.394158 -0.081545 0.915418  0.339418 0.324646 1 19 1.000000
sniper_red
0  2.325253 0.495984 85.129349  -0.089637 -0.256878 0.962278  0.338678 0.347427 1 19 1.000000
0  2.324800 3.289224 85.712509  0.394158 -0.081545 0.915418  0.339418 0.324646 1 19 1.000000
0  2.056498 3.255714 85.686050  -0.080274 -0.052318 0.995399  0.341882 0.325368 1 19 1.000000
sniper_red
0  2.532584 4.875437 85.568748  0.030618 0.479982 0.876744  0.341071 0.309659 1 19 1.000000
0  2.056498 3.255714 85.686050  -0.080274 -0.052318 0.995399  0.341882 0.325368 1 19 1.000000
0  2.324800 3.289224 85.712509  0.394158 -0.081545 0.915418  0.339418 0.324646 1 19 1.000000
sniper_red
0  1.870603 5.753350 81.733788  0.067943 -0.327735 -0.942323  0.312642 0.298281 1 19 1.000000
0  0.114027 8.357892 80.838036  0.206972 -0.180442 -0.961563  0.304497 0.276785 1 19 1.000000
0  3.894866 7.884535 81.736649  0.337375 -0.132697 -0.931971  0.321093 0.283737 1 19 1.000000
sniper_red
0  1.870603 5.753350 81.733788  0.067943 -0.327735 -0.942323  0.312642 0.298281 1 19 1.000000
0  3.894866 7.884535 81.736649  0.337375 -0.132697 -0.931971  0.321093 0.283737 1 19 1.000000
0  4.074134 4.404775 82.261032  0.506811 -0.050511 -0.860576  0.321511 0.311966 1 19 1.000000
sniper_red
0  1.870603 5.753350 81.733788  0.067943 -0.327735 -0.942323  0.312642 0.298281 1 19 1.000000
0  4.074134 4.404775 82.261032  0.506811 -0.050511 -0.860576  0.321511 0.311966 1 19 1.000000
0  3.793133 3.274625 82.153091  -0.020578 -0.093098 -0.995444  0.320717 0.320746 1 19 1.000000
sniper_red
0  3.793133 3.274625 82.153091  -0.020578 -0.093098 -0.995444  0.320717 0.320746 1 19 1.000000
0  4.074134 4.404775 82.261032  0.506811 -0.050511 -0.860576  0.321511 0.311966 1 19 1.000000
0  4.094202 -0.924277 82.268227  0.544883 0.026060 -0.838107  0.319872 0.354748 1 19 1.000000
sniper_red
0  4.074134 4.404775 82.261032  0.506811 -0.050511 -0.860576  0.321511 0.311966 1 19 1.000000
0  4.458293 -0.793932 82.659996  0.988425 0.010121 -0.151375  0.322134 0.353740 1 19 1.000000
0  4.094202 -0.924277 82.268227  0.544883 0.026060 -0.838107  0.319872 0.354748 1 19 1.000000
sniper_red
0  4.094202 -0.924277 82.268227  0.544883 0.026060 -0.838107  0.319872 0.354748 1 19 1.000000
0  4.458293 -0.793932 82.659996  0.988425 0.010121 -0.151375  0.322134 0.353740 1 19 1.000000
0  4.435364 -2.226758 82.448730  0.988417 0.010149 -0.151422  0.321125 0.365270 1 19 1.000000
sniper_red
0  4.458293 -0.793932 82.659996  0.988425 0.010121 -0.151375  0.322134 0.353740 1 19 1.000000
0  3.948361 -1.479336 83.575256  0.857996 0.038382 0.512221  0.326367 0.359865 1 19 1.000000
0  4.435364 -2.226758 82.448730  0.988417 0.010149 -0.151422  0.321125 0.365270 1 19 1.000000
sniper_red
0  4.458293 -0.793932 82.659996  0.988425 0.010121 -0.151375  0.322134 0.353740 1 19 1.000000
0  3.861758 -0.315745 83.767723  0.827528 -0.018627 0.561115  0.327580 0.350826 1 19 1.000000
0  3.948361 -1.479336 83.575256  0.857996 0.038382 0.512221  0.326367 0.359865 1 19 1.000000
sniper_red
0  4.458293 -0.793932 82.659996  0.988425 0.010121 -0.151375  0.322134 0.353740 1 19 1.000000
0  3.721381 3.630063 84.041855  0.860854 -0.059904 0.505314  0.330340 0.320082 1 19 1.000000
0  3.861758 -0.315745 83.767723  0.827528 -0.018627 0.561115  0.327580 0.350826 1 19 1.000000
sniper_red
0  4.458293 -0.793932 82.659996  0.988425 0.010121 -0.151375  0.322134 0.353740 1 19 1.000000
0  4.430244 4.325979 82.648048  0.972906 -0.050681 -0.225576  0.323820 0.313290 1 19 1.000000
0  3.721381 3.630063 84.041855  0.860854 -0.059904 0.505314  0.330340 0.320082 1 19 1.000000
sniper_red
0  4.430244 4.325979 82.648048  0.972906 -0.050681 -0.225576  0.323820 0.313290 1 19 1.000000
0  4.166711 5.919896 83.881912  0.702631 0.325441 0.632769  0.329838 0.301879 1 19 1.000000
0  3.721381 3.630063 84.041855  0.860854 -0.059904 0.505314  0.330340 0.320082 1 19 1.000000
sniper_red
0  4.430244 4.325979 82.648048  0.972906 -0.050681 -0.225576  0.323820 0.313290 1 19 1.000000
0  4.511962 7.668895 82.117134  0.879589 0.472474 0.055603  0.323777 0.286290 1 19 1.000000
0  4.166711 5.919896 83.881912  0.702631 0.325441 0.632769  0.329838 0.301879 1 19 1.000000
sniper_red
0  4.074134 4.404775 82.261032  0.506811 -0.050511 -0.860576  0.321511 0.311966 1 19 1.000000
0  4.511962 7.668895 82.117134  0.879589 0.472474 0.055603  0.323777 0.286290 1 19 1.000000
0  4.430244 4.325979 82.648048  0.972906 -0.050681 -0.225576  0.323820 0.313290 1 19 1.000000
sniper_red
0  4.074134 4.404775 82.261032  0.506811 -0.050511 -0.860576  0.321511 0.311966 1 19 1.000000
0  3.894866 7.884535 81.736649  0.337375 -0.132697 -0.931971  0.321093 0.283737 1 19 1.000000
0  4.511962 7.668895 82.117134  0.879589 0.472474 0.055603  0.323777 0.286290 1 19 1.000000
sniper_red
0  4.074134 4.404775 82.261032  0.506811 -0.050511 -0.860576  0.321511 0.311966 1 19 1.000000
0  4.430244 4.325979 82.648048  0.972906 -0.050681 -0.225576  0.323820 0.313290 1 19 1.000000
0  4.458293 -0.793932 82.659996  0.988425 0.010121 -0.151375  0.322134 0.353740 1 19 1.000000
sniper_red
0  -5.758676 3.916521 79.370697  -0.902878 0.349006 -0.251011  0.276782 0.309427 1 19 1.000000
0  -5.869062 3.813558 79.625214  -0.902878 0.349012 -0.251003  0.274728 0.307552 1 19 1.000000
0  -3.497786 7.261126 80.548737  -0.553707 0.807333 -0.204015  0.287345 0.281412 1 19 1.000000
sniper_red
0  -6.128217 -0.562600 79.329865  -0.968550 -0.119667 -0.218152  0.274896 0.345735 1 19 1.000000
0  -5.869062 3.813558 79.625214  -0.902878 0.349012 -0.251003  0.274728 0.307552 1 19 1.000000
0  -5.758676 3.916521 79.370697  -0.902878 0.349006 -0.251011  0.276782 0.309427 1 19 1.000000
sniper_red
0  -6.128217 -0.562600 79.329865  -0.968550 -0.119667 -0.218152  0.274896 0.345735 1 19 1.000000
0  -6.185529 -0.521840 79.592094  -0.968549 -0.119651 -0.218167  0.272684 0.346386 1 19 1.000000
0  -5.869062 3.813558 79.625214  -0.902878 0.349012 -0.251003  0.274728 0.307552 1 19 1.000000
sniper_red
0  -5.282609 -3.308301 79.705475  -0.863195 -0.493199 -0.107932  0.278394 0.367908 1 19 1.000000
0  -6.185529 -0.521840 79.592094  -0.968549 -0.119651 -0.218167  0.272684 0.346386 1 19 1.000000
0  -6.128217 -0.562600 79.329865  -0.968550 -0.119667 -0.218152  0.274896 0.345735 1 19 1.000000
sniper_red
0  -5.282609 -3.308301 79.705475  -0.863195 -0.493199 -0.107932  0.278394 0.367908 1 19 1.000000
0  -5.303627 -3.327609 79.971725  -0.794947 -0.409105 0.447988  0.276655 0.370843 1 19 1.000000
0  -6.185529 -0.521840 79.592094  -0.968549 -0.119651 -0.218167  0.272684 0.346386 1 19 1.000000
sniper_red
0  -5.282609 -3.308301 79.705475  -0.863195 -0.493199 -0.107932  0.278394 0.367908 1 19 1.000000
0  -3.371815 -5.559809 80.233383  -0.607368 -0.657549 0.445795  0.284478 0.391271 1 19 1.000000
0  -5.303627 -3.327609 79.971725  -0.794947 -0.409105 0.447988  0.276655 0.370843 1 19 1.000000
sniper_red
0  -5.282609 -3.308301 79.705475  -0.863195 -0.493199 -0.107932  0.278394 0.367908 1 19 1.000000
0  -3.314503 -5.600567 79.971153  -0.661170 -0.749197 -0.039478  0.285686 0.388279 1 19 1.000000
0  -3.371815 -5.559809 80.233383  -0.607368 -0.657549 0.445795  0.284478 0.391271 1 19 1.000000
sniper_red
0  -3.314503 -5.600567 79.971153  -0.661170 -0.749197 -0.039478  0.285686 0.388279 1 19 1.000000
0  -0.286628 -7.646448 80.251091  -0.310807 -0.774277 0.551266  0.297424 0.410200 1 19 1.000000
0  -3.371815 -5.559809 80.233383  -0.607368 -0.657549 0.445795  0.284478 0.391271 1 19 1.000000
sniper_red
0  -3.314503 -5.600567 79.971153  -0.661170 -0.749197 -0.039478  0.285686 0.388279 1 19 1.000000
0  -0.229316 -7.687207 79.988853  -0.313932 -0.946199 0.078448  0.297863 0.407196 1 19 1.000000
0  -0.286628 -7.646448 80.251091  -0.310807 -0.774277 0.551266  0.297424 0.410200 1 19 1.000000
sniper_red
0  0.764107 -7.658439 80.478386  0.029812 -0.772494 0.634322  0.302236 0.411174 1 19 1.000000
0  -0.286628 -7.646448 80.251091  -0.310807 -0.774277 0.551266  0.297424 0.410200 1 19 1.000000
0  -0.229316 -7.687207 79.988853  -0.313932 -0.946199 0.078448  0.297863 0.407196 1 19 1.000000
sniper_red
0  0.764107 -7.658439 80.478386  0.029812 -0.772494 0.634322  0.302236 0.411174 1 19 1.000000
0  -0.229316 -7.687207 79.988853  -0.313932 -0.946199 0.078448  0.297863 0.407196 1 19 1.000000
0  0.821419 -7.699198 80.216148  0.230284 -0.954709 0.188415  0.302449 0.407814 1 19 1.000000
sniper_red
0  0.764107 -7.658439 80.478386  0.029812 -0.772494 0.634322  0.302236 0.411174 1 19 1.000000
0  0.821419 -7.699198 80.216148  0.230284 -0.954709 0.188415  0.302449 0.407814 1 19 1.000000
0  3.400554 -5.916786 81.375938  0.509117 -0.798925 0.320185  0.314527 0.394349 1 19 1.000000
sniper_red
0  0.764107 -7.658439 80.478386  0.029812 -0.772494 0.634322  0.302236 0.411174 1 19 1.000000
0  3.400554 -5.916786 81.375938  0.509117 -0.798925 0.320185  0.314527 0.394349 1 19 1.000000
0  3.364048 -5.859453 81.703941  0.087406 -0.569872 0.817072  0.315650 0.397924 1 19 1.000000
sniper_red
0  3.364048 -5.859453 81.703941  0.087406 -0.569872 0.817072  0.315650 0.397924 1 19 1.000000
0  3.400554 -5.916786 81.375938  0.509117 -0.798925 0.320185  0.314527 0.394349 1 19 1.000000
0  4.200176 -5.071068 82.047615  0.399601 -0.655734 0.640571  0.318880 0.387716 1 19 1.000000
sniper_red
0  3.364048 -5.859453 81.703941  0.087406 -0.569872 0.817072  0.315650 0.397924 1 19 1.000000
0  4.200176 -5.071068 82.047615  0.399601 -0.655734 0.640571  0.318880 0.387716 1 19 1.000000
0  3.954613 -5.050223 82.212837  0.399596 -0.655741 0.640568  0.320398 0.391483 1 19 1.000000
sniper_red
0  3.954613 -5.050223 82.212837  0.399596 -0.655741 0.640568  0.320398 0.391483 1 19 1.000000
0  4.200176 -5.071068 82.047615  0.399601 -0.655734 0.640571  0.318880 0.387716 1 19 1.000000
0  4.307195 -3.245078 83.264961  0.087385 -0.569890 0.817061  0.324236 0.373813 1 19 1.000000
sniper_red
0  3.954613 -5.050223 82.212837  0.399596 -0.655741 0.640568  0.320398 0.391483 1 19 1.000000
0  4.307195 -3.245078 83.264961  0.087385 -0.569890 0.817061  0.324236 0.373813 1 19 1.000000
0  4.042035 -3.198708 83.295471  0.087371 -0.569881 0.817069  0.326051 0.377258 1 19 1.000000
sniper_red
0  4.042035 -3.198708 83.295471  0.087371 -0.569881 0.817069  0.326051 0.377258 1 19 1.000000
0  4.307195 -3.245078 83.264961  0.087385 -0.569890 0.817061  0.324236 0.373813 1 19 1.000000
0  3.155896 -1.347162 84.614212  0.408061 -0.248247 0.878555  0.331900 0.359655 1 19 1.000000
sniper_red
0  -2.313465 4.531624 85.758965  -0.146216 -0.054675 0.987741  0.201189 0.288156 1 19 1.000000
0  -3.267207 3.174283 85.548935  -0.146174 -0.054669 0.987747  0.192186 0.261035 1 19 1.000000
0  -0.954022 3.228274 85.888062  -0.213924 -0.055078 0.975296  0.215713 0.264967 1 19 1.000000
sniper_red
0  -0.912600 0.503987 85.731857  -0.213883 -0.055092 0.975305  0.217520 0.212964 1 19 1.000000
0  -0.954022 3.228274 85.888062  -0.213924 -0.055078 0.975296  0.215713 0.264967 1 19 1.000000
0  -3.267207 3.174283 85.548935  -0.146174 -0.054669 0.987747  0.192186 0.261035 1 19 1.000000
sniper_red
0  -0.912600 0.503987 85.731857  -0.213883 -0.055092 0.975305  0.217520 0.212964 1 19 1.000000
0  -3.267207 3.174283 85.548935  -0.146174 -0.054669 0.987747  0.192186 0.261035 1 19 1.000000
0  -3.383653 0.521914 85.420586  -0.146236 -0.054698 0.987736  0.192452 0.210265 1 19 1.000000
sniper_red
0  -2.232265 -1.651441 85.447624  -0.146240 -0.054706 0.987735  0.205256 0.170167 1 19 1.000000
0  -0.912600 0.503987 85.731857  -0.213883 -0.055092 0.975305  0.217520 0.212964 1 19 1.000000
0  -3.383653 0.521914 85.420586  -0.146236 -0.054698 0.987736  0.192452 0.210265 1 19 1.000000
sniper_red
0  -2.232265 -1.651441 85.447624  -0.146240 -0.054706 0.987735  0.205256 0.170167 1 19 1.000000
0  -0.873267 -2.083077 85.583778  -0.213921 -0.055036 0.975299  0.219235 0.163581 1 19 1.000000
0  -0.912600 0.503987 85.731857  -0.213883 -0.055092 0.975305  0.217520 0.212964 1 19 1.000000
sniper_red
0  0.407506 -1.615272 86.163361  -0.348857 -0.027796 0.936764  0.232839 0.174558 1 19 1.000000
0  -0.912600 0.503987 85.731857  -0.213883 -0.055092 0.975305  0.217520 0.212964 1 19 1.000000
0  -0.873267 -2.083077 85.583778  -0.213921 -0.055036 0.975299  0.219235 0.163581 1 19 1.000000
sniper_red
0  0.407506 -1.615272 86.163361  -0.348857 -0.027796 0.936764  0.232839 0.174558 1 19 1.000000
0  1.494148 0.521914 86.486641  -0.313946 -0.034782 0.948804  0.242901 0.216802 1 19 1.000000
0  -0.912600 0.503987 85.731857  -0.213883 -0.055092 0.975305  0.217520 0.212964 1 19 1.000000
sniper_red
0  -0.912600 0.503987 85.731857  -0.213883 -0.055092 0.975305  0.217520 0.212964 1 19 1.000000
0  1.494148 0.521914 86.486641  -0.313946 -0.034782 0.948804  0.242901 0.216802 1 19 1.000000
0  1.335063 3.174235 86.554016  -0.285797 -0.056918 0.956599  0.239786 0.267203 1 19 1.000000
sniper_red
0  -0.912600 0.503987 85.731857  -0.213883 -0.055092 0.975305  0.217520 0.212964 1 19 1.000000
0  1.335063 3.174235 86.554016  -0.285797 -0.056918 0.956599  0.239786 0.267203 1 19 1.000000
0  -0.954022 3.228274 85.888062  -0.213924 -0.055078 0.975296  0.215713 0.264967 1 19 1.000000
sniper_red
0  -0.954022 3.228274 85.888062  -0.213924 -0.055078 0.975296  0.215713 0.264967 1 19 1.000000
0  1.335063 3.174235 86.554016  -0.285797 -0.056918 0.956599  0.239786 0.267203 1 19 1.000000
0  0.375726 4.537428 86.368965  -0.286372 -0.057290 0.956404  0.229047 0.291898 1 19 1.000000
sniper_red
0  -0.954022 3.228274 85.888062  -0.213924 -0.055078 0.975296  0.215713 0.264967 1 19 1.000000
0  0.375726 4.537428 86.368965  -0.286372 -0.057290 0.956404  0.229047 0.291898 1 19 1.000000
0  -0.978434 4.834062 85.979706  -0.213962 -0.055069 0.975289  0.214648 0.295619 1 19 1.000000
sniper_red
0  -2.313465 4.531624 85.758965  -0.146216 -0.054675 0.987741  0.201189 0.288156 1 19 1.000000
0  -0.954022 3.228274 85.888062  -0.213924 -0.055078 0.975296  0.215713 0.264967 1 19 1.000000
0  -0.978434 4.834062 85.979706  -0.213962 -0.055069 0.975289  0.214648 0.295619 1 19 1.000000
end
