version 1
nodes
0 "ValveBiped.Bip01_Pelvis" -1
1 "ValveBiped.Bip01_Spine" 0
2 "ValveBiped.Bip01_Spine1" 1
3 "ValveBiped.Bip01_Spine2" 2
4 "ValveBiped.Bip01_Spine4" 3
5 "ValveBiped.Bip01_Neck1" 4
6 "ValveBiped.Bip01_Head1" 5
7 "ValveBiped.forward" 6
8 "ValveBiped.Bip01_R_Clavicle" 4
9 "ValveBiped.Bip01_R_UpperArm" 8
10 "ValveBiped.Bip01_R_Forearm" 9
11 "ValveBiped.Bip01_R_Hand" 10
12 "ValveBiped.Anim_Attachment_RH" 11
13 "ValveBiped.Bip01_R_Finger4" 11
14 "ValveBiped.Bip01_R_Finger41" 13
15 "ValveBiped.Bip01_R_Finger42" 14
16 "ValveBiped.Bip01_R_Finger3" 11
17 "ValveBiped.Bip01_R_Finger31" 16
18 "ValveBiped.Bip01_R_Finger32" 17
19 "ValveBiped.Bip01_R_Finger2" 11
20 "ValveBiped.Bip01_R_Finger21" 19
21 "ValveBiped.Bip01_R_Finger22" 20
22 "ValveBiped.Bip01_R_Finger1" 11
23 "ValveBiped.Bip01_R_Finger11" 22
24 "ValveBiped.Bip01_R_Finger12" 23
25 "ValveBiped.Bip01_R_Finger0" 11
26 "ValveBiped.Bip01_R_Finger01" 25
27 "ValveBiped.Bip01_R_Finger02" 26
28 "ValveBiped.Bip01_R_Ulna" 10
29 "ValveBiped.Bip01_R_Wrist" 10
30 "ValveBiped.Bip01_L_Clavicle" 4
31 "ValveBiped.Bip01_L_UpperArm" 30
32 "ValveBiped.Bip01_L_Forearm" 31
33 "ValveBiped.Bip01_L_Hand" 32
34 "ValveBiped.Anim_Attachment_LH" 33
35 "ValveBiped.Bip01_L_Finger4" 33
36 "ValveBiped.Bip01_L_Finger41" 35
37 "ValveBiped.Bip01_L_Finger42" 36
38 "ValveBiped.Bip01_L_Finger3" 33
39 "ValveBiped.Bip01_L_Finger31" 38
40 "ValveBiped.Bip01_L_Finger32" 39
41 "ValveBiped.Bip01_L_Finger2" 33
42 "ValveBiped.Bip01_L_Finger21" 41
43 "ValveBiped.Bip01_L_Finger22" 42
44 "ValveBiped.Bip01_L_Finger1" 33
45 "ValveBiped.Bip01_L_Finger11" 44
46 "ValveBiped.Bip01_L_Finger12" 45
47 "ValveBiped.Bip01_L_Finger0" 33
48 "ValveBiped.Bip01_L_Finger01" 47
49 "ValveBiped.Bip01_L_Finger02" 48
50 "ValveBiped.Bip01_L_Ulna" 32
51 "ValveBiped.Bip01_L_Wrist" 32
52 "ValveBiped.Bip01_R_Thigh" 0
53 "ValveBiped.Bip01_R_Calf" 52
54 "ValveBiped.Bip01_R_Foot" 53
55 "ValveBiped.Bip01_R_Toe0" 54
56 "ValveBiped.Bip01_L_Thigh" 0
57 "ValveBiped.Bip01_L_Calf" 56
58 "ValveBiped.Bip01_L_Foot" 57
59 "ValveBiped.Bip01_L_Toe0" 58
end
skeleton
time 0
0  0.000006 -2.342000 54.830780  1.570796 0.000000 0.000002
1  0.000000 6.665115 3.090924  1.570794 0.086289 1.570786
2  6.231384 -1.487163 -0.000057  -0.000000 0.000003 -0.029234
3  10.745547 -2.843408 0.000113  -0.000000 -0.000093 0.100323
4  0.814658 -0.000292 -0.000255  0.000019 0.000108 0.194105
5  5.537961 0.253119 0.000066  3.141587 -0.000042 0.345506
6  1.810126 2.270918 0.000091  -0.000010 0.000024 0.198939
7  2.000062 -2.999951 0.000011  -1.570802 -0.000004 -1.326427
8  0.801849 5.411707 0.315827  1.633011 2.192540 -0.196586
9  12.391273 3.943238 3.302959  1.232574 0.158127 -0.618537
10  13.250986 -0.415396 0.013473  0.009668 -0.029702 -1.102263
11  14.539640 0.131588 0.000268  -1.562418 0.106046 0.216315
12  2.676078 -1.712471 -0.000007  -1.570794 -0.000007 -1.571328
13  3.292854 -4.469424 0.795244  0.486694 0.425089 -0.413017
14  1.562736 0.003379 -0.007586  0.227989 0.222657 -0.370426
15  1.389464 -0.000010 0.000001  0.000010 -0.006133 -0.244303
16  3.913752 -3.141215 -0.081472  0.152071 0.369482 -0.374666
17  1.836084 -0.026011 -0.033997  0.080767 0.500410 -0.615850
18  1.650494 -0.000002 -0.000003  0.000009 -0.009668 -0.430809
19  4.253222 -1.579059 -1.175447  -0.143862 0.230121 -0.515867
20  2.961585 -0.116056 -0.255762  -0.076319 0.875900 -0.897406
21  1.950965 0.000020 -0.000001  0.000001 -0.004462 -0.216317
22  4.853778 -0.461637 -2.525939  -0.390440 0.131912 -0.469313
23  1.786096 -0.002480 -0.015486  -0.172133 0.939397 -0.693280
24  1.354218 0.000011 0.000011  -0.000001 -0.004204 -0.244305
25  1.516724 -0.277574 -2.195106  2.402070 0.264787 -0.067844
26  2.253376 -0.008746 -0.005283  0.447159 -0.051285 0.133772
27  1.065277 0.000020 -0.000005  -0.000015 -0.009626 0.362861
28  5.740858 0.000059 -0.000008  0.000074 -0.000000 0.000002
29  11.481712 0.000112 0.000000  0.000139 -0.000000 0.000014
30  0.653259 5.345216 -0.373494  -1.593527 -2.196159 -0.160607
31  12.421646 3.839879 -3.355873  -1.291951 -0.205521 -0.618713
32  13.251006 -0.415139 -0.015067  -0.012144 0.032739 -1.102189
33  14.539069 0.138766 0.000191  1.573713 -0.106878 0.225604
34  2.676084 -1.712454 0.000014  1.570793 0.000005 1.570720
35  3.299244 -4.468612 -0.734148  -0.482488 -0.435396 -0.411202
36  1.562800 0.003412 0.007632  -0.224894 -0.224215 -0.369576
37  1.389467 0.000001 0.000009  -0.000009 0.004982 -0.244255
38  3.911488 -3.135772 0.144836  -0.157247 -0.378781 -0.372054
39  1.836069 -0.026023 0.033639  -0.092027 -0.500533 -0.614094
40  1.650566 0.000006 -0.000011  -0.000008 0.007358 -0.430846
41  4.240135 -1.573150 1.222331  0.165534 -0.241484 -0.516344
42  2.961173 -0.112156 0.258359  0.072667 -0.889636 -0.886474
43  1.950967 0.000031 -0.000002  0.000008 0.003076 -0.216362
44  4.830135 -0.447277 2.574564  0.399251 -0.143103 -0.468923
45  1.785916 -0.002328 0.015557  0.188432 -0.943369 -0.690700
46  1.354373 0.000017 -0.000017  -0.000001 0.002593 -0.244304
47  1.448910 -0.290240 2.273130  -1.892859 -0.345367 0.013677
48  2.252860 -0.013462 -0.010026  -0.280908 0.150349 0.095579
49  1.065423 0.000003 0.000003  0.000021 0.011266 0.362891
50  5.740858 0.000085 -0.000002  0.000692 0.000000 0.000007
51  11.481709 0.000166 -0.000012  0.001278 0.000000 0.000009
52  -6.401535 -6.240012 1.514033  -1.594402 0.145493 -1.761115
53  26.749271 0.106862 0.056706  0.009647 -0.025950 0.082173
54  19.560894 0.105467 -0.010574  -0.047074 -0.076646 -0.930331
55  6.519237 -3.940413 -2.564050  -0.040660 0.015368 -0.527510
56  6.401639 -6.239936 1.513974  -1.547398 0.145494 -1.380485
57  26.749245 0.107197 -0.056661  -0.009618 0.025929 0.082183
58  19.560982 0.105287 0.006842  0.049533 0.072431 -0.930954
59  6.518748 -3.956794 2.504477  0.005183 -0.004205 -0.526365
time 1
0  0.000006 -2.342000 54.830780  1.570796 0.000000 0.000002
1  0.000000 6.665115 3.090924  1.570794 0.086289 1.570786
2  6.231384 -1.487163 -0.000057  -0.000000 0.000003 -0.029234
3  10.745547 -2.843408 0.000113  -0.000000 -0.000093 0.100323
4  0.814658 -0.000292 -0.000255  0.000019 0.000108 0.194105
5  5.537961 0.253119 0.000066  3.141587 -0.000042 0.345506
6  1.810126 2.270918 0.000091  -0.000010 0.000024 0.198939
7  2.000062 -2.999951 0.000011  -1.570802 -0.000004 -1.326427
8  0.801849 5.411707 0.315827  1.633011 2.192540 -0.196586
9  12.391273 3.943238 3.302959  1.232574 0.158127 -0.618537
10  13.250986 -0.415396 0.013473  0.009668 -0.029702 -1.102263
11  14.539640 0.131588 0.000268  -1.562418 0.106046 0.216315
12  2.676078 -1.712471 -0.000007  -1.570794 -0.000007 -1.571328
13  3.292854 -4.469424 0.795244  0.486694 0.425089 -0.413017
14  1.562736 0.003379 -0.007586  0.227989 0.222657 -0.370426
15  1.389464 -0.000010 0.000001  0.000010 -0.006133 -0.244303
16  3.913752 -3.141215 -0.081472  0.152071 0.369482 -0.374666
17  1.836084 -0.026011 -0.033997  0.080767 0.500410 -0.615850
18  1.650494 -0.000002 -0.000003  0.000009 -0.009668 -0.430809
19  4.253222 -1.579059 -1.175447  -0.143862 0.230121 -0.515867
20  2.961585 -0.116056 -0.255762  -0.076319 0.875900 -0.897406
21  1.950965 0.000020 -0.000001  0.000001 -0.004462 -0.216317
22  4.853778 -0.461637 -2.525939  -0.390440 0.131912 -0.469313
23  1.786096 -0.002480 -0.015486  -0.172133 0.939397 -0.693280
24  1.354218 0.000011 0.000011  -0.000001 -0.004204 -0.244305
25  1.516724 -0.277574 -2.195106  2.402070 0.264787 -0.067844
26  2.253376 -0.008746 -0.005283  0.447159 -0.051285 0.133772
27  1.065277 0.000020 -0.000005  -0.000015 -0.009626 0.362861
28  5.740858 0.000059 -0.000008  0.000074 -0.000000 0.000002
29  11.481712 0.000112 0.000000  0.000139 -0.000000 0.000014
30  0.653259 5.345216 -0.373494  -1.593527 -2.196159 -0.160607
31  12.421646 3.839879 -3.355873  -1.291951 -0.205521 -0.618713
32  13.251006 -0.415139 -0.015067  -0.012144 0.032739 -1.102189
33  14.539069 0.138766 0.000191  1.573713 -0.106878 0.225604
34  2.676084 -1.712454 0.000014  1.570793 0.000005 1.570720
35  3.299244 -4.468612 -0.734148  -0.482488 -0.435396 -0.411202
36  1.562800 0.003412 0.007632  -0.224894 -0.224215 -0.369576
37  1.389467 0.000001 0.000009  -0.000009 0.004982 -0.244255
38  3.911488 -3.135772 0.144836  -0.157247 -0.378781 -0.372054
39  1.836069 -0.026023 0.033639  -0.092027 -0.500533 -0.614094
40  1.650566 0.000006 -0.000011  -0.000008 0.007358 -0.430846
41  4.240135 -1.573150 1.222331  0.165534 -0.241484 -0.516344
42  2.961173 -0.112156 0.258359  0.072667 -0.889636 -0.886474
43  1.950967 0.000031 -0.000002  0.000008 0.003076 -0.216362
44  4.830135 -0.447277 2.574564  0.399251 -0.143103 -0.468923
45  1.785916 -0.002328 0.015557  0.188432 -0.943369 -0.690700
46  1.354373 0.000017 -0.000017  -0.000001 0.002593 -0.244304
47  1.448910 -0.290240 2.273130  -1.892859 -0.345367 0.013677
48  2.252860 -0.013462 -0.010026  -0.280908 0.150349 0.095579
49  1.065423 0.000003 0.000003  0.000021 0.011266 0.362891
50  5.740858 0.000085 -0.000002  0.000692 0.000000 0.000007
51  11.481709 0.000166 -0.000012  0.001278 0.000000 0.000009
52  -6.401535 -6.240012 1.514033  -1.594402 0.145493 -1.761115
53  26.749271 0.106862 0.056706  0.009647 -0.025950 0.082173
54  19.560894 0.105467 -0.010574  -0.047074 -0.076646 -0.930331
55  6.519237 -3.940413 -2.564050  -0.040660 0.015368 -0.527510
56  6.401639 -6.239936 1.513974  -1.547398 0.145494 -1.380485
57  26.749245 0.107197 -0.056661  -0.009618 0.025929 0.082183
58  19.560982 0.105287 0.006842  0.049533 0.072431 -0.930954
59  6.518748 -3.956794 2.504477  0.005183 -0.004205 -0.526365
end
