"VertexLitGeneric"
{
	"$basetexture" "models\player\soldier\sleeve_color_diffuse"
	"$bumpmap" "models\player\soldier\sleeve_normal"

	"$phong" "1"
	"$phongexponent" "20"
	"$phongboost" ".3"	
	"$lightwarptexture" "models/player/pyro/pyro_lightwarp"
	"$phongfresnelranges"	"[.3 1 8]"
	"$halflambert" "0"

	// Rim lighting parameters
	"$rimlight" "1"												// To enable rim lighting (requires phong)
	"$rimlightexponent" "10"										// Exponent for phong component of rim lighting	
	"$rimlightboost" ".1"										// Boost for ambient cube component of rim lighting

	"Proxies"
	{
		"PlayerColor"
		{
			"resultVar" "$color2"
		}
	}
}

