// Created by Crowbar 0.62

$modelname "player\arms\tf2_pm\c_spy_arms.mdl"

$bodygroup "body"
{
	studio "spy.smd"
}
$bodygroup "gloves"
{
	studio "gloves.smd"
}

$surfaceprop "default"

$contents "solid"

$illumposition -0.754 52.182 -2.661

$cdmaterials "models\player\spy\"
$cdmaterials ""

$texturegroup "skinfamilies"
{
	{ "spy_hands_red"  }
	{ "spy_hands_blue" }
	{ "spy_hands_color" }
	{ "spy_hands_red"  }
	{ "spy_hands_blue" }
}

$proceduralbones "c_arms_combine.vrd"

$sequence "c_spy_arms" {
	"spy.smd"
	fadein 0.2
	fadeout 0.2
	fps 30
}

