version 1
nodes
0 "ValveBiped.Bip01_Pelvis" -1
1 "ValveBiped.Bip01_L_Thigh" 0
2 "ValveBiped.Bip01_L_Calf" 1
3 "ValveBiped.Bip01_L_Foot" 2
4 "ValveBiped.Bip01_L_Toe0" 3
5 "ValveBiped.Bip01_R_Thigh" 0
6 "ValveBiped.Bip01_R_Calf" 5
7 "ValveBiped.Bip01_R_Foot" 6
8 "ValveBiped.Bip01_R_Toe0" 7
9 "ValveBiped.Bip01_Spine" 0
10 "ValveBiped.Bip01_Spine1" 9
11 "ValveBiped.Bip01_Spine2" 10
12 "ValveBiped.Bip01_Spine4" 11
13 "ValveBiped.Bip01_Neck1" 12
14 "ValveBiped.Bip01_Head1" 13
15 "ValveBiped.Bip01_L_Clavicle" 12
16 "ValveBiped.Bip01_L_UpperArm" 15
17 "ValveBiped.Bip01_L_Forearm" 16
18 "ValveBiped.Bip01_L_Hand" 17
19 "ValveBiped.Bip01_L_Finger2" 18
20 "ValveBiped.Bip01_L_Finger21" 19
21 "ValveBiped.Bip01_L_Finger22" 20
22 "ValveBiped.Bip01_L_Finger1" 18
23 "ValveBiped.Bip01_L_Finger11" 22
24 "ValveBiped.Bip01_L_Finger12" 23
25 "ValveBiped.Bip01_L_Finger0" 18
26 "ValveBiped.Bip01_L_Finger01" 25
27 "ValveBiped.Bip01_L_Finger02" 26
28 "ValveBiped.Bip01_L_Finger4" 18
29 "ValveBiped.Bip01_L_Finger41" 28
30 "ValveBiped.Bip01_L_Finger42" 29
31 "ValveBiped.Bip01_L_Finger3" 18
32 "ValveBiped.Bip01_L_Finger31" 31
33 "ValveBiped.Bip01_L_Finger32" 32
34 "ValveBiped.Bip01_R_Clavicle" 12
35 "ValveBiped.Bip01_R_UpperArm" 34
36 "ValveBiped.Bip01_R_Forearm" 35
37 "ValveBiped.Bip01_R_Hand" 36
38 "ValveBiped.Bip01_R_Finger2" 37
39 "ValveBiped.Bip01_R_Finger21" 38
40 "ValveBiped.Bip01_R_Finger22" 39
41 "ValveBiped.Bip01_R_Finger1" 37
42 "ValveBiped.Bip01_R_Finger11" 41
43 "ValveBiped.Bip01_R_Finger12" 42
44 "ValveBiped.Bip01_R_Finger0" 37
45 "ValveBiped.Bip01_R_Finger01" 44
46 "ValveBiped.Bip01_R_Finger02" 45
47 "ValveBiped.Bip01_R_Finger4" 37
48 "ValveBiped.Bip01_R_Finger41" 47
49 "ValveBiped.Bip01_R_Finger42" 48
50 "ValveBiped.Bip01_R_Finger3" 37
51 "ValveBiped.Bip01_R_Finger31" 50
52 "ValveBiped.Bip01_R_Finger32" 51
end
skeleton
time 0
0  0.000000 -2.265002 48.466885  1.570796 -0.000000 0.000001
1  5.812440 -4.448170 0.000002  -1.573797 0.089934 -1.602163
2  18.403044 0.000000 -0.000000  -0.004964 0.019075 0.054051
3  20.444113 0.000000 -0.000000  0.008799 0.017186 -1.002421
4  6.879514 -0.491554 2.621570  -0.001050 -0.003488 -0.555366
5  -5.812440 -4.448185 -0.000007  -1.567890 0.089934 -1.539431
6  18.402994 0.000000 -0.000001  0.004974 -0.019080 0.054048
7  20.444155 -0.000000 0.000000  -0.002131 -0.019446 -1.002273
8  6.873318 -0.509883 -2.634295  -0.061128 0.006497 -0.556039
9  0.000000 4.269066 -0.304269  1.570795 0.086294 1.570791
10  6.208849 -0.320315 -0.000034  -0.000000 0.000001 -0.029229
11  6.079319 -0.339669 -0.000026  0.000000 -0.000044 0.100326
12  5.057623 0.675416 -0.000242  0.000009 0.000052 0.194100
13  3.493518 0.105275 0.000017  3.141588 -0.000020 0.372984
14  2.846854 1.391386 0.000047  -0.000004 0.000010 0.302763
15  1.220123 3.299076 1.305638  -1.577189 -2.025535 -0.171569
16  7.628277 1.067197 -4.146143  -1.575980 -0.000267 -0.699152
17  12.790010 0.000000 0.000001  -0.001048 -0.024717 -0.311818
18  11.535666 -0.000001 0.000002  1.573453 -0.106734 0.134901
19  5.713896 -0.909723 1.287735  0.112016 0.003860 -0.455826
20  2.973973 -0.000001 0.000001  -0.024698 -0.185970 -0.909543
21  2.194409 -0.000003 0.000001  0.000000 0.003076 -0.216389
22  5.709580 -0.641461 3.272081  0.390207 0.001410 -0.540620
23  2.470012 0.000001 0.000000  0.070833 -0.265672 -0.701888
24  1.775555 0.000002 0.000001  -0.000002 0.002593 -0.244320
25  1.649317 -1.534496 2.661772  -1.531558 -0.355727 -0.563120
26  2.788860 -0.000001 0.000000  -0.097978 0.004322 0.036553
27  1.626427 -0.000001 0.000002  0.000011 0.011266 0.362866
28  5.022521 -1.516129 -2.012569  -0.467094 0.118047 -0.567666
29  2.219689 -0.000001 -0.000000  -0.192637 0.109398 -0.833976
30  1.372699 0.000001 0.000000  -0.000006 0.004979 -0.244270
31  5.260867 -1.340276 -0.431719  -0.160190 0.043600 -0.408255
32  2.601477 0.000001 0.000000  -0.131093 -0.033963 -0.922569
33  1.651790 0.000001 -0.000000  0.000000 0.007356 -0.430826
34  1.220143 3.299075 -1.305623  1.567159 2.023839 -0.181982
35  7.611053 1.051565 4.181634  1.575248 -0.002792 -0.700838
36  12.790004 0.000000 0.000001  0.000284 0.026005 -0.311715
37  11.535675 -0.000000 -0.000005  -1.563667 0.106377 0.130253
38  5.724447 -0.920406 -1.231920  -0.102333 -0.014412 -0.456344
39  2.974025 -0.000001 0.000001  0.023633 0.177118 -0.910836
40  2.194376 -0.000001 -0.000000  -0.000001 -0.004460 -0.216349
41  5.737793 -0.664089 -3.217796  -0.385446 -0.012043 -0.541181
42  2.469932 0.000001 -0.000001  -0.061378 0.262159 -0.702959
43  1.775559 0.000003 0.000000  0.000003 -0.004203 -0.244312
44  1.671756 -1.551379 -2.637873  1.780558 0.345075 -0.563789
45  2.788851 -0.000001 0.000000  0.143862 0.004832 0.036504
46  1.626462 -0.000001 0.000000  -0.000005 -0.009622 0.362884
47  5.003721 -1.506562 2.065754  0.469992 -0.128705 -0.568143
48  2.219715 -0.000001 0.000000  0.206707 -0.111809 -0.833742
49  1.372688 -0.000002 -0.000001  0.000005 -0.006133 -0.244287
50  5.256133 -1.340353 0.486042  0.155209 -0.054067 -0.408673
51  2.601442 0.000001 0.000000  0.119198 0.036296 -0.922512
52  1.651849 0.000003 0.000000  0.000005 -0.009661 -0.430790
time 1
0  0.000000 -2.265002 48.466885  1.570796 -0.000000 0.000001
1  5.812440 -4.448170 0.000002  -1.573797 0.089934 -1.602163
2  18.403044 0.000000 -0.000000  -0.004964 0.019075 0.054051
3  20.444113 0.000000 -0.000000  0.008799 0.017186 -1.002421
4  6.879514 -0.491554 2.621570  -0.001050 -0.003488 -0.555366
5  -5.812440 -4.448185 -0.000007  -1.567890 0.089934 -1.539431
6  18.402994 0.000000 -0.000001  0.004974 -0.019080 0.054048
7  20.444155 -0.000000 0.000000  -0.002131 -0.019446 -1.002273
8  6.873318 -0.509883 -2.634295  -0.061128 0.006497 -0.556039
9  0.000000 4.269066 -0.304269  1.570795 0.086294 1.570791
10  6.208849 -0.320315 -0.000034  -0.000000 0.000001 -0.029229
11  6.079319 -0.339669 -0.000026  0.000000 -0.000044 0.100326
12  5.057623 0.675416 -0.000242  0.000009 0.000052 0.194100
13  3.493518 0.105275 0.000017  3.141588 -0.000020 0.372984
14  2.846854 1.391386 0.000047  -0.000004 0.000010 0.302763
15  1.220123 3.299076 1.305638  -1.577189 -2.025535 -0.171569
16  7.628277 1.067197 -4.146143  -1.575980 -0.000267 -0.699152
17  12.790010 0.000000 0.000001  -0.001048 -0.024717 -0.311818
18  11.535666 -0.000001 0.000002  1.573453 -0.106734 0.134901
19  5.713896 -0.909723 1.287735  0.112016 0.003860 -0.455826
20  2.973973 -0.000001 0.000001  -0.024698 -0.185970 -0.909543
21  2.194409 -0.000003 0.000001  0.000000 0.003076 -0.216389
22  5.709580 -0.641461 3.272081  0.390207 0.001410 -0.540620
23  2.470012 0.000001 0.000000  0.070833 -0.265672 -0.701888
24  1.775555 0.000002 0.000001  -0.000002 0.002593 -0.244320
25  1.649317 -1.534496 2.661772  -1.531558 -0.355727 -0.563120
26  2.788860 -0.000001 0.000000  -0.097978 0.004322 0.036553
27  1.626427 -0.000001 0.000002  0.000011 0.011266 0.362866
28  5.022521 -1.516129 -2.012569  -0.467094 0.118047 -0.567666
29  2.219689 -0.000001 -0.000000  -0.192637 0.109398 -0.833976
30  1.372699 0.000001 0.000000  -0.000006 0.004979 -0.244270
31  5.260867 -1.340276 -0.431719  -0.160190 0.043600 -0.408255
32  2.601477 0.000001 0.000000  -0.131093 -0.033963 -0.922569
33  1.651790 0.000001 -0.000000  0.000000 0.007356 -0.430826
34  1.220143 3.299075 -1.305623  1.567159 2.023839 -0.181982
35  7.611053 1.051565 4.181634  1.575248 -0.002792 -0.700838
36  12.790004 0.000000 0.000001  0.000284 0.026005 -0.311715
37  11.535675 -0.000000 -0.000005  -1.563667 0.106377 0.130253
38  5.724447 -0.920406 -1.231920  -0.102333 -0.014412 -0.456344
39  2.974025 -0.000001 0.000001  0.023633 0.177118 -0.910836
40  2.194376 -0.000001 -0.000000  -0.000001 -0.004460 -0.216349
41  5.737793 -0.664089 -3.217796  -0.385446 -0.012043 -0.541181
42  2.469932 0.000001 -0.000001  -0.061378 0.262159 -0.702959
43  1.775559 0.000003 0.000000  0.000003 -0.004203 -0.244312
44  1.671756 -1.551379 -2.637873  1.780558 0.345075 -0.563789
45  2.788851 -0.000001 0.000000  0.143862 0.004832 0.036504
46  1.626462 -0.000001 0.000000  -0.000005 -0.009622 0.362884
47  5.003721 -1.506562 2.065754  0.469992 -0.128705 -0.568143
48  2.219715 -0.000001 0.000000  0.206707 -0.111809 -0.833742
49  1.372688 -0.000002 -0.000001  0.000005 -0.006133 -0.244287
50  5.256133 -1.340353 0.486042  0.155209 -0.054067 -0.408673
51  2.601442 0.000001 0.000000  0.119198 0.036296 -0.922512
52  1.651849 0.000003 0.000000  0.000005 -0.009661 -0.430790
end
