version 1
nodes
0 "ValveBiped.Bip01_Pelvis" -1
1 "ValveBiped.Bip01_Spine" 0
2 "ValveBiped.Bip01_Spine1" 1
3 "ValveBiped.Bip01_Spine2" 2
4 "ValveBiped.Bip01_Spine4" 3
5 "ValveBiped.Bip01_Neck1" 4
6 "ValveBiped.Bip01_Head1" 5
7 "bip_dogtag_0" 5
8 "bip_dogtag_1" 7
9 "bip_dogtag_2" 8
10 "bip_dogtag_3" 9
11 "ValveBiped.Bip01_L_Clavicle" 4
12 "ValveBiped.Bip01_L_UpperArm" 11
13 "ValveBiped.Bip01_L_Forearm" 12
14 "ValveBiped.Bip01_L_Hand" 13
15 "weapon_bone_L" 14
16 "effect_hand_L" 14
17 "ValveBiped.Bip01_L_Finger0" 14
18 "ValveBiped.Bip01_L_Finger01" 17
19 "ValveBiped.Bip01_L_Finger02" 18
20 "ValveBiped.Bip01_L_Finger1" 14
21 "ValveBiped.Bip01_L_Finger11" 20
22 "ValveBiped.Bip01_L_Finger12" 21
23 "ValveBiped.Bip01_L_Finger2" 14
24 "ValveBiped.Bip01_L_Finger21" 23
25 "ValveBiped.Bip01_L_Finger22" 24
26 "ValveBiped.Bip01_L_Finger3" 14
27 "ValveBiped.Bip01_L_Finger31" 26
28 "ValveBiped.Bip01_L_Finger32" 27
29 "ValveBiped.Bip01_L_Finger4" 14
30 "ValveBiped.Bip01_L_Finger41" 29
31 "ValveBiped.Bip01_L_Finger42" 30
32 "hlp_forearm_L" 13
33 "ValveBiped.Bip01_R_Clavicle" 4
34 "ValveBiped.Bip01_R_UpperArm" 33
35 "ValveBiped.Bip01_R_Forearm" 34
36 "ValveBiped.Bip01_R_Hand" 35
37 "weapon_bone" 36
38 "weapon_bone_1" 37
39 "weapon_bone_2" 37
40 "weapon_bone_3" 37
41 "weapon_bone_4" 37
42 "effect_hand_R" 36
43 "ValveBiped.Bip01_R_Finger0" 36
44 "ValveBiped.Bip01_R_Finger01" 43
45 "ValveBiped.Bip01_R_Finger02" 44
46 "ValveBiped.Bip01_R_Finger1" 36
47 "ValveBiped.Bip01_R_Finger11" 46
48 "ValveBiped.Bip01_R_Finger12" 47
49 "ValveBiped.Bip01_R_Finger2" 36
50 "ValveBiped.Bip01_R_Finger21" 49
51 "ValveBiped.Bip01_R_Finger22" 50
52 "ValveBiped.Bip01_R_Finger3" 36
53 "ValveBiped.Bip01_R_Finger31" 52
54 "ValveBiped.Bip01_R_Finger32" 53
55 "ValveBiped.Bip01_R_Finger4" 36
56 "ValveBiped.Bip01_R_Finger41" 55
57 "ValveBiped.Bip01_R_Finger42" 56
58 "hlp_forearm_R" 35
59 "medal_bone" 3
60 "bip_packtop" 3
61 "bip_packmiddle" 60
62 "ValveBiped.Bip01_L_Thigh" 0
63 "ValveBiped.Bip01_L_Calf" 62
64 "ValveBiped.Bip01_L_Foot" 63
65 "ValveBiped.Bip01_L_Toe0" 64
66 "ValveBiped.Bip01_R_Thigh" 0
67 "ValveBiped.Bip01_R_Calf" 66
68 "ValveBiped.Bip01_R_Foot" 67
69 "ValveBiped.Bip01_R_Toe0" 68
70 "mvm" 0
71 "prop_bone" 0
72 "prop_bone_1" 0
73 "prop_bone_2" 0
74 "prop_bone_3" 0
75 "prop_bone_4" 0
76 "prop_bone_5" 0
77 "prop_bone_6" 0
end
skeleton
time 0
0  0.000000 -0.631996 47.331844  -1.922997 -0.000000 0.000000
1  0.000000 -5.458169 0.000042  0.058231 -0.000000 0.000000
2  0.000000 -4.492216 0.000008  0.094079 -0.000000 0.000000
3  0.000000 -5.060819 0.000000  0.247782 -0.000000 0.000000
4  0.000000 -5.603656 0.000002  0.424626 -0.000000 0.000000
5  0.000000 -3.599279 0.000072  0.218701 -0.000000 0.000000
6  0.000000 -3.899530 -0.000051  -0.576900 -0.000000 0.000000
7  0.000000 -0.191195 -1.171697  -1.595992 -0.000000 0.000000
8  0.000000 -2.691701 0.000054  -3.141187 0.000000 0.000000
9  0.000000 -5.344336 0.001853  -0.007776 0.000000 -0.000000
10  0.000000 -3.517559 -0.000032  0.000000 -0.000000 0.000000
11  1.452846 -2.069693 -2.738764  0.112681 -2.658258 1.889465
12  0.000201 -7.952538 0.000005  0.128563 0.172904 -2.625197
13  13.116758 0.000202 -0.000064  1.570786 -0.570537 0.000034
14  9.515599 -0.000041 0.000137  -1.546479 1.570779 0.023932
15  -3.069530 -5.375352 -1.247965  1.890764 -0.044210 -0.232814
16  -1.926693 -4.406299 -0.830523  0.101916 -0.215387 3.086150
17  -2.003345 -2.793847 0.843806  -0.368587 -0.236400 -0.331575
18  -0.000001 -1.876135 0.000003  0.557421 -0.000000 -0.000001
19  0.000002 -1.790058 0.000005  -0.421934 0.000001 0.000005
20  -0.881902 -6.752482 0.726289  1.459273 1.319384 1.138656
21  -0.000012 -1.805651 -0.000005  0.541748 -0.000005 -0.000008
22  0.000001 -1.450481 0.000010  0.066098 -0.000004 -0.000001
23  -0.824376 -6.336894 -0.761855  -1.219353 1.804764 -1.498369
24  0.000015 -2.535219 0.000005  0.639658 -0.000003 0.000003
25  0.000001 -1.716929 -0.000001  0.101424 -0.000003 -0.000003
26  -0.845581 -5.818760 -2.087521  -1.015039 1.832502 -1.313769
27  0.000006 -2.022125 -0.000004  0.483602 -0.000004 -0.000001
28  0.000002 -1.507429 0.000016  0.242436 -0.000003 0.000001
29  -1.037440 -5.336205 -3.159989  -1.037695 1.981706 -1.307928
30  -0.000003 -1.718012 -0.000004  0.512750 -0.000004 -0.000005
31  0.000001 -1.198548 0.000001  0.315975 0.000001 -0.000002
32  4.757792 -0.000019 0.000068  -1.555212 1.570778 0.015072
33  -1.452850 -2.069724 -2.738741  0.112678 0.483331 1.252127
34  -0.000061 7.952573 -0.000001  1.442238 -0.172899 0.516404
35  13.116808 0.000095 -0.000034  -0.000006 0.000006 -0.570528
36  9.515556 -0.000052 -0.000021  -0.102089 -1.570808 -1.471495
37  2.667749 5.470645 1.229653  -1.250810 -0.044012 -0.233352
38  -0.000647 -0.000002 1.136386  -1.570811 0.000569 3.119354
39  -0.001291 -0.000003 2.268633  0.000000 -0.000835 -0.000001
40  -0.002201 -0.000006 3.869490  0.000000 -0.000835 -0.000001
41  -0.003353 -0.000009 5.895085  -0.000002 -0.000709 -0.000001
42  1.926680 4.406320 0.830491  -0.101919 0.215440 -0.055447
43  2.003302 2.793904 -0.843828  -0.368585 -0.236387 -0.331569
44  0.000064 1.876147 -0.000028  0.557409 -0.000009 -0.000012
45  -0.000092 1.789986 0.000017  -0.421927 0.000017 -0.000000
46  0.881908 6.752505 -0.726302  1.459004 1.319383 1.138373
47  0.000011 1.805607 -0.000054  0.541744 0.000087 -0.000004
48  -0.000007 1.450536 -0.000014  0.066092 -0.000008 0.000001
49  0.824366 6.336913 0.761843  -1.219079 1.804789 -1.498089
50  0.000009 2.535248 -0.000030  0.639663 -0.000053 0.000001
51  0.000003 1.716930 0.000054  0.101418 -0.000000 -0.000002
52  0.845569 5.818790 2.087505  -1.014883 1.832522 -1.313616
53  0.000003 2.022070 0.000002  0.483598 -0.000027 0.000001
54  -0.000008 1.507477 -0.000007  0.242429 -0.000009 0.000001
55  1.037428 5.336278 3.159977  -1.037637 1.981714 -1.307870
56  -0.000014 1.717978 0.000053  0.512740 -0.000013 -0.000006
57  -0.000005 1.198527 0.000039  0.315990 0.000012 0.000003
58  4.757785 -0.000025 -0.000011  0.137587 -1.570823 -1.707276
59  -3.119635 -3.114932 -6.150897  2.949875 0.278418 -0.007912
60  5.590433 -4.522706 2.920568  -2.819564 0.576632 0.705863
61  -0.000319 -12.457982 0.000080  -0.863046 -0.000000 -0.000022
62  4.234445 2.989226 0.154708  -0.184785 -2.799567 -1.672911
63  20.518003 0.000031 -0.000039  0.000002 0.266510 0.000010
64  19.840830 -0.000150 -0.000012  -1.107809 0.078741 1.457158
65  -0.000034 -5.639816 0.000161  -0.761771 0.000001 -0.000002
66  -4.234440 2.989269 0.154722  1.755578 -0.342023 1.672913
67  20.517969 0.000078 -0.000016  1.570805 0.000028 0.266513
68  19.840820 0.000575 0.000014  2.033753 -0.078729 1.684460
69  0.000001 5.639821 -0.000001  -0.761744 0.000007 -0.000002
70  2.704334 -2.604620 3.873852  -0.548675 -0.522207 -2.699622
71  0.000000 0.000006 -0.000000  0.000000 -0.000000 0.000000
72  0.000000 0.000006 -0.000000  0.000000 -0.000000 0.000000
73  0.000000 0.000006 -0.000000  0.000000 -0.000000 0.000000
74  0.000000 0.000006 -0.000000  0.000000 -0.000000 0.000000
75  0.000000 0.000006 -0.000000  0.000000 -0.000000 0.000000
76  0.000000 0.000006 -0.000000  0.000000 -0.000000 0.000000
77  0.000000 0.000006 -0.000000  0.000000 -0.000000 0.000000
end
triangles
scout_red
0  -0.003751 -4.757734 66.627441  -0.069687 0.997501 0.011671  0.991514 0.167638 1 10 1.000000
0  0.000021 -4.992262 66.760925  -0.282802 0.006038 0.959159  0.992837 0.164831 1 10 1.000000
0  0.580235 -4.455505 66.685661  0.506555 -0.064648 0.859780  0.993400 0.176530 1 10 1.000000
scout_red
0  0.727914 -3.748508 66.434914  0.365310 -0.317450 0.875085  0.989561 0.188291 1 10 1.000000
0  1.385237 -3.185077 66.654961  0.696358 -0.039854 -0.716587  0.991956 0.209082 2 10 0.700000 9 0.300000
0  1.317959 -3.207740 66.880211  0.108033 -0.668008 0.736270  0.990641 0.209002 2 10 0.700000 9 0.300000
scout_red
0  0.727914 -3.748508 66.434914  0.365310 -0.317450 0.875085  0.989561 0.188291 1 10 1.000000
0  0.711823 -3.870833 66.258644  0.524882 -0.314192 -0.791064  0.990864 0.187684 1 10 1.000000
0  1.385237 -3.185077 66.654961  0.696358 -0.039854 -0.716587  0.991956 0.209082 2 10 0.700000 9 0.300000
scout_red
0  0.580235 -4.455505 66.685661  0.506555 -0.064648 0.859780  0.988831 0.176158 1 10 1.000000
0  0.711823 -3.870833 66.258644  0.524882 -0.314192 -0.791064  0.990864 0.187684 1 10 1.000000
0  0.727914 -3.748508 66.434914  0.365310 -0.317450 0.875085  0.989561 0.188291 1 10 1.000000
scout_red
0  0.580235 -4.455505 66.685661  0.506555 -0.064648 0.859780  0.988831 0.176158 1 10 1.000000
0  0.562139 -4.527364 66.488823  0.376613 -0.458208 -0.805113  0.990145 0.176055 1 10 1.000000
0  0.711823 -3.870833 66.258644  0.524882 -0.314192 -0.791064  0.990864 0.187684 1 10 1.000000
scout_red
0  0.000021 -4.992262 66.760925  -0.282802 0.006038 0.959159  0.988100 0.164026 1 10 1.000000
0  0.562139 -4.527364 66.488823  0.376613 -0.458208 -0.805113  0.990145 0.176055 1 10 1.000000
0  0.580235 -4.455505 66.685661  0.506555 -0.064648 0.859780  0.988831 0.176158 1 10 1.000000
scout_red
0  0.000021 -4.992262 66.760925  -0.282802 0.006038 0.959159  0.988100 0.164026 1 10 1.000000
0  -0.019530 -5.076716 66.572067  0.156750 -0.694938 -0.701776  0.989427 0.164426 1 10 1.000000
0  0.562139 -4.527364 66.488823  0.376613 -0.458208 -0.805113  0.990145 0.176055 1 10 1.000000
scout_red
0  0.562139 -4.527364 66.488823  0.376613 -0.458208 -0.805113  0.990145 0.176055 1 10 1.000000
0  -0.019530 -5.076716 66.572067  0.156750 -0.694938 -0.701776  0.989427 0.164426 1 10 1.000000
0  -0.003751 -4.757734 66.627441  -0.069687 0.997501 0.011671  0.991514 0.167638 1 10 1.000000
scout_red
0  0.562139 -4.527364 66.488823  0.376613 -0.458208 -0.805113  0.990145 0.176055 1 10 1.000000
0  -0.003751 -4.757734 66.627441  -0.069687 0.997501 0.011671  0.991514 0.167638 1 10 1.000000
0  0.422334 -4.304850 66.606308  -0.860259 0.502189 0.088089  0.992062 0.178496 1 10 1.000000
scout_red
0  -0.003751 -4.757734 66.627441  -0.069687 0.997501 0.011671  0.991514 0.167638 1 10 1.000000
0  0.580235 -4.455505 66.685661  0.506555 -0.064648 0.859780  0.993400 0.176530 1 10 1.000000
0  0.422334 -4.304850 66.606308  -0.860259 0.502189 0.088089  0.992062 0.178496 1 10 1.000000
scout_red
0  0.422334 -4.304850 66.606308  -0.860259 0.502189 0.088089  0.992062 0.178496 1 10 1.000000
0  0.580235 -4.455505 66.685661  0.506555 -0.064648 0.859780  0.993400 0.176530 1 10 1.000000
0  0.727914 -3.748508 66.434914  0.365310 -0.317450 0.875085  0.993963 0.188230 1 10 1.000000
scout_red
0  0.422334 -4.304850 66.606308  -0.860259 0.502189 0.088089  0.992062 0.178496 1 10 1.000000
0  0.727914 -3.748508 66.434914  0.365310 -0.317450 0.875085  0.993963 0.188230 1 10 1.000000
0  0.564122 -3.657033 66.345673  -0.880549 0.450123 0.148401  0.992610 0.189354 1 10 1.000000
scout_red
0  1.202115 -3.085941 66.833344  -0.840681 0.527348 0.123124  0.993522 0.209054 2 10 0.700000 9 0.300000
0  0.564122 -3.657033 66.345673  -0.880549 0.450123 0.148401  0.992610 0.189354 1 10 1.000000
0  0.727914 -3.748508 66.434914  0.365310 -0.317450 0.875085  0.993963 0.188230 1 10 1.000000
scout_red
0  1.385237 -3.185077 66.654961  0.696358 -0.039854 -0.716587  0.991956 0.209082 2 10 0.700000 9 0.300000
0  0.564122 -3.657033 66.345673  -0.880549 0.450123 0.148401  0.992610 0.189354 1 10 1.000000
0  1.202115 -3.085941 66.833344  -0.840681 0.527348 0.123124  0.993522 0.209054 2 10 0.700000 9 0.300000
scout_red
0  2.294007 -1.776526 67.804298  0.692747 0.211007 -0.689621  0.993205 0.244479 2 9 0.900000 8 0.100000
0  1.385237 -3.185077 66.654961  0.696358 -0.039854 -0.716587  0.991956 0.209082 2 10 0.700000 9 0.300000
0  1.202115 -3.085941 66.833344  -0.840681 0.527348 0.123124  0.993522 0.209054 2 10 0.700000 9 0.300000
scout_red
0  1.317959 -3.207740 66.880211  0.108033 -0.668008 0.736270  0.990641 0.209002 2 10 0.700000 9 0.300000
0  1.385237 -3.185077 66.654961  0.696358 -0.039854 -0.716587  0.991956 0.209082 2 10 0.700000 9 0.300000
0  2.294007 -1.776526 67.804298  0.692747 0.211007 -0.689621  0.993205 0.244479 2 9 0.900000 8 0.100000
scout_red
0  1.317959 -3.207740 66.880211  0.108033 -0.668008 0.736270  0.990641 0.209002 2 10 0.700000 9 0.300000
0  2.294007 -1.776526 67.804298  0.692747 0.211007 -0.689621  0.993205 0.244479 2 9 0.900000 8 0.100000
0  2.196234 -1.883093 67.991455  0.207024 -0.688468 0.695092  0.991781 0.243784 2 9 0.900000 8 0.100000
scout_red
0  2.863062 -0.172936 69.422714  0.236981 -0.635192 0.735099  0.992861 0.283406 1 8 1.000000
0  2.196234 -1.883093 67.991455  0.207024 -0.688468 0.695092  0.991781 0.243784 2 9 0.900000 8 0.100000
0  2.294007 -1.776526 67.804298  0.692747 0.211007 -0.689621  0.993205 0.244479 2 9 0.900000 8 0.100000
scout_red
0  2.863062 -0.172936 69.422714  0.236981 -0.635192 0.735099  0.992861 0.283406 1 8 1.000000
0  2.294007 -1.776526 67.804298  0.692747 0.211007 -0.689621  0.993205 0.244479 2 9 0.900000 8 0.100000
0  2.980473 -0.043982 69.247063  0.713556 0.363140 -0.599139  0.994159 0.283602 1 8 1.000000
scout_red
0  1.385237 -3.185077 66.654961  0.696358 -0.039854 -0.716587  0.991956 0.209082 2 10 0.700000 9 0.300000
0  0.711823 -3.870833 66.258644  0.524882 -0.314192 -0.791064  0.990864 0.187684 1 10 1.000000
0  0.564122 -3.657033 66.345673  -0.880549 0.450123 0.148401  0.992610 0.189354 1 10 1.000000
scout_red
0  0.711823 -3.870833 66.258644  0.524882 -0.314192 -0.791064  0.990864 0.187684 1 10 1.000000
0  0.422334 -4.304850 66.606308  -0.860259 0.502189 0.088089  0.992062 0.178496 1 10 1.000000
0  0.564122 -3.657033 66.345673  -0.880549 0.450123 0.148401  0.992610 0.189354 1 10 1.000000
scout_red
0  0.711823 -3.870833 66.258644  0.524882 -0.314192 -0.791064  0.990864 0.187684 1 10 1.000000
0  0.562139 -4.527364 66.488823  0.376613 -0.458208 -0.805113  0.990145 0.176055 1 10 1.000000
0  0.422334 -4.304850 66.606308  -0.860259 0.502189 0.088089  0.992062 0.178496 1 10 1.000000
scout_red
0  2.688156 0.929900 70.162025  -0.972547 -0.127303 -0.194799  0.994017 0.306873 1 8 1.000000
0  2.863062 -0.172936 69.422714  0.236981 -0.635192 0.735099  0.996699 0.286836 1 8 1.000000
0  2.822907 0.987197 70.334343  0.261977 -0.536329 0.802321  0.994885 0.311830 1 8 1.000000
scout_red
0  2.688156 0.929900 70.162025  -0.972547 -0.127303 -0.194799  0.994017 0.306873 1 8 1.000000
0  2.717346 -0.092069 69.358971  -0.987276 0.158801 0.008261  0.995555 0.284516 1 8 1.000000
0  2.863062 -0.172936 69.422714  0.236981 -0.635192 0.735099  0.996699 0.286836 1 8 1.000000
scout_red
0  2.980473 -0.043982 69.247063  0.713556 0.363140 -0.599139  0.994159 0.283602 1 8 1.000000
0  2.717346 -0.092069 69.358971  -0.987276 0.158801 0.008261  0.995555 0.284516 1 8 1.000000
0  2.688156 0.929900 70.162025  -0.972547 -0.127303 -0.194799  0.994017 0.306873 1 8 1.000000
scout_red
0  2.294007 -1.776526 67.804298  0.692747 0.211007 -0.689621  0.993205 0.244479 2 9 0.900000 8 0.100000
0  2.717346 -0.092069 69.358971  -0.987276 0.158801 0.008261  0.995555 0.284516 1 8 1.000000
0  2.980473 -0.043982 69.247063  0.713556 0.363140 -0.599139  0.994159 0.283602 1 8 1.000000
scout_red
0  2.294007 -1.776526 67.804298  0.692747 0.211007 -0.689621  0.993205 0.244479 2 9 0.900000 8 0.100000
0  2.057195 -1.759746 67.955948  -0.923258 0.360332 0.133247  0.994778 0.244081 2 9 0.900000 8 0.100000
0  2.717346 -0.092069 69.358971  -0.987276 0.158801 0.008261  0.995555 0.284516 1 8 1.000000
scout_red
0  2.294007 -1.776526 67.804298  0.692747 0.211007 -0.689621  0.993205 0.244479 2 9 0.900000 8 0.100000
0  1.202115 -3.085941 66.833344  -0.840681 0.527348 0.123124  0.993522 0.209054 2 10 0.700000 9 0.300000
0  2.057195 -1.759746 67.955948  -0.923258 0.360332 0.133247  0.994778 0.244081 2 9 0.900000 8 0.100000
scout_red
0  1.202115 -3.085941 66.833344  -0.840681 0.527348 0.123124  0.993522 0.209054 2 10 0.700000 9 0.300000
0  2.196234 -1.883093 67.991455  0.207024 -0.688468 0.695092  0.996022 0.243959 2 9 0.900000 8 0.100000
0  2.057195 -1.759746 67.955948  -0.923258 0.360332 0.133247  0.994778 0.244081 2 9 0.900000 8 0.100000
scout_red
0  1.202115 -3.085941 66.833344  -0.840681 0.527348 0.123124  0.993522 0.209054 2 10 0.700000 9 0.300000
0  1.317959 -3.207740 66.880211  0.108033 -0.668008 0.736270  0.994829 0.208541 2 10 0.700000 9 0.300000
0  2.196234 -1.883093 67.991455  0.207024 -0.688468 0.695092  0.996022 0.243959 2 9 0.900000 8 0.100000
scout_red
0  1.202115 -3.085941 66.833344  -0.840681 0.527348 0.123124  0.993522 0.209054 2 10 0.700000 9 0.300000
0  0.727914 -3.748508 66.434914  0.365310 -0.317450 0.875085  0.993963 0.188230 1 10 1.000000
0  1.317959 -3.207740 66.880211  0.108033 -0.668008 0.736270  0.994829 0.208541 2 10 0.700000 9 0.300000
scout_red
0  2.057195 -1.759746 67.955948  -0.923258 0.360332 0.133247  0.994778 0.244081 2 9 0.900000 8 0.100000
0  2.863062 -0.172936 69.422714  0.236981 -0.635192 0.735099  0.996699 0.286836 1 8 1.000000
0  2.717346 -0.092069 69.358971  -0.987276 0.158801 0.008261  0.995555 0.284516 1 8 1.000000
scout_red
0  2.057195 -1.759746 67.955948  -0.923258 0.360332 0.133247  0.994778 0.244081 2 9 0.900000 8 0.100000
0  2.196234 -1.883093 67.991455  0.207024 -0.688468 0.695092  0.996022 0.243959 2 9 0.900000 8 0.100000
0  2.863062 -0.172936 69.422714  0.236981 -0.635192 0.735099  0.996699 0.286836 1 8 1.000000
scout_red
0  2.863062 -0.172936 69.422714  0.236981 -0.635192 0.735099  0.992861 0.283406 1 8 1.000000
0  2.980473 -0.043982 69.247063  0.713556 0.363140 -0.599139  0.994159 0.283602 1 8 1.000000
0  2.927075 1.099346 70.145470  0.679504 0.579399 -0.450079  0.992616 0.306086 1 8 1.000000
scout_red
0  2.980473 -0.043982 69.247063  0.713556 0.363140 -0.599139  0.994159 0.283602 1 8 1.000000
0  2.688156 0.929900 70.162025  -0.972547 -0.127303 -0.194799  0.994017 0.306873 1 8 1.000000
0  2.927075 1.099346 70.145470  0.679504 0.579399 -0.450079  0.992616 0.306086 1 8 1.000000
scout_red
0  2.252216 1.679960 70.751419  -0.815605 -0.408321 -0.409954  0.992132 0.330626 1 8 1.000000
0  2.927075 1.099346 70.145470  0.679504 0.579399 -0.450079  0.992616 0.306086 1 8 1.000000
0  2.688156 0.929900 70.162025  -0.972547 -0.127303 -0.194799  0.994017 0.306873 1 8 1.000000
scout_red
0  2.822907 0.987197 70.334343  0.261977 -0.536329 0.802321  0.994885 0.311830 1 8 1.000000
0  2.252216 1.679960 70.751419  -0.815605 -0.408321 -0.409954  0.992132 0.330626 1 8 1.000000
0  2.688156 0.929900 70.162025  -0.972547 -0.127303 -0.194799  0.994017 0.306873 1 8 1.000000
scout_red
0  2.822907 0.987197 70.334343  0.261977 -0.536329 0.802321  0.994885 0.311830 1 8 1.000000
0  2.398138 1.662344 70.864868  0.232602 -0.470314 0.851294  0.993225 0.330849 1 8 1.000000
0  2.252216 1.679960 70.751419  -0.815605 -0.408321 -0.409954  0.992132 0.330626 1 8 1.000000
scout_red
0  2.252216 1.679960 70.751419  -0.815605 -0.408321 -0.409954  0.992132 0.330626 1 8 1.000000
0  2.398138 1.662344 70.864868  0.232602 -0.470314 0.851294  0.993225 0.330849 1 8 1.000000
0  1.574712 2.326071 71.386414  0.129822 -0.431635 0.892657  0.991480 0.353425 1 8 1.000000
scout_red
0  2.252216 1.679960 70.751419  -0.815605 -0.408321 -0.409954  0.992132 0.330626 1 8 1.000000
0  1.574712 2.326071 71.386414  0.129822 -0.431635 0.892657  0.991480 0.353425 1 8 1.000000
0  1.498675 2.273978 71.218193  -0.524270 -0.615652 -0.588314  0.990429 0.351808 1 8 1.000000
scout_red
0  0.000000 2.639366 71.505318  0.025208 -0.732761 -0.680019  0.986549 0.380347 1 8 1.000000
0  1.498675 2.273978 71.218193  -0.524270 -0.615652 -0.588314  0.990429 0.351808 1 8 1.000000
0  1.574712 2.326071 71.386414  0.129822 -0.431635 0.892657  0.991480 0.353425 1 8 1.000000
scout_red
0  1.627089 2.542400 71.279419  0.375805 0.911571 -0.166760  0.989301 0.348539 1 8 1.000000
0  1.498675 2.273978 71.218193  -0.524270 -0.615652 -0.588314  0.990429 0.351808 1 8 1.000000
0  0.000000 2.639366 71.505318  0.025208 -0.732761 -0.680019  0.986549 0.380347 1 8 1.000000
scout_red
0  1.627089 2.542400 71.279419  0.375805 0.911571 -0.166760  0.989301 0.348539 1 8 1.000000
0  0.000000 2.639366 71.505318  0.025208 -0.732761 -0.680019  0.986549 0.380347 1 8 1.000000
0  0.000000 2.943138 71.594315  -0.016346 0.994592 -0.102568  0.985030 0.378217 1 8 1.000000
scout_red
0  0.000000 2.710656 71.688622  -0.005417 -0.405945 0.913882  0.984097 0.376662 1 8 1.000000
0  1.627089 2.542400 71.279419  0.375805 0.911571 -0.166760  0.989301 0.348539 1 8 1.000000
0  0.000000 2.943138 71.594315  -0.016346 0.994592 -0.102568  0.985030 0.378217 1 8 1.000000
scout_red
0  0.000000 2.710656 71.688622  -0.005417 -0.405945 0.913882  0.984097 0.376662 1 8 1.000000
0  0.000000 2.943138 71.594315  -0.016346 0.994592 -0.102568  0.985030 0.378217 1 8 1.000000
0  -1.397230 2.541601 71.278793  -0.331301 0.933417 -0.137740  0.985442 0.415271 1 8 1.000000
scout_red
0  0.000000 2.710656 71.688622  -0.005417 -0.405945 0.913882  0.984097 0.376662 1 8 1.000000
0  -1.397230 2.541601 71.278793  -0.331301 0.933417 -0.137740  0.985442 0.415271 1 8 1.000000
0  -1.350060 2.325274 71.385796  -0.115161 -0.420940 0.899749  0.984137 0.414818 1 8 1.000000
scout_red
0  -1.350060 2.325274 71.385796  -0.115161 -0.420940 0.899749  0.984137 0.414818 1 8 1.000000
0  -1.397230 2.541601 71.278793  -0.331301 0.933417 -0.137740  0.985442 0.415271 1 8 1.000000
0  -2.684731 1.859276 70.742622  -0.561873 0.751597 -0.345544  0.985607 0.439720 1 8 1.000000
scout_red
0  -1.350060 2.325274 71.385796  -0.115161 -0.420940 0.899749  0.984137 0.414818 1 8 1.000000
0  -2.684731 1.859276 70.742622  -0.561873 0.751597 -0.345544  0.985607 0.439720 1 8 1.000000
0  -2.617367 1.653826 70.858170  -0.257311 -0.469764 0.844460  0.984420 0.440174 1 8 1.000000
scout_red
0  -2.844033 1.014194 70.355553  -0.327359 -0.542244 0.773826  0.985079 0.457653 1 8 1.000000
0  -2.617367 1.653826 70.858170  -0.257311 -0.469764 0.844460  0.984420 0.440174 1 8 1.000000
0  -2.684731 1.859276 70.742622  -0.561873 0.751597 -0.345544  0.985607 0.439720 1 8 1.000000
scout_red
0  -2.844033 1.014194 70.355553  -0.327359 -0.542244 0.773826  0.985079 0.457653 1 8 1.000000
0  -2.684731 1.859276 70.742622  -0.561873 0.751597 -0.345544  0.985607 0.439720 1 8 1.000000
0  -2.927075 1.082406 70.132164  -0.680926 0.526870 -0.508673  0.986340 0.459706 1 8 1.000000
scout_red
0  -2.860421 -0.159405 69.433350  -0.254413 -0.628302 0.735194  0.986744 0.482671 1 8 1.000000
0  -2.844033 1.014194 70.355553  -0.327359 -0.542244 0.773826  0.985079 0.457653 1 8 1.000000
0  -2.927075 1.082406 70.132164  -0.680926 0.526870 -0.508673  0.986340 0.459706 1 8 1.000000
scout_red
0  0.000000 2.639366 71.505318  0.025208 -0.732761 -0.680019  0.986549 0.380347 1 8 1.000000
0  0.000000 2.710656 71.688622  -0.005417 -0.405945 0.913882  0.987626 0.380555 1 8 1.000000
0  -1.350060 2.325274 71.385796  -0.115161 -0.420940 0.899749  0.988007 0.415951 1 8 1.000000
scout_red
0  0.000000 2.639366 71.505318  0.025208 -0.732761 -0.680019  0.986549 0.380347 1 8 1.000000
0  1.574712 2.326071 71.386414  0.129822 -0.431635 0.892657  0.991480 0.353425 1 8 1.000000
0  0.000000 2.710656 71.688622  -0.005417 -0.405945 0.913882  0.987626 0.380555 1 8 1.000000
scout_red
0  0.000000 2.710656 71.688622  -0.005417 -0.405945 0.913882  0.984097 0.376662 1 8 1.000000
0  1.574712 2.326071 71.386414  0.129822 -0.431635 0.892657  0.988293 0.346978 1 8 1.000000
0  1.627089 2.542400 71.279419  0.375805 0.911571 -0.166760  0.989301 0.348539 1 8 1.000000
scout_red
0  1.574712 2.326071 71.386414  0.129822 -0.431635 0.892657  0.988293 0.346978 1 8 1.000000
0  2.480877 1.854014 70.738487  0.580972 0.754455 -0.305401  0.991059 0.326099 1 8 1.000000
0  1.627089 2.542400 71.279419  0.375805 0.911571 -0.166760  0.989301 0.348539 1 8 1.000000
scout_red
0  2.480877 1.854014 70.738487  0.580972 0.754455 -0.305401  0.991059 0.326099 1 8 1.000000
0  1.498675 2.273978 71.218193  -0.524270 -0.615652 -0.588314  0.990429 0.351808 1 8 1.000000
0  1.627089 2.542400 71.279419  0.375805 0.911571 -0.166760  0.989301 0.348539 1 8 1.000000
scout_red
0  2.480877 1.854014 70.738487  0.580972 0.754455 -0.305401  0.991059 0.326099 1 8 1.000000
0  2.252216 1.679960 70.751419  -0.815605 -0.408321 -0.409954  0.992132 0.330626 1 8 1.000000
0  1.498675 2.273978 71.218193  -0.524270 -0.615652 -0.588314  0.990429 0.351808 1 8 1.000000
scout_red
0  2.252216 1.679960 70.751419  -0.815605 -0.408321 -0.409954  0.992132 0.330626 1 8 1.000000
0  2.480877 1.854014 70.738487  0.580972 0.754455 -0.305401  0.991059 0.326099 1 8 1.000000
0  2.927075 1.099346 70.145470  0.679504 0.579399 -0.450079  0.992616 0.306086 1 8 1.000000
scout_red
0  2.480877 1.854014 70.738487  0.580972 0.754455 -0.305401  0.991059 0.326099 1 8 1.000000
0  2.822907 0.987197 70.334343  0.261977 -0.536329 0.802321  0.991242 0.305508 1 8 1.000000
0  2.927075 1.099346 70.145470  0.679504 0.579399 -0.450079  0.992616 0.306086 1 8 1.000000
scout_red
0  2.863062 -0.172936 69.422714  0.236981 -0.635192 0.735099  0.992861 0.283406 1 8 1.000000
0  2.927075 1.099346 70.145470  0.679504 0.579399 -0.450079  0.992616 0.306086 1 8 1.000000
0  2.822907 0.987197 70.334343  0.261977 -0.536329 0.802321  0.991242 0.305508 1 8 1.000000
scout_red
0  2.480877 1.854014 70.738487  0.580972 0.754455 -0.305401  0.991059 0.326099 1 8 1.000000
0  2.398138 1.662344 70.864868  0.232602 -0.470314 0.851294  0.989964 0.324696 1 8 1.000000
0  2.822907 0.987197 70.334343  0.261977 -0.536329 0.802321  0.991242 0.305508 1 8 1.000000
scout_red
0  1.574712 2.326071 71.386414  0.129822 -0.431635 0.892657  0.988293 0.346978 1 8 1.000000
0  2.398138 1.662344 70.864868  0.232602 -0.470314 0.851294  0.989964 0.324696 1 8 1.000000
0  2.480877 1.854014 70.738487  0.580972 0.754455 -0.305401  0.991059 0.326099 1 8 1.000000
scout_red
0  -2.977680 -0.031384 69.256958  -0.706934 0.349520 -0.614882  0.987936 0.482925 1 8 1.000000
0  -2.680335 0.911865 70.147858  0.990191 -0.071493 -0.120046  0.987870 0.459868 1 8 1.000000
0  -2.714725 -0.078413 69.369698  0.985015 0.170757 0.024227  0.989187 0.482425 1 8 1.000000
scout_red
0  -2.977680 -0.031384 69.256958  -0.706934 0.349520 -0.614882  0.987936 0.482925 1 8 1.000000
0  -2.927075 1.082406 70.132164  -0.680926 0.526870 -0.508673  0.986340 0.459706 1 8 1.000000
0  -2.680335 0.911865 70.147858  0.990191 -0.071493 -0.120046  0.987870 0.459868 1 8 1.000000
scout_red
0  -2.927075 1.082406 70.132164  -0.680926 0.526870 -0.508673  0.986340 0.459706 1 8 1.000000
0  -2.432856 1.677897 70.749794  0.798394 -0.433102 -0.418317  0.987193 0.438783 1 8 1.000000
0  -2.680335 0.911865 70.147858  0.990191 -0.071493 -0.120046  0.987870 0.459868 1 8 1.000000
scout_red
0  -2.927075 1.082406 70.132164  -0.680926 0.526870 -0.508673  0.986340 0.459706 1 8 1.000000
0  -2.684731 1.859276 70.742622  -0.561873 0.751597 -0.345544  0.985607 0.439720 1 8 1.000000
0  -2.432856 1.677897 70.749794  0.798394 -0.433102 -0.418317  0.987193 0.438783 1 8 1.000000
scout_red
0  -1.397230 2.541601 71.278793  -0.331301 0.933417 -0.137740  0.985442 0.415271 1 8 1.000000
0  -2.432856 1.677897 70.749794  0.798394 -0.433102 -0.418317  0.987193 0.438783 1 8 1.000000
0  -2.684731 1.859276 70.742622  -0.561873 0.751597 -0.345544  0.985607 0.439720 1 8 1.000000
scout_red
0  -1.397230 2.541601 71.278793  -0.331301 0.933417 -0.137740  0.985442 0.415271 1 8 1.000000
0  -1.281644 2.273185 71.217567  0.452138 -0.648351 -0.612545  0.986954 0.415574 1 8 1.000000
0  -2.432856 1.677897 70.749794  0.798394 -0.433102 -0.418317  0.987193 0.438783 1 8 1.000000
scout_red
0  -2.714725 -0.078413 69.369698  0.985015 0.170757 0.024227  0.989187 0.482425 1 8 1.000000
0  -2.860421 -0.159405 69.433350  -0.254413 -0.628302 0.735194  0.990144 0.481096 1 8 1.000000
0  -2.131762 -1.859839 68.063576  -0.187457 -0.677360 0.711367  0.991079 0.521836 2 9 0.900000 8 0.100000
scout_red
0  -2.680335 0.911865 70.147858  0.990191 -0.071493 -0.120046  0.987870 0.459868 1 8 1.000000
0  -2.860421 -0.159405 69.433350  -0.254413 -0.628302 0.735194  0.990144 0.481096 1 8 1.000000
0  -2.714725 -0.078413 69.369698  0.985015 0.170757 0.024227  0.989187 0.482425 1 8 1.000000
scout_red
0  -2.680335 0.911865 70.147858  0.990191 -0.071493 -0.120046  0.987870 0.459868 1 8 1.000000
0  -2.844033 1.014194 70.355553  -0.327359 -0.542244 0.773826  0.988954 0.455514 1 8 1.000000
0  -2.860421 -0.159405 69.433350  -0.254413 -0.628302 0.735194  0.990144 0.481096 1 8 1.000000
scout_red
0  -2.432856 1.677897 70.749794  0.798394 -0.433102 -0.418317  0.987193 0.438783 1 8 1.000000
0  -2.844033 1.014194 70.355553  -0.327359 -0.542244 0.773826  0.988954 0.455514 1 8 1.000000
0  -2.680335 0.911865 70.147858  0.990191 -0.071493 -0.120046  0.987870 0.459868 1 8 1.000000
scout_red
0  -2.432856 1.677897 70.749794  0.798394 -0.433102 -0.418317  0.987193 0.438783 1 8 1.000000
0  -2.617367 1.653826 70.858170  -0.257311 -0.469764 0.844460  0.988437 0.439987 1 8 1.000000
0  -2.844033 1.014194 70.355553  -0.327359 -0.542244 0.773826  0.988954 0.455514 1 8 1.000000
scout_red
0  -2.432856 1.677897 70.749794  0.798394 -0.433102 -0.418317  0.987193 0.438783 1 8 1.000000
0  -1.350060 2.325274 71.385796  -0.115161 -0.420940 0.899749  0.988007 0.415951 1 8 1.000000
0  -2.617367 1.653826 70.858170  -0.257311 -0.469764 0.844460  0.988437 0.439987 1 8 1.000000
scout_red
0  -2.432856 1.677897 70.749794  0.798394 -0.433102 -0.418317  0.987193 0.438783 1 8 1.000000
0  -1.281644 2.273185 71.217567  0.452138 -0.648351 -0.612545  0.986954 0.415574 1 8 1.000000
0  -1.350060 2.325274 71.385796  -0.115161 -0.420940 0.899749  0.988007 0.415951 1 8 1.000000
scout_red
0  0.000000 2.639366 71.505318  0.025208 -0.732761 -0.680019  0.986549 0.380347 1 8 1.000000
0  -1.350060 2.325274 71.385796  -0.115161 -0.420940 0.899749  0.988007 0.415951 1 8 1.000000
0  -1.281644 2.273185 71.217567  0.452138 -0.648351 -0.612545  0.986954 0.415574 1 8 1.000000
scout_red
0  -1.397230 2.541601 71.278793  -0.331301 0.933417 -0.137740  0.985442 0.415271 1 8 1.000000
0  0.000000 2.639366 71.505318  0.025208 -0.732761 -0.680019  0.986549 0.380347 1 8 1.000000
0  -1.281644 2.273185 71.217567  0.452138 -0.648351 -0.612545  0.986954 0.415574 1 8 1.000000
scout_red
0  -1.397230 2.541601 71.278793  -0.331301 0.933417 -0.137740  0.985442 0.415271 1 8 1.000000
0  0.000000 2.943138 71.594315  -0.016346 0.994592 -0.102568  0.985030 0.378217 1 8 1.000000
0  0.000000 2.639366 71.505318  0.025208 -0.732761 -0.680019  0.986549 0.380347 1 8 1.000000
scout_red
0  -2.860421 -0.159405 69.433350  -0.254413 -0.628302 0.735194  0.986744 0.482671 1 8 1.000000
0  -2.927075 1.082406 70.132164  -0.680926 0.526870 -0.508673  0.986340 0.459706 1 8 1.000000
0  -2.977680 -0.031384 69.256958  -0.706934 0.349520 -0.614882  0.987936 0.482925 1 8 1.000000
scout_red
0  -2.860421 -0.159405 69.433350  -0.254413 -0.628302 0.735194  0.986744 0.482671 1 8 1.000000
0  -2.977680 -0.031384 69.256958  -0.706934 0.349520 -0.614882  0.987936 0.482925 1 8 1.000000
0  -2.236698 -1.751897 67.879974  -0.697816 0.176037 -0.694308  0.988694 0.521668 2 9 0.900000 8 0.100000
scout_red
0  -2.236698 -1.751897 67.879974  -0.697816 0.176037 -0.694308  0.988694 0.521668 2 9 0.900000 8 0.100000
0  -2.977680 -0.031384 69.256958  -0.706934 0.349520 -0.614882  0.987936 0.482925 1 8 1.000000
0  -2.714725 -0.078413 69.369698  0.985015 0.170757 0.024227  0.989187 0.482425 1 8 1.000000
scout_red
0  -2.236698 -1.751897 67.879974  -0.697816 0.176037 -0.694308  0.988694 0.521668 2 9 0.900000 8 0.100000
0  -2.714725 -0.078413 69.369698  0.985015 0.170757 0.024227  0.989187 0.482425 1 8 1.000000
0  -1.994211 -1.738383 68.023193  0.912391 0.388323 0.129412  0.990030 0.521400 2 9 0.900000 8 0.100000
scout_red
0  -2.714725 -0.078413 69.369698  0.985015 0.170757 0.024227  0.989187 0.482425 1 8 1.000000
0  -2.131762 -1.859839 68.063576  -0.187457 -0.677360 0.711367  0.991079 0.521836 2 9 0.900000 8 0.100000
0  -1.994211 -1.738383 68.023193  0.912391 0.388323 0.129412  0.990030 0.521400 2 9 0.900000 8 0.100000
scout_red
0  -1.994211 -1.738383 68.023193  0.912391 0.388323 0.129412  0.990030 0.521400 2 9 0.900000 8 0.100000
0  -2.131762 -1.859839 68.063576  -0.187457 -0.677360 0.711367  0.991079 0.521836 2 9 0.900000 8 0.100000
0  -1.232653 -3.165678 66.991875  -0.097475 -0.567867 0.817328  0.990953 0.558932 2 10 0.700000 9 0.300000
scout_red
0  -1.994211 -1.738383 68.023193  0.912391 0.388323 0.129412  0.990030 0.521400 2 9 0.900000 8 0.100000
0  -1.232653 -3.165678 66.991875  -0.097475 -0.567867 0.817328  0.990953 0.558932 2 10 0.700000 9 0.300000
0  -1.120233 -3.047778 66.934952  0.855830 0.517051 0.014613  0.990009 0.557786 2 10 0.700000 9 0.300000
scout_red
0  -1.120233 -3.047778 66.934952  0.855830 0.517051 0.014613  0.990009 0.557786 2 10 0.700000 9 0.300000
0  -1.232653 -3.165678 66.991875  -0.097475 -0.567867 0.817328  0.990953 0.558932 2 10 0.700000 9 0.300000
0  -0.309809 -4.556085 66.360931  -0.435835 -0.085828 0.895925  0.989417 0.595046 1 10 1.000000
scout_red
0  -1.120233 -3.047778 66.934952  0.855830 0.517051 0.014613  0.990009 0.557786 2 10 0.700000 9 0.300000
0  -0.309809 -4.556085 66.360931  -0.435835 -0.085828 0.895925  0.989417 0.595046 1 10 1.000000
0  -0.196507 -4.456296 66.218224  0.786141 0.616964 -0.036591  0.988608 0.593173 1 10 1.000000
scout_red
0  -0.003751 -4.757734 66.627441  -0.069687 0.997501 0.011671  0.988090 0.601684 1 10 1.000000
0  -0.196507 -4.456296 66.218224  0.786141 0.616964 -0.036591  0.988608 0.593173 1 10 1.000000
0  -0.309809 -4.556085 66.360931  -0.435835 -0.085828 0.895925  0.989417 0.595046 1 10 1.000000
scout_red
0  -0.393446 -4.643596 66.183052  -0.587204 -0.521363 -0.619170  0.987220 0.593891 1 10 1.000000
0  -0.196507 -4.456296 66.218224  0.786141 0.616964 -0.036591  0.988608 0.593173 1 10 1.000000
0  -0.003751 -4.757734 66.627441  -0.069687 0.997501 0.011671  0.988090 0.601684 1 10 1.000000
scout_red
0  -0.393446 -4.643596 66.183052  -0.587204 -0.521363 -0.619170  0.987220 0.593891 1 10 1.000000
0  -0.003751 -4.757734 66.627441  -0.069687 0.997501 0.011671  0.988090 0.601684 1 10 1.000000
0  -0.019530 -5.076716 66.572067  0.156750 -0.694938 -0.701776  0.986707 0.602836 1 10 1.000000
scout_red
0  -0.309809 -4.556085 66.360931  -0.435835 -0.085828 0.895925  0.985806 0.591914 1 10 1.000000
0  -0.393446 -4.643596 66.183052  -0.587204 -0.521363 -0.619170  0.987220 0.593891 1 10 1.000000
0  -0.019530 -5.076716 66.572067  0.156750 -0.694938 -0.701776  0.986707 0.602836 1 10 1.000000
scout_red
0  -0.309809 -4.556085 66.360931  -0.435835 -0.085828 0.895925  0.985806 0.591914 1 10 1.000000
0  -0.019530 -5.076716 66.572067  0.156750 -0.694938 -0.701776  0.986707 0.602836 1 10 1.000000
0  0.000021 -4.992262 66.760925  -0.282802 0.006038 0.959159  0.985641 0.601918 1 10 1.000000
scout_red
0  -0.003751 -4.757734 66.627441  -0.069687 0.997501 0.011671  0.988090 0.601684 1 10 1.000000
0  -0.309809 -4.556085 66.360931  -0.435835 -0.085828 0.895925  0.989417 0.595046 1 10 1.000000
0  0.000021 -4.992262 66.760925  -0.282802 0.006038 0.959159  0.989063 0.604372 1 10 1.000000
scout_red
0  -2.860421 -0.159405 69.433350  -0.254413 -0.628302 0.735194  0.986744 0.482671 1 8 1.000000
0  -2.236698 -1.751897 67.879974  -0.697816 0.176037 -0.694308  0.988694 0.521668 2 9 0.900000 8 0.100000
0  -2.131762 -1.859839 68.063576  -0.187457 -0.677360 0.711367  0.987416 0.521875 2 9 0.900000 8 0.100000
scout_red
0  -1.232653 -3.165678 66.991875  -0.097475 -0.567867 0.817328  0.987486 0.556895 2 10 0.700000 9 0.300000
0  -2.131762 -1.859839 68.063576  -0.187457 -0.677360 0.711367  0.987416 0.521875 2 9 0.900000 8 0.100000
0  -2.236698 -1.751897 67.879974  -0.697816 0.176037 -0.694308  0.988694 0.521668 2 9 0.900000 8 0.100000
scout_red
0  -1.232653 -3.165678 66.991875  -0.097475 -0.567867 0.817328  0.987486 0.556895 2 10 0.700000 9 0.300000
0  -2.236698 -1.751897 67.879974  -0.697816 0.176037 -0.694308  0.988694 0.521668 2 9 0.900000 8 0.100000
0  -1.320972 -3.140376 66.773468  -0.734740 -0.047095 -0.676712  0.988743 0.557773 2 10 0.700000 9 0.300000
scout_red
0  -0.309809 -4.556085 66.360931  -0.435835 -0.085828 0.895925  0.985806 0.591914 1 10 1.000000
0  -1.232653 -3.165678 66.991875  -0.097475 -0.567867 0.817328  0.987486 0.556895 2 10 0.700000 9 0.300000
0  -1.320972 -3.140376 66.773468  -0.734740 -0.047095 -0.676712  0.988743 0.557773 2 10 0.700000 9 0.300000
scout_red
0  -0.309809 -4.556085 66.360931  -0.435835 -0.085828 0.895925  0.985806 0.591914 1 10 1.000000
0  -1.320972 -3.140376 66.773468  -0.734740 -0.047095 -0.676712  0.988743 0.557773 2 10 0.700000 9 0.300000
0  -0.393446 -4.643596 66.183052  -0.587204 -0.521363 -0.619170  0.987220 0.593891 1 10 1.000000
scout_red
0  -1.320972 -3.140376 66.773468  -0.734740 -0.047095 -0.676712  0.988743 0.557773 2 10 0.700000 9 0.300000
0  -0.196507 -4.456296 66.218224  0.786141 0.616964 -0.036591  0.988608 0.593173 1 10 1.000000
0  -0.393446 -4.643596 66.183052  -0.587204 -0.521363 -0.619170  0.987220 0.593891 1 10 1.000000
scout_red
0  -1.320972 -3.140376 66.773468  -0.734740 -0.047095 -0.676712  0.988743 0.557773 2 10 0.700000 9 0.300000
0  -1.120233 -3.047778 66.934952  0.855830 0.517051 0.014613  0.990009 0.557786 2 10 0.700000 9 0.300000
0  -0.196507 -4.456296 66.218224  0.786141 0.616964 -0.036591  0.988608 0.593173 1 10 1.000000
scout_red
0  -2.236698 -1.751897 67.879974  -0.697816 0.176037 -0.694308  0.988694 0.521668 2 9 0.900000 8 0.100000
0  -1.120233 -3.047778 66.934952  0.855830 0.517051 0.014613  0.990009 0.557786 2 10 0.700000 9 0.300000
0  -1.320972 -3.140376 66.773468  -0.734740 -0.047095 -0.676712  0.988743 0.557773 2 10 0.700000 9 0.300000
scout_red
0  -2.236698 -1.751897 67.879974  -0.697816 0.176037 -0.694308  0.988694 0.521668 2 9 0.900000 8 0.100000
0  -1.994211 -1.738383 68.023193  0.912391 0.388323 0.129412  0.990030 0.521400 2 9 0.900000 8 0.100000
0  -1.120233 -3.047778 66.934952  0.855830 0.517051 0.014613  0.990009 0.557786 2 10 0.700000 9 0.300000
scout_red
0  0.590948 -4.829306 66.392784  0.861313 0.502607 0.074342  0.573664 0.995214 1 10 1.000000
0  0.632759 -4.948006 66.323265  0.981235 0.037170 -0.189199  0.575204 0.995205 1 10 1.000000
0  0.583375 -4.828964 66.090530  0.981235 0.037160 -0.189199  0.575199 0.982551 1 10 1.000000
scout_red
0  0.590948 -4.829306 66.392784  0.861313 0.502607 0.074342  0.573664 0.995214 1 10 1.000000
0  0.583375 -4.828964 66.090530  0.981235 0.037160 -0.189199  0.575199 0.982551 1 10 1.000000
0  0.541565 -4.710257 66.160065  0.861239 0.502722 0.074416  0.573658 0.982560 1 10 1.000000
scout_red
0  0.541565 -4.710257 66.160065  0.861239 0.502722 0.074416  0.573658 0.982560 1 10 1.000000
0  0.429238 -4.670673 66.508026  0.583170 0.766711 0.268454  0.570935 0.995230 1 10 1.000000
0  0.590948 -4.829306 66.392784  0.861313 0.502607 0.074342  0.573664 0.995214 1 10 1.000000
scout_red
0  0.541565 -4.710257 66.160065  0.861239 0.502722 0.074416  0.573658 0.982560 1 10 1.000000
0  0.379854 -4.551627 66.275299  0.583724 0.766335 0.268322  0.570930 0.982574 1 10 1.000000
0  0.429238 -4.670673 66.508026  0.583170 0.766711 0.268454  0.570935 0.995230 1 10 1.000000
scout_red
0  0.379854 -4.551627 66.275299  0.583724 0.766335 0.268322  0.570930 0.982574 1 10 1.000000
0  -0.078503 -4.517555 66.693436  0.168683 0.891535 0.420371  0.564895 0.995247 1 10 1.000000
0  0.429238 -4.670673 66.508026  0.583170 0.766711 0.268454  0.570935 0.995230 1 10 1.000000
scout_red
0  0.379854 -4.551627 66.275299  0.583724 0.766335 0.268322  0.570930 0.982574 1 10 1.000000
0  -0.127887 -4.398509 66.460701  0.169962 0.891405 0.420131  0.564890 0.982597 1 10 1.000000
0  -0.078503 -4.517555 66.693436  0.168683 0.891535 0.420371  0.564895 0.995247 1 10 1.000000
scout_red
0  -0.328412 -4.552064 66.728493  -0.252537 0.838668 0.482556  0.630188 0.995238 1 10 1.000000
0  -0.078503 -4.517555 66.693436  0.168683 0.891535 0.420371  0.632925 0.995266 1 10 1.000000
0  -0.127887 -4.398509 66.460701  0.169962 0.891405 0.420131  0.632927 0.982616 1 10 1.000000
scout_red
0  -0.328412 -4.552064 66.728493  -0.252537 0.838668 0.482556  0.630188 0.995238 1 10 1.000000
0  -0.127887 -4.398509 66.460701  0.169962 0.891405 0.420131  0.632927 0.982616 1 10 1.000000
0  -0.377796 -4.433019 66.495766  -0.250527 0.839248 0.482595  0.630193 0.982583 1 10 1.000000
scout_red
0  -0.377796 -4.433019 66.495766  -0.250527 0.839248 0.482595  0.630193 0.982583 1 10 1.000000
0  -0.455392 -4.619862 66.720612  -0.713573 0.550670 0.433100  0.628640 0.995220 1 10 1.000000
0  -0.328412 -4.552064 66.728493  -0.252537 0.838668 0.482556  0.630188 0.995238 1 10 1.000000
scout_red
0  -0.377796 -4.433019 66.495766  -0.250527 0.839248 0.482595  0.630193 0.982583 1 10 1.000000
0  -0.504777 -4.500823 66.487877  -0.712456 0.551774 0.433534  0.628645 0.982570 1 10 1.000000
0  -0.455392 -4.619862 66.720612  -0.713573 0.550670 0.433100  0.628640 0.995220 1 10 1.000000
scout_red
0  -1.157460 -6.157257 66.082443  -0.980612 -0.027470 0.194024  0.609221 0.995041 1 10 1.000000
0  -0.455392 -4.619862 66.720612  -0.713573 0.550670 0.433100  0.628640 0.995220 1 10 1.000000
0  -0.504777 -4.500823 66.487877  -0.712456 0.551774 0.433534  0.628645 0.982570 1 10 1.000000
scout_red
0  -1.157460 -6.157257 66.082443  -0.980612 -0.027470 0.194024  0.609221 0.995041 1 10 1.000000
0  -0.504777 -4.500823 66.487877  -0.712456 0.551774 0.433534  0.628645 0.982570 1 10 1.000000
0  -1.206843 -6.038212 65.849716  -0.980611 -0.027470 0.194027  0.609228 0.982387 1 10 1.000000
scout_red
0  -1.166950 -6.161113 65.778450  -0.862292 -0.501071 -0.073344  0.607647 0.982374 1 10 1.000000
0  -1.157460 -6.157257 66.082443  -0.980612 -0.027470 0.194024  0.609221 0.995041 1 10 1.000000
0  -1.206843 -6.038212 65.849716  -0.980611 -0.027470 0.194027  0.609228 0.982387 1 10 1.000000
scout_red
0  -1.166950 -6.161113 65.778450  -0.862292 -0.501071 -0.073344  0.607647 0.982374 1 10 1.000000
0  -1.117567 -6.280162 66.011169  -0.862209 -0.501202 -0.073426  0.607642 0.995031 1 10 1.000000
0  -1.157460 -6.157257 66.082443  -0.980612 -0.027470 0.194024  0.609221 0.995041 1 10 1.000000
scout_red
0  -1.003322 -6.315546 65.664955  -0.576191 -0.770734 -0.271981  0.604945 0.982364 1 10 1.000000
0  -1.117567 -6.280162 66.011169  -0.862209 -0.501202 -0.073426  0.607642 0.995031 1 10 1.000000
0  -1.166950 -6.161113 65.778450  -0.862292 -0.501071 -0.073344  0.607647 0.982374 1 10 1.000000
scout_red
0  -1.003322 -6.315546 65.664955  -0.576191 -0.770734 -0.271981  0.604945 0.982364 1 10 1.000000
0  -0.953938 -6.434590 65.897682  -0.575978 -0.770856 -0.272083  0.604940 0.995028 1 10 1.000000
0  -1.117567 -6.280162 66.011169  -0.862209 -0.501202 -0.073426  0.607642 0.995031 1 10 1.000000
scout_red
0  -0.495581 -6.468662 65.479546  -0.177228 -0.890933 -0.418124  0.598910 0.982348 1 10 1.000000
0  -0.953938 -6.434590 65.897682  -0.575978 -0.770856 -0.272083  0.604940 0.995028 1 10 1.000000
0  -1.003322 -6.315546 65.664955  -0.576191 -0.770734 -0.271981  0.604945 0.982364 1 10 1.000000
scout_red
0  -0.495581 -6.468662 65.479546  -0.177228 -0.890933 -0.418124  0.598910 0.982348 1 10 1.000000
0  -0.446197 -6.587707 65.712273  -0.177848 -0.890890 -0.417953  0.598908 0.995018 1 10 1.000000
0  -0.953938 -6.434590 65.897682  -0.575978 -0.770856 -0.272083  0.604940 0.995028 1 10 1.000000
scout_red
0  -0.446197 -6.587707 65.712273  -0.177848 -0.890890 -0.417953  0.598908 0.995018 1 10 1.000000
0  -0.495581 -6.468662 65.479546  -0.177228 -0.890933 -0.418124  0.598910 0.982348 1 10 1.000000
0  -0.247589 -6.438354 65.442734  0.253328 -0.838396 -0.482614  0.596202 0.982358 1 10 1.000000
scout_red
0  -0.446197 -6.587707 65.712273  -0.177848 -0.890890 -0.417953  0.598908 0.995018 1 10 1.000000
0  -0.247589 -6.438354 65.442734  0.253328 -0.838396 -0.482614  0.596202 0.982358 1 10 1.000000
0  -0.198205 -6.557402 65.675461  0.253571 -0.838311 -0.482634  0.596204 0.995022 1 10 1.000000
scout_red
0  -0.198205 -6.557402 65.675461  0.253571 -0.838311 -0.482634  0.596204 0.995022 1 10 1.000000
0  -0.247589 -6.438354 65.442734  0.253328 -0.838396 -0.482614  0.596202 0.982358 1 10 1.000000
0  -0.118692 -6.366350 65.452370  0.720202 -0.543690 -0.430942  0.594618 0.982374 1 10 1.000000
scout_red
0  -0.198205 -6.557402 65.675461  0.253571 -0.838311 -0.482634  0.596204 0.995022 1 10 1.000000
0  -0.118692 -6.366350 65.452370  0.720202 -0.543690 -0.430942  0.594618 0.982374 1 10 1.000000
0  -0.069308 -6.485401 65.685097  0.720370 -0.543506 -0.430893  0.594620 0.995028 1 10 1.000000
scout_red
0  -0.069308 -6.485401 65.685097  0.720370 -0.543506 -0.430893  0.594620 0.995028 1 10 1.000000
0  -0.118692 -6.366350 65.452370  0.720202 -0.543690 -0.430942  0.594618 0.982374 1 10 1.000000
0  0.583375 -4.828964 66.090530  0.981235 0.037160 -0.189199  0.575199 0.982551 1 10 1.000000
scout_red
0  -0.069308 -6.485401 65.685097  0.720370 -0.543506 -0.430893  0.594620 0.995028 1 10 1.000000
0  0.583375 -4.828964 66.090530  0.981235 0.037160 -0.189199  0.575199 0.982551 1 10 1.000000
0  0.632759 -4.948006 66.323265  0.981235 0.037170 -0.189199  0.575204 0.995205 1 10 1.000000
scout_red
0  -0.069308 -6.485401 65.685097  0.184565 -0.447511 0.875025  0.849809 0.703338 1 10 1.000000
0  -0.446197 -6.587707 65.712273  0.184575 -0.447519 0.875019  0.852782 0.698611 1 10 1.000000
0  -0.198205 -6.557402 65.675461  0.184507 -0.447540 0.875023  0.850675 0.700910 1 10 1.000000
scout_red
0  -0.069308 -6.485401 65.685097  0.184565 -0.447511 0.875025  0.849809 0.703338 1 10 1.000000
0  -0.953938 -6.434590 65.897682  0.184581 -0.447480 0.875038  0.857967 0.698626 1 10 1.000000
0  -0.446197 -6.587707 65.712273  0.184575 -0.447519 0.875019  0.852782 0.698611 1 10 1.000000
scout_red
0  -0.069308 -6.485401 65.685097  0.184565 -0.447511 0.875025  0.849809 0.703338 1 10 1.000000
0  -1.117567 -6.280162 66.011169  0.184641 -0.446832 0.875357  0.860064 0.700936 1 10 1.000000
0  -0.953938 -6.434590 65.897682  0.184581 -0.447480 0.875038  0.857967 0.698626 1 10 1.000000
scout_red
0  -0.069308 -6.485401 65.685097  0.184565 -0.447511 0.875025  0.849809 0.703338 1 10 1.000000
0  -1.157460 -6.157257 66.082443  0.184561 -0.447515 0.875024  0.860922 0.703368 1 10 1.000000
0  -1.117567 -6.280162 66.011169  0.184641 -0.446832 0.875357  0.860064 0.700936 1 10 1.000000
scout_red
0  -0.069308 -6.485401 65.685097  0.184565 -0.447511 0.875025  0.849809 0.703338 1 10 1.000000
0  -0.455392 -4.619862 66.720612  0.184574 -0.447501 0.875029  0.860851 0.741719 1 10 1.000000
0  -1.157460 -6.157257 66.082443  0.184561 -0.447515 0.875024  0.860922 0.703368 1 10 1.000000
scout_red
0  -0.069308 -6.485401 65.685097  0.184565 -0.447511 0.875025  0.849809 0.703338 1 10 1.000000
0  -0.328412 -4.552064 66.728493  0.184535 -0.447507 0.875034  0.859984 0.744044 1 10 1.000000
0  -0.455392 -4.619862 66.720612  0.184574 -0.447501 0.875029  0.860851 0.741719 1 10 1.000000
scout_red
0  -0.069308 -6.485401 65.685097  0.184565 -0.447511 0.875025  0.849809 0.703338 1 10 1.000000
0  -0.078503 -4.517555 66.693436  0.184551 -0.447509 0.875029  0.857879 0.746446 1 10 1.000000
0  -0.328412 -4.552064 66.728493  0.184535 -0.447507 0.875034  0.859984 0.744044 1 10 1.000000
scout_red
0  -0.069308 -6.485401 65.685097  0.184565 -0.447511 0.875025  0.849809 0.703338 1 10 1.000000
0  0.429238 -4.670673 66.508026  0.184588 -0.447507 0.875023  0.852692 0.746431 1 10 1.000000
0  -0.078503 -4.517555 66.693436  0.184551 -0.447509 0.875029  0.857879 0.746446 1 10 1.000000
scout_red
0  -0.069308 -6.485401 65.685097  0.184565 -0.447511 0.875025  0.849809 0.703338 1 10 1.000000
0  0.590948 -4.829306 66.392784  0.184543 -0.447507 0.875032  0.850595 0.744018 1 10 1.000000
0  0.429238 -4.670673 66.508026  0.184588 -0.447507 0.875023  0.852692 0.746431 1 10 1.000000
scout_red
0  -0.069308 -6.485401 65.685097  0.184565 -0.447511 0.875025  0.849809 0.703338 1 10 1.000000
0  0.632759 -4.948006 66.323265  0.184544 -0.447488 0.875042  0.849738 0.741688 1 10 1.000000
0  0.590948 -4.829306 66.392784  0.184543 -0.447507 0.875032  0.850595 0.744018 1 10 1.000000
scout_red
0  0.983285 -3.729299 66.444809  0.407794 0.811244 0.419031  0.632724 0.966457 1 10 1.000000
0  0.784629 -3.841416 66.733727  -0.005470 0.849328 0.527837  0.629987 0.979019 1 10 1.000000
0  1.029195 -3.867399 66.667503  0.407599 0.811311 0.419091  0.632715 0.979065 1 10 1.000000
scout_red
0  0.983285 -3.729299 66.444809  0.407794 0.811244 0.419031  0.632724 0.966457 1 10 1.000000
0  0.738720 -3.703321 66.511032  -0.004836 0.849407 0.527716  0.629994 0.966405 1 10 1.000000
0  0.784629 -3.841416 66.733727  -0.005470 0.849328 0.527837  0.629987 0.979019 1 10 1.000000
scout_red
0  0.738720 -3.703321 66.511032  -0.004836 0.849407 0.527716  0.629994 0.966405 1 10 1.000000
0  0.246483 -4.002508 66.744118  -0.443755 0.717745 0.536585  0.623971 0.978919 1 10 1.000000
0  0.784629 -3.841416 66.733727  -0.005470 0.849328 0.527837  0.629987 0.979019 1 10 1.000000
scout_red
0  0.738720 -3.703321 66.511032  -0.004836 0.849407 0.527716  0.629994 0.966405 1 10 1.000000
0  0.200575 -3.864412 66.521431  -0.444009 0.717617 0.536547  0.623978 0.966303 1 10 1.000000
0  0.246483 -4.002508 66.744118  -0.443755 0.717745 0.536585  0.623971 0.978919 1 10 1.000000
scout_red
0  0.054781 -4.159082 66.686325  -0.771965 0.456573 0.442279  0.621253 0.978886 1 10 1.000000
0  0.246483 -4.002508 66.744118  -0.443755 0.717745 0.536585  0.623971 0.978919 1 10 1.000000
0  0.200575 -3.864412 66.521431  -0.444009 0.717617 0.536547  0.623978 0.966303 1 10 1.000000
scout_red
0  0.054781 -4.159082 66.686325  -0.771965 0.456573 0.442279  0.621253 0.978886 1 10 1.000000
0  0.200575 -3.864412 66.521431  -0.444009 0.717617 0.536547  0.623978 0.966303 1 10 1.000000
0  0.008871 -4.020984 66.463623  -0.772092 0.456437 0.442198  0.621258 0.966269 1 10 1.000000
scout_red
0  0.008871 -4.020984 66.463623  -0.772092 0.456437 0.442198  0.621258 0.966269 1 10 1.000000
0  -0.009146 -4.274003 66.628166  -0.978515 0.006988 0.206057  0.619723 0.978876 1 10 1.000000
0  0.054781 -4.159082 66.686325  -0.771965 0.456573 0.442279  0.621253 0.978886 1 10 1.000000
scout_red
0  0.008871 -4.020984 66.463623  -0.772092 0.456437 0.442198  0.621258 0.966269 1 10 1.000000
0  -0.055056 -4.135903 66.405472  -0.978521 0.006954 0.206027  0.619723 0.966261 1 10 1.000000
0  -0.009146 -4.274003 66.628166  -0.978515 0.006988 0.206057  0.619723 0.978876 1 10 1.000000
scout_red
0  0.365723 -5.589070 65.418236  -0.823840 -0.541905 -0.166209  0.600370 0.966298 1 10 1.000000
0  -0.009146 -4.274003 66.628166  -0.978515 0.006988 0.206057  0.619723 0.978876 1 10 1.000000
0  -0.055056 -4.135903 66.405472  -0.978521 0.006954 0.206027  0.619723 0.966261 1 10 1.000000
scout_red
0  0.365723 -5.589070 65.418236  -0.823840 -0.541905 -0.166209  0.600370 0.966298 1 10 1.000000
0  0.411632 -5.727166 65.640930  -0.823722 -0.542047 -0.166336  0.600372 0.978915 1 10 1.000000
0  -0.009146 -4.274003 66.628166  -0.978515 0.006988 0.206057  0.619723 0.978876 1 10 1.000000
scout_red
0  0.481845 -5.654402 65.353935  -0.408712 -0.810973 -0.418662  0.598793 0.966307 1 10 1.000000
0  0.411632 -5.727166 65.640930  -0.823722 -0.542047 -0.166336  0.600372 0.978915 1 10 1.000000
0  0.365723 -5.589070 65.418236  -0.823840 -0.541905 -0.166209  0.600370 0.966298 1 10 1.000000
scout_red
0  0.481845 -5.654402 65.353935  -0.408712 -0.810973 -0.418662  0.598793 0.966307 1 10 1.000000
0  0.527753 -5.792503 65.576622  -0.409992 -0.810610 -0.418113  0.598798 0.978934 1 10 1.000000
0  0.411632 -5.727166 65.640930  -0.823722 -0.542047 -0.166336  0.600372 0.978915 1 10 1.000000
scout_red
0  0.725260 -5.676419 65.290405  0.014502 -0.848431 -0.529108  0.596096 0.966344 1 10 1.000000
0  0.527753 -5.792503 65.576622  -0.409992 -0.810610 -0.418113  0.598798 0.978934 1 10 1.000000
0  0.481845 -5.654402 65.353935  -0.408712 -0.810973 -0.418662  0.598793 0.966307 1 10 1.000000
scout_red
0  0.725260 -5.676419 65.290405  0.014502 -0.848431 -0.529108  0.596096 0.966344 1 10 1.000000
0  0.771170 -5.814516 65.513100  0.013326 -0.848536 -0.528969  0.596101 0.978971 1 10 1.000000
0  0.527753 -5.792503 65.576622  -0.409992 -0.810610 -0.418113  0.598798 0.978934 1 10 1.000000
scout_red
0  1.263405 -5.515330 65.280006  0.436069 -0.721780 -0.537473  0.590080 0.966444 1 10 1.000000
0  0.771170 -5.814516 65.513100  0.013326 -0.848536 -0.528969  0.596101 0.978971 1 10 1.000000
0  0.725260 -5.676419 65.290405  0.014502 -0.848431 -0.529108  0.596096 0.966344 1 10 1.000000
scout_red
0  1.263405 -5.515330 65.280006  0.436069 -0.721780 -0.537473  0.590080 0.966444 1 10 1.000000
0  1.309315 -5.653427 65.502708  0.436278 -0.721669 -0.537453  0.590087 0.979065 1 10 1.000000
0  0.771170 -5.814516 65.513100  0.013326 -0.848536 -0.528969  0.596101 0.978971 1 10 1.000000
scout_red
0  1.309315 -5.653427 65.502708  0.436278 -0.721669 -0.537453  0.590087 0.979065 1 10 1.000000
0  1.263405 -5.515330 65.280006  0.436069 -0.721780 -0.537473  0.590080 0.966444 1 10 1.000000
0  1.456259 -5.362716 65.335121  0.773248 -0.455059 -0.441598  0.587388 0.966477 1 10 1.000000
scout_red
0  1.309315 -5.653427 65.502708  0.436278 -0.721669 -0.537453  0.590087 0.979065 1 10 1.000000
0  1.456259 -5.362716 65.335121  0.773248 -0.455059 -0.441598  0.587388 0.966477 1 10 1.000000
0  1.502168 -5.500817 65.557816  0.773331 -0.454954 -0.441560  0.587393 0.979098 1 10 1.000000
scout_red
0  1.502168 -5.500817 65.557816  0.773331 -0.454954 -0.441560  0.587393 0.979098 1 10 1.000000
0  1.456259 -5.362716 65.335121  0.773248 -0.455059 -0.441598  0.587388 0.966477 1 10 1.000000
0  1.519036 -5.243834 65.395966  0.979682 0.002295 -0.200542  0.585814 0.966490 1 10 1.000000
scout_red
0  1.502168 -5.500817 65.557816  0.773331 -0.454954 -0.441560  0.587393 0.979098 1 10 1.000000
0  1.519036 -5.243834 65.395966  0.979682 0.002295 -0.200542  0.585814 0.966490 1 10 1.000000
0  1.564945 -5.381932 65.618660  0.979683 0.002302 -0.200540  0.585816 0.979102 1 10 1.000000
scout_red
0  1.519036 -5.243834 65.395966  0.979682 0.002295 -0.200542  0.585814 0.966490 1 10 1.000000
0  1.144167 -3.928768 66.605896  0.817978 0.548992 0.171816  0.566460 0.979065 1 10 1.000000
0  1.564945 -5.381932 65.618660  0.979683 0.002302 -0.200540  0.585816 0.979102 1 10 1.000000
scout_red
0  1.519036 -5.243834 65.395966  0.979682 0.002295 -0.200542  0.585814 0.966490 1 10 1.000000
0  1.098258 -3.790668 66.383202  0.817820 0.549180 0.171962  0.566460 0.966457 1 10 1.000000
0  1.144167 -3.928768 66.605896  0.817978 0.548992 0.171816  0.566460 0.979065 1 10 1.000000
scout_red
0  1.029195 -3.867399 66.667503  0.407599 0.811311 0.419091  0.564916 0.979056 1 10 1.000000
0  1.144167 -3.928768 66.605896  0.817978 0.548992 0.171816  0.566460 0.979065 1 10 1.000000
0  1.098258 -3.790668 66.383202  0.817820 0.549180 0.171962  0.566460 0.966457 1 10 1.000000
scout_red
0  1.029195 -3.867399 66.667503  0.407599 0.811311 0.419091  0.564916 0.979056 1 10 1.000000
0  1.098258 -3.790668 66.383202  0.817820 0.549180 0.171962  0.566460 0.966457 1 10 1.000000
0  0.983285 -3.729299 66.444809  0.407794 0.811244 0.419031  0.564919 0.966452 1 10 1.000000
scout_red
0  0.365723 -5.589070 65.418236  -0.171565 0.519144 -0.837290  0.842456 0.702757 1 10 1.000000
0  0.725260 -5.676419 65.290405  -0.171580 0.519123 -0.837300  0.843838 0.700577 1 10 1.000000
0  0.481845 -5.654402 65.353935  -0.171526 0.519137 -0.837303  0.842857 0.701634 1 10 1.000000
scout_red
0  0.365723 -5.589070 65.418236  -0.171565 0.519144 -0.837290  0.842456 0.702757 1 10 1.000000
0  1.263405 -5.515330 65.280006  -0.171563 0.519178 -0.837269  0.846247 0.700614 1 10 1.000000
0  0.725260 -5.676419 65.290405  -0.171580 0.519123 -0.837300  0.843838 0.700577 1 10 1.000000
scout_red
0  0.365723 -5.589070 65.418236  -0.171565 0.519144 -0.837290  0.842456 0.702757 1 10 1.000000
0  1.456259 -5.362716 65.335121  -0.171586 0.519141 -0.837288  0.847222 0.701701 1 10 1.000000
0  1.263405 -5.515330 65.280006  -0.171563 0.519178 -0.837269  0.846247 0.700614 1 10 1.000000
scout_red
0  0.365723 -5.589070 65.418236  -0.171565 0.519144 -0.837290  0.842456 0.702757 1 10 1.000000
0  1.519036 -5.243834 65.395966  -0.171576 0.519141 -0.837290  0.847622 0.702837 1 10 1.000000
0  1.456259 -5.362716 65.335121  -0.171586 0.519141 -0.837288  0.847222 0.701701 1 10 1.000000
scout_red
0  0.365723 -5.589070 65.418236  -0.171565 0.519144 -0.837290  0.842456 0.702757 1 10 1.000000
0  1.098258 -3.790668 66.383202  -0.171494 0.519150 -0.837301  0.847594 0.720664 1 10 1.000000
0  1.519036 -5.243834 65.395966  -0.171576 0.519141 -0.837290  0.847622 0.702837 1 10 1.000000
scout_red
0  0.365723 -5.589070 65.418236  -0.171565 0.519144 -0.837290  0.842456 0.702757 1 10 1.000000
0  0.983285 -3.729299 66.444809  -0.171529 0.519149 -0.837295  0.847192 0.721739 1 10 1.000000
0  1.098258 -3.790668 66.383202  -0.171494 0.519150 -0.837301  0.847594 0.720664 1 10 1.000000
scout_red
0  0.365723 -5.589070 65.418236  -0.171565 0.519144 -0.837290  0.842456 0.702757 1 10 1.000000
0  0.738720 -3.703321 66.511032  -0.171585 0.519146 -0.837285  0.846213 0.722844 1 10 1.000000
0  0.983285 -3.729299 66.444809  -0.171529 0.519149 -0.837295  0.847192 0.721739 1 10 1.000000
scout_red
0  0.365723 -5.589070 65.418236  -0.171565 0.519144 -0.837290  0.842456 0.702757 1 10 1.000000
0  0.200575 -3.864412 66.521431  -0.171586 0.519148 -0.837283  0.843803 0.722807 1 10 1.000000
0  0.738720 -3.703321 66.511032  -0.171585 0.519146 -0.837285  0.846213 0.722844 1 10 1.000000
scout_red
0  0.365723 -5.589070 65.418236  -0.171565 0.519144 -0.837290  0.842456 0.702757 1 10 1.000000
0  0.008871 -4.020984 66.463623  -0.171542 0.519152 -0.837290  0.842827 0.721672 1 10 1.000000
0  0.200575 -3.864412 66.521431  -0.171586 0.519148 -0.837283  0.843803 0.722807 1 10 1.000000
scout_red
0  0.365723 -5.589070 65.418236  -0.171565 0.519144 -0.837290  0.842456 0.702757 1 10 1.000000
0  -0.055056 -4.135903 66.405472  -0.171466 0.519152 -0.837306  0.842429 0.720584 1 10 1.000000
0  0.008871 -4.020984 66.463623  -0.171542 0.519152 -0.837290  0.842827 0.721672 1 10 1.000000
scout_red
0  -0.118692 -6.366350 65.452370  -0.184568 0.447508 -0.875027  0.847622 0.702837 1 10 1.000000
0  0.541565 -4.710257 66.160065  -0.184545 0.447513 -0.875029  0.847192 0.721739 1 10 1.000000
0  0.583375 -4.828964 66.090530  -0.184438 0.447536 -0.875040  0.847594 0.720664 1 10 1.000000
scout_red
0  -0.118692 -6.366350 65.452370  -0.184568 0.447508 -0.875027  0.847622 0.702837 1 10 1.000000
0  0.379854 -4.551627 66.275299  -0.184566 0.447506 -0.875028  0.846213 0.722844 1 10 1.000000
0  0.541565 -4.710257 66.160065  -0.184545 0.447513 -0.875029  0.847192 0.721739 1 10 1.000000
scout_red
0  -0.118692 -6.366350 65.452370  -0.184568 0.447508 -0.875027  0.847622 0.702837 1 10 1.000000
0  -0.127887 -4.398509 66.460701  -0.184584 0.447504 -0.875025  0.843803 0.722807 1 10 1.000000
0  0.379854 -4.551627 66.275299  -0.184566 0.447506 -0.875028  0.846213 0.722844 1 10 1.000000
scout_red
0  -0.118692 -6.366350 65.452370  -0.184568 0.447508 -0.875027  0.847622 0.702837 1 10 1.000000
0  -0.377796 -4.433019 66.495766  -0.184585 0.447504 -0.875025  0.842827 0.721672 1 10 1.000000
0  -0.127887 -4.398509 66.460701  -0.184584 0.447504 -0.875025  0.843803 0.722807 1 10 1.000000
scout_red
0  -0.118692 -6.366350 65.452370  -0.184568 0.447508 -0.875027  0.847622 0.702837 1 10 1.000000
0  -0.504777 -4.500823 66.487877  -0.184564 0.447505 -0.875029  0.842429 0.720584 1 10 1.000000
0  -0.377796 -4.433019 66.495766  -0.184585 0.447504 -0.875025  0.842827 0.721672 1 10 1.000000
scout_red
0  -0.118692 -6.366350 65.452370  -0.184568 0.447508 -0.875027  0.847622 0.702837 1 10 1.000000
0  -1.206843 -6.038212 65.849716  -0.184576 0.447500 -0.875029  0.842456 0.702757 1 10 1.000000
0  -0.504777 -4.500823 66.487877  -0.184564 0.447505 -0.875029  0.842429 0.720584 1 10 1.000000
scout_red
0  -0.118692 -6.366350 65.452370  -0.184568 0.447508 -0.875027  0.847622 0.702837 1 10 1.000000
0  -1.166950 -6.161113 65.778450  -0.184584 0.447491 -0.875032  0.842857 0.701634 1 10 1.000000
0  -1.206843 -6.038212 65.849716  -0.184576 0.447500 -0.875029  0.842456 0.702757 1 10 1.000000
scout_red
0  -0.118692 -6.366350 65.452370  -0.184568 0.447508 -0.875027  0.847622 0.702837 1 10 1.000000
0  -1.003322 -6.315546 65.664955  -0.184571 0.447500 -0.875030  0.843838 0.700577 1 10 1.000000
0  -1.166950 -6.161113 65.778450  -0.184584 0.447491 -0.875032  0.842857 0.701634 1 10 1.000000
scout_red
0  -0.118692 -6.366350 65.452370  -0.184568 0.447508 -0.875027  0.847622 0.702837 1 10 1.000000
0  -0.495581 -6.468662 65.479546  -0.184575 0.447511 -0.875023  0.846247 0.700614 1 10 1.000000
0  -1.003322 -6.315546 65.664955  -0.184571 0.447500 -0.875030  0.843838 0.700577 1 10 1.000000
scout_red
0  -0.118692 -6.366350 65.452370  -0.184568 0.447508 -0.875027  0.847622 0.702837 1 10 1.000000
0  -0.247589 -6.438354 65.442734  -0.184558 0.447517 -0.875024  0.847222 0.701701 1 10 1.000000
0  -0.495581 -6.468662 65.479546  -0.184575 0.447511 -0.875023  0.846247 0.700614 1 10 1.000000
scout_red
0  0.411632 -5.727166 65.640930  0.171581 -0.519150 0.837284  0.872313 0.703303 1 10 1.000000
0  0.054781 -4.159082 66.686325  0.171618 -0.519143 0.837280  0.871562 0.742149 1 10 1.000000
0  -0.009146 -4.274003 66.628166  0.171567 -0.519153 0.837284  0.872380 0.739926 1 10 1.000000
scout_red
0  0.411632 -5.727166 65.640930  0.171581 -0.519150 0.837284  0.872313 0.703303 1 10 1.000000
0  0.246483 -4.002508 66.744118  0.171580 -0.519145 0.837286  0.869560 0.744454 1 10 1.000000
0  0.054781 -4.159082 66.686325  0.171618 -0.519143 0.837280  0.871562 0.742149 1 10 1.000000
scout_red
0  0.411632 -5.727166 65.640930  0.171581 -0.519150 0.837284  0.872313 0.703303 1 10 1.000000
0  0.784629 -3.841416 66.733727  0.171563 -0.519147 0.837289  0.864608 0.744466 1 10 1.000000
0  0.246483 -4.002508 66.744118  0.171580 -0.519145 0.837286  0.869560 0.744454 1 10 1.000000
scout_red
0  0.411632 -5.727166 65.640930  0.171581 -0.519150 0.837284  0.872313 0.703303 1 10 1.000000
0  1.029195 -3.867399 66.667503  0.171586 -0.519143 0.837287  0.862594 0.742171 1 10 1.000000
0  0.784629 -3.841416 66.733727  0.171563 -0.519147 0.837289  0.864608 0.744466 1 10 1.000000
scout_red
0  0.411632 -5.727166 65.640930  0.171581 -0.519150 0.837284  0.872313 0.703303 1 10 1.000000
0  1.144167 -3.928768 66.605896  0.171595 -0.519142 0.837286  0.861768 0.739951 1 10 1.000000
0  1.029195 -3.867399 66.667503  0.171586 -0.519143 0.837287  0.862594 0.742171 1 10 1.000000
scout_red
0  0.411632 -5.727166 65.640930  0.171581 -0.519150 0.837284  0.872313 0.703303 1 10 1.000000
0  1.564945 -5.381932 65.618660  0.171564 -0.519136 0.837295  0.861701 0.703327 1 10 1.000000
0  1.144167 -3.928768 66.605896  0.171595 -0.519142 0.837286  0.861768 0.739951 1 10 1.000000
scout_red
0  0.411632 -5.727166 65.640930  0.171581 -0.519150 0.837284  0.872313 0.703303 1 10 1.000000
0  1.502168 -5.500817 65.557816  0.171551 -0.519124 0.837305  0.862521 0.701004 1 10 1.000000
0  1.564945 -5.381932 65.618660  0.171564 -0.519136 0.837295  0.861701 0.703327 1 10 1.000000
scout_red
0  0.411632 -5.727166 65.640930  0.171581 -0.519150 0.837284  0.872313 0.703303 1 10 1.000000
0  1.309315 -5.653427 65.502708  0.171570 -0.519151 0.837285  0.864524 0.698799 1 10 1.000000
0  1.502168 -5.500817 65.557816  0.171551 -0.519124 0.837305  0.862521 0.701004 1 10 1.000000
scout_red
0  0.411632 -5.727166 65.640930  0.171581 -0.519150 0.837284  0.872313 0.703303 1 10 1.000000
0  0.771170 -5.814516 65.513100  0.171571 -0.519141 0.837291  0.869475 0.698786 1 10 1.000000
0  1.309315 -5.653427 65.502708  0.171570 -0.519151 0.837285  0.864524 0.698799 1 10 1.000000
scout_red
0  0.411632 -5.727166 65.640930  0.171581 -0.519150 0.837284  0.872313 0.703303 1 10 1.000000
0  0.527753 -5.792503 65.576622  0.171648 -0.519192 0.837244  0.871487 0.700982 1 10 1.000000
0  0.771170 -5.814516 65.513100  0.171571 -0.519141 0.837291  0.869475 0.698786 1 10 1.000000
end
