// Created by Crowbar 0.62

$modelname "player/tf2_pm/scout.mdl"

$model "scout" "scout_morphs_low.smd" {

	eyeball "eye_right" "bip_head" -1.251646 -4.3406015 75.814257 "eyeball_r" 1.4 4 "iris_unused" 0.6
	eyeball "eye_left" "bip_head" 1.251646 -4.3406015 75.814257 "eyeball_l" 1.4 -4 "iris_unused" 0.6


	$include "scout_flex.qci"
}
$bodygroup "hat"
{
	studio "scout_hat_bodygroup.smd"
	blank
}
$bodygroup "headphones"
{
	studio "scout_headphones_bodygroup.smd"
	blank
}
$bodygroup "shoes_socks"
{
	studio "scout_shoes_socks_bodygroup.smd"
	blank
}
$bodygroup "dogtags"
{
	studio "scout_dogtags_bodygroup.smd"
	blank
}

$surfaceprop "flesh"

$contents "solid"

$illumposition 0 6.335 39.76

$eyeposition 0 75.85 0

$cdmaterials "models\player\scout\"
$cdmaterials ""

$texturegroup "skinfamilies"
{
	{ "scout_red"                   "scout_head_red"        "eyeball_l"      "eyeball_r"      }
	{ "scout_blue"                  "scout_head_blue"       "eyeball_l"      "eyeball_r"      }
	{ "scout_color"                  "scout_head_blue"       "eyeball_l"      "eyeball_r"      }
	{ "scout_red_zombie_alphatest"  "scout_head_zombie"     "eyeball_zombie" "eyeball_zombie" }
	{ "scout_blue_zombie_alphatest" "scout_head_zombie"     "eyeball_zombie" "eyeball_zombie" }
}

$attachment "eyes" "bip_head" 0 -2.69 -3.29 rotate 83.45 -90 0
//$attachment "eyes" "ValveBiped.Bip01_Head1" -1.41 -75.75 -4.9 absolute
$attachment "righteye" "bip_head" -1.25 -2.69 -3.29 rotate 83.45 -90 0
$attachment "lefteye" "bip_head" 1.25 -2.69 -3.29 rotate 83.45 -90 0
$attachment "foot_L" "bip_foot_L" 0 0 0 rotate 0 0 0
$attachment "foot_R" "bip_foot_R" 0 0 0 rotate 0 0 0
$attachment "back_upper" "bip_spine_3" 0 0 0 rotate 0 0 0
$attachment "back_lower" "bip_spine_0" 0 0 0 rotate 0 0 0
$attachment "hand_L" "bip_hand_L" 0 0 0 rotate 0 0 0
$attachment "hand_R" "bip_hand_R" 0 0 0 rotate 0 0 0
$attachment "partyhat" "bip_head" 0 -8 0.57 rotate 87 90 180
$attachment "doublejumpfx" "bip_pelvis" 0 40 15 rotate 0 0 0
$attachment "head" "bip_head" 0 -8.49 0.57 rotate 78.55 -90 0
$attachment "eyeglow_L" "bip_head" 1.34 -2.74 -4.67 rotate 64.21 -13.74 74.8
$attachment "eyeglow_R" "bip_head" -1.34 -2.74 -4.67 rotate 64.21 -166.26 -74.8
$attachment "flag" "bip_spine_2" -0.19 0.69 7.85 rotate 1.26 -2.62 1.89

$proceduralbones "kleiner.vrd"

$include "scout_animation.qci"

$include "scout_collision.qci"
