version 1
nodes
0 "ValveBiped.Bip01_Pelvis" -1
1 "ValveBiped.Bip01_Spine" 0
2 "ValveBiped.Bip01_Spine1" 1
3 "ValveBiped.Bip01_Spine2" 2
4 "ValveBiped.Bip01_Spine4" 3
5 "ValveBiped.Bip01_Neck1" 4
6 "ValveBiped.Bip01_Head1" 5
7 "ValveBiped.forward" 6
8 "ValveBiped.Bip01_L_Clavicle" 4
9 "ValveBiped.Bip01_L_UpperArm" 8
10 "ValveBiped.Bip01_L_Forearm" 9
11 "ValveBiped.Bip01_L_Hand" 10
12 "ValveBiped.Anim_Attachment_LH" 11
13 "ValveBiped.Bip01_L_Finger4" 11
14 "ValveBiped.Bip01_L_Finger41" 13
15 "ValveBiped.Bip01_L_Finger42" 14
16 "ValveBiped.Bip01_L_Finger3" 11
17 "ValveBiped.Bip01_L_Finger31" 16
18 "ValveBiped.Bip01_L_Finger32" 17
19 "ValveBiped.Bip01_L_Finger2" 11
20 "ValveBiped.Bip01_L_Finger21" 19
21 "ValveBiped.Bip01_L_Finger22" 20
22 "ValveBiped.Bip01_L_Finger1" 11
23 "ValveBiped.Bip01_L_Finger11" 22
24 "ValveBiped.Bip01_L_Finger12" 23
25 "ValveBiped.Bip01_L_Finger0" 11
26 "ValveBiped.Bip01_L_Finger01" 25
27 "ValveBiped.Bip01_L_Finger02" 26
28 "ValveBiped.Bip01_L_Ulna" 10
29 "ValveBiped.Bip01_L_Wrist" 10
30 "ValveBiped.Bip01_L_Bicep" 9
31 "ValveBiped.Bip01_L_Shoulder" 9
32 "ValveBiped.Bip01_L_Elbow" 9
33 "ValveBiped.Bip01_L_Trapezius" 8
34 "ValveBiped.Bip01_R_Clavicle" 4
35 "ValveBiped.Bip01_R_UpperArm" 34
36 "ValveBiped.Bip01_R_Forearm" 35
37 "ValveBiped.Bip01_R_Hand" 36
38 "ValveBiped.Anim_Attachment_RH" 37
39 "ValveBiped.Bip01_R_Finger4" 37
40 "ValveBiped.Bip01_R_Finger41" 39
41 "ValveBiped.Bip01_R_Finger42" 40
42 "ValveBiped.Bip01_R_Finger3" 37
43 "ValveBiped.Bip01_R_Finger31" 42
44 "ValveBiped.Bip01_R_Finger32" 43
45 "ValveBiped.Bip01_R_Finger2" 37
46 "ValveBiped.Bip01_R_Finger21" 45
47 "ValveBiped.Bip01_R_Finger22" 46
48 "ValveBiped.Bip01_R_Finger1" 37
49 "ValveBiped.Bip01_R_Finger11" 48
50 "ValveBiped.Bip01_R_Finger12" 49
51 "ValveBiped.Bip01_R_Finger0" 37
52 "ValveBiped.Bip01_R_Finger01" 51
53 "ValveBiped.Bip01_R_Finger02" 52
54 "ValveBiped.Bip01_R_Ulna" 36
55 "ValveBiped.Bip01_R_Wrist" 36
56 "ValveBiped.Bip01_R_Elbow" 35
57 "ValveBiped.Bip01_R_Shoulder" 35
58 "ValveBiped.Bip01_R_Bicep" 35
59 "ValveBiped.Bip01_R_Trapezius" 34
60 "ValveBiped.Bip01_L_Latt" 3
61 "ValveBiped.Bip01_R_Latt" 3
62 "ValveBiped.Bip01_L_Thigh" 0
63 "ValveBiped.Bip01_L_Calf" 62
64 "ValveBiped.Bip01_L_Foot" 63
65 "ValveBiped.Bip01_L_Toe0" 64
66 "ValveBiped.Bip01_R_Thigh" 0
67 "ValveBiped.Bip01_R_Calf" 66
68 "ValveBiped.Bip01_R_Foot" 67
69 "ValveBiped.Bip01_R_Toe0" 68
end
skeleton
time 0
0  -0.000005 -0.788460 38.481480  1.570796 -0.000000 0.000001
1  0.000005 4.212788 -1.689856  1.570795 0.086294 1.570791
2  3.837400 0.000028 0.000001  -0.000000 0.000001 -0.029229
3  3.617854 0.000023 -0.000003  -0.000000 -0.000044 0.100326
4  7.539779 0.000026 -0.000000  0.000010 0.000052 0.194100
5  3.178299 -0.000032 0.000003  3.141588 -0.000019 0.372983
6  2.970290 -0.000017 -0.000000  -0.000004 0.000010 0.302762
7  0.000000 -0.000000 0.000000  -1.570796 -0.000000 -1.326447
8  2.023718 0.907439 0.852581  -1.577190 -2.025535 -0.171569
9  4.983673 -0.000007 0.000009  -2.274751 0.365995 -0.714461
10  11.123064 -0.000038 -0.000010  -0.001813 0.561993 -0.505581
11  11.208270 -0.000035 -0.000038  1.573453 -0.106734 0.134902
12  2.676093 -1.712438 0.000001  1.570795 0.000002 1.570888
13  3.549253 0.198826 -1.489472  -0.476719 0.177588 -0.392546
14  1.219006 0.000003 0.000001  -0.040846 0.145677 -0.159603
15  0.680006 0.000003 -0.000002  -0.000006 0.004979 -0.244269
16  3.698019 0.267560 -0.728981  -0.187867 0.053849 -0.147884
17  1.749005 0.000005 -0.000000  -0.050043 0.169739 -0.348648
18  0.959999 -0.000007 0.000004  0.000000 0.007356 -0.430826
19  3.768510 0.152545 0.071385  0.051118 0.054914 -0.161084
20  2.038003 -0.000008 0.000005  -0.030714 0.144103 -0.593692
21  1.067003 0.000001 -0.000003  0.000000 0.003077 -0.216389
22  3.783932 -0.017258 0.794555  0.219372 -0.139443 0.046177
23  1.629002 -0.000002 -0.000003  0.081190 0.162419 -0.749968
24  0.956000 0.000006 -0.000010  -0.000002 0.002593 -0.244320
25  1.258971 -0.297984 1.252595  -1.516841 -0.400376 -0.573545
26  1.393004 -0.000004 -0.000000  -0.178851 -0.262528 0.365100
27  1.100006 -0.000001 -0.000003  0.000012 0.011266 0.362866
28  5.604151 -0.000017 -0.000004  -0.030871 0.000001 0.000005
29  11.208302 -0.000033 -0.000010  -0.057544 0.000001 -0.000005
30  5.560008 -0.700021 -0.500008  -0.000000 0.000001 -0.000002
31  1.500005 -0.000007 -0.000004  0.000001 0.000001 -0.000001
32  11.123071 -0.000039 -0.000015  0.000005 0.000000 -0.100078
33  4.271704 -0.000005 0.000007  0.000000 -0.000001 -0.000003
34  2.023722 0.907442 -0.852526  1.567159 2.023839 -0.181982
35  4.983667 -0.000011 -0.000002  2.276317 -0.368999 -0.717489
36  11.123066 -0.000035 0.000010  0.000844 -0.560931 -0.506786
37  11.208308 -0.000032 0.000012  -1.563667 0.106377 0.130253
38  2.676088 -1.712462 -0.000001  -1.570805 0.000002 -1.570600
39  3.549277 0.211390 1.487670  0.478296 -0.182223 -0.394350
40  1.219007 -0.000006 -0.000003  0.032616 -0.146819 -0.158464
41  0.680003 0.000003 0.000001  0.000005 -0.006133 -0.244287
42  3.698027 0.273696 0.726621  0.179160 -0.056915 -0.150334
43  1.749003 0.000007 0.000007  0.046968 -0.169103 -0.348983
44  0.959996 -0.000005 -0.000005  0.000004 -0.009661 -0.430790
45  3.768514 0.151936 -0.072743  -0.046185 -0.058076 -0.163529
46  2.038009 0.000007 0.000013  0.029581 -0.150636 -0.592291
47  1.067000 0.000003 0.000002  -0.000001 -0.004460 -0.216349
48  3.783914 -0.023973 -0.794457  -0.221477 0.137734 0.042335
49  1.629000 -0.000001 0.000013  -0.070538 -0.165980 -0.749343
50  0.956002 0.000011 0.000011  0.000003 -0.004203 -0.244312
51  1.258939 -0.308553 -1.250057  1.771664 0.394752 -0.578454
52  1.393005 -0.000005 -0.000003  0.243205 0.346380 0.287193
53  1.100003 0.000004 0.000001  -0.000006 -0.009622 0.362884
54  5.604151 -0.000018 0.000009  0.034936 -0.000001 -0.000005
55  11.208304 -0.000033 0.000017  0.065168 -0.000001 0.000005
56  11.123073 -0.000035 0.000008  0.000005 -0.000001 -0.100078
57  1.500008 -0.000006 0.000000  -0.000002 -0.000001 -0.000001
58  5.560002 -0.700020 0.500004  -0.000001 -0.000001 -0.000003
59  4.271701 -0.000012 -0.000002  -0.000000 -0.000001 -0.000000
60  2.132011 1.532029 5.000000  -0.000000 -0.000006 -0.000001
61  2.132016 1.532028 -5.000000  -0.000000 -0.000006 -0.000003
62  3.984014 -0.000000 -0.000003  -1.573762 -0.032080 -1.488509
63  15.940020 0.000153 0.000005  -0.004887 0.099144 0.349315
64  17.709562 -0.000014 -0.000003  0.008799 0.017186 -1.002421
65  6.203997 0.000015 -0.000001  -0.001050 -0.003488 -0.555366
66  -3.984013 0.000008 0.000007  -1.567812 -0.032078 -1.653085
67  15.940017 0.000156 0.000001  0.005257 -0.099138 0.349316
68  17.709566 -0.000012 0.000001  -0.002131 -0.019445 -1.002273
69  6.203997 -0.000012 -0.000003  -0.061128 0.006496 -0.556040
time 1
0  -0.000005 -0.788460 38.481480  1.570796 -0.000000 0.000001
1  0.000005 4.212788 -1.689856  1.570795 0.086294 1.570791
2  3.837400 0.000028 0.000001  -0.000000 0.000001 -0.029229
3  3.617854 0.000023 -0.000003  -0.000000 -0.000044 0.100326
4  7.539779 0.000026 -0.000000  0.000010 0.000052 0.194100
5  3.178299 -0.000032 0.000003  3.141588 -0.000019 0.372983
6  2.970290 -0.000017 -0.000000  -0.000004 0.000010 0.302762
7  0.000000 -0.000000 0.000000  -1.570796 -0.000000 -1.326447
8  2.023718 0.907439 0.852581  -1.577190 -2.025535 -0.171569
9  4.983673 -0.000007 0.000009  -2.274751 0.365995 -0.714461
10  11.123064 -0.000038 -0.000010  -0.001813 0.561993 -0.505581
11  11.208270 -0.000035 -0.000038  1.573453 -0.106734 0.134902
12  2.676093 -1.712438 0.000001  1.570795 0.000002 1.570888
13  3.549253 0.198826 -1.489472  -0.476719 0.177588 -0.392546
14  1.219006 0.000003 0.000001  -0.040846 0.145677 -0.159603
15  0.680006 0.000003 -0.000002  -0.000006 0.004979 -0.244269
16  3.698019 0.267560 -0.728981  -0.187867 0.053849 -0.147884
17  1.749005 0.000005 -0.000000  -0.050043 0.169739 -0.348648
18  0.959999 -0.000007 0.000004  0.000000 0.007356 -0.430826
19  3.768510 0.152545 0.071385  0.051118 0.054914 -0.161084
20  2.038003 -0.000008 0.000005  -0.030714 0.144103 -0.593692
21  1.067003 0.000001 -0.000003  0.000000 0.003077 -0.216389
22  3.783932 -0.017258 0.794555  0.219372 -0.139443 0.046177
23  1.629002 -0.000002 -0.000003  0.081190 0.162419 -0.749968
24  0.956000 0.000006 -0.000010  -0.000002 0.002593 -0.244320
25  1.258971 -0.297984 1.252595  -1.516841 -0.400376 -0.573545
26  1.393004 -0.000004 -0.000000  -0.178851 -0.262528 0.365100
27  1.100006 -0.000001 -0.000003  0.000012 0.011266 0.362866
28  5.604151 -0.000017 -0.000004  -0.030871 0.000001 0.000005
29  11.208302 -0.000033 -0.000010  -0.057544 0.000001 -0.000005
30  5.560008 -0.700021 -0.500008  -0.000000 0.000001 -0.000002
31  1.500005 -0.000007 -0.000004  0.000001 0.000001 -0.000001
32  11.123071 -0.000039 -0.000015  0.000005 0.000000 -0.100078
33  4.271704 -0.000005 0.000007  0.000000 -0.000001 -0.000003
34  2.023722 0.907442 -0.852526  1.567159 2.023839 -0.181982
35  4.983667 -0.000011 -0.000002  2.276317 -0.368999 -0.717489
36  11.123066 -0.000035 0.000010  0.000844 -0.560931 -0.506786
37  11.208308 -0.000032 0.000012  -1.563667 0.106377 0.130253
38  2.676088 -1.712462 -0.000001  -1.570805 0.000002 -1.570600
39  3.549277 0.211390 1.487670  0.478296 -0.182223 -0.394350
40  1.219007 -0.000006 -0.000003  0.032616 -0.146819 -0.158464
41  0.680003 0.000003 0.000001  0.000005 -0.006133 -0.244287
42  3.698027 0.273696 0.726621  0.179160 -0.056915 -0.150334
43  1.749003 0.000007 0.000007  0.046968 -0.169103 -0.348983
44  0.959996 -0.000005 -0.000005  0.000004 -0.009661 -0.430790
45  3.768514 0.151936 -0.072743  -0.046185 -0.058076 -0.163529
46  2.038009 0.000007 0.000013  0.029581 -0.150636 -0.592291
47  1.067000 0.000003 0.000002  -0.000001 -0.004460 -0.216349
48  3.783914 -0.023973 -0.794457  -0.221477 0.137734 0.042335
49  1.629000 -0.000001 0.000013  -0.070538 -0.165980 -0.749343
50  0.956002 0.000011 0.000011  0.000003 -0.004203 -0.244312
51  1.258939 -0.308553 -1.250057  1.771664 0.394752 -0.578454
52  1.393005 -0.000005 -0.000003  0.243205 0.346380 0.287193
53  1.100003 0.000004 0.000001  -0.000006 -0.009622 0.362884
54  5.604151 -0.000018 0.000009  0.034936 -0.000001 -0.000005
55  11.208304 -0.000033 0.000017  0.065168 -0.000001 0.000005
56  11.123073 -0.000035 0.000008  0.000005 -0.000001 -0.100078
57  1.500008 -0.000006 0.000000  -0.000002 -0.000001 -0.000001
58  5.560002 -0.700020 0.500004  -0.000001 -0.000001 -0.000003
59  4.271701 -0.000012 -0.000002  -0.000000 -0.000001 -0.000000
60  2.132011 1.532029 5.000000  -0.000000 -0.000006 -0.000001
61  2.132016 1.532028 -5.000000  -0.000000 -0.000006 -0.000003
62  3.984014 -0.000000 -0.000003  -1.573762 -0.032080 -1.488509
63  15.940020 0.000153 0.000005  -0.004887 0.099144 0.349315
64  17.709562 -0.000014 -0.000003  0.008799 0.017186 -1.002421
65  6.203997 0.000015 -0.000001  -0.001050 -0.003488 -0.555366
66  -3.984013 0.000008 0.000007  -1.567812 -0.032078 -1.653085
67  15.940017 0.000156 0.000001  0.005257 -0.099138 0.349316
68  17.709566 -0.000012 0.000001  -0.002131 -0.019445 -1.002273
69  6.203997 -0.000012 -0.000003  -0.061128 0.006496 -0.556040
end
